time,eventDescription
0.001200,SessionStart
11.004050,StartActuatingBack
14.013720,StopActuating
23.019700,StartActuatingLeft
26.030290,StopActuating
41.034620,StartActuatingFront
44.043950,StopActuating
49.053230,StartActuatingRight
52.062480,StopActuating
69.065710,StartActuatingFront
72.070750,StopActuating
85.080570,StartActuatingRight
88.090090,StopActuating
95.098530,StartActuatingLeft
98.107780,StopActuating
117.110600,StartActuatingBack
120.119800,StopActuating
123.129700,SessionEnd
