time,eventDescription
0.002165,SessionStart
11.013620,StartActuatingRight
14.022930,StopActuating
23.029870,StartActuatingFront
26.036150,StopActuating
41.043930,StartActuatingBack
44.053310,StopActuating
49.062290,StartActuatingLeft
52.071630,StopActuating
69.074810,StartActuatingLeft
72.085010,StopActuating
85.089670,StartActuatingBack
88.099480,StopActuating
95.102190,StartActuatingRight
98.105930,StopActuating
117.108800,StartActuatingFront
120.117800,StopActuating
123.128200,SessionEnd
