time,eventDescription
0.001185,SessionStart
11.004140,StartActuatingBack
14.013970,StopActuating
23.021080,StartActuatingLeft
26.030500,StopActuating
41.034650,StartActuatingFront
44.044000,StopActuating
49.053160,StartActuatingRight
52.062440,StopActuating
69.066160,StartActuatingFront
72.076060,StopActuating
85.080680,StartActuatingRight
88.090390,StopActuating
95.093680,StartActuatingLeft
98.096980,StopActuating
117.099300,StartActuatingBack
120.110100,StopActuating
123.118800,SessionEnd
