time,eventDescription
0.002139,SessionStart
11.009490,StartActuatingRight
14.018540,StopActuating
23.025610,StartActuatingFront
26.035000,StopActuating
41.038890,StartActuatingBack
44.048990,StopActuating
49.057580,StartActuatingLeft
52.067490,StopActuating
69.076720,StartActuatingLeft
72.080180,StopActuating
85.085460,StartActuatingBack
88.095150,StopActuating
95.102930,StartActuatingRight
98.112760,StopActuating
117.115000,StartActuatingFront
120.124700,StopActuating
123.134600,SessionEnd
