time,eventDescription
0.002067,SessionStart
11.011310,StartActuatingFront
14.020810,StopActuating
23.027360,StartActuatingRight
26.037160,StopActuating
41.041470,StartActuatingLeft
44.048180,StopActuating
49.057520,StartActuatingBack
52.058220,StopActuating
69.061790,StartActuatingRight
72.071270,StopActuating
85.077350,StartActuatingFront
88.086410,StopActuating
95.094800,StartActuatingBack
98.106150,StopActuating
117.108100,StartActuatingLeft
120.117200,StopActuating
123.125900,SessionEnd
