time,eventDescription
0.001191,SessionStart
11.004270,StartActuatingRight
14.013880,StopActuating
23.020900,StartActuatingFront
26.030610,StopActuating
41.035020,StartActuatingBack
44.044120,StopActuating
49.053670,StartActuatingLeft
52.062800,StopActuating
69.066260,StartActuatingLeft
72.073970,StopActuating
85.081210,StartActuatingBack
88.088710,StopActuating
95.098130,StartActuatingRight
98.108100,StopActuating
117.111000,StartActuatingFront
120.117700,StopActuating
123.118500,SessionEnd
