time,eventDescription
0.001075,SessionStart
11.004160,StartActuatingBack
14.013540,StopActuating
23.020940,StartActuatingLeft
26.030400,StopActuating
41.034520,StartActuatingFront
44.044120,StopActuating
49.052960,StartActuatingRight
52.062620,StopActuating
69.066250,StartActuatingFront
72.075240,StopActuating
85.081020,StartActuatingRight
88.090470,StopActuating
95.098650,StartActuatingLeft
98.108150,StopActuating
117.110400,StartActuatingBack
120.120200,StopActuating
123.129200,SessionEnd
