time,eventDescription
0.002096,SessionStart
11.006520,StartActuatingFront
14.015750,StopActuating
23.022980,StartActuatingRight
26.031740,StopActuating
41.036210,StartActuatingLeft
44.045930,StopActuating
49.054360,StartActuatingBack
52.064630,StopActuating
69.065560,StartActuatingRight
72.066380,StopActuating
85.067700,StartActuatingFront
88.069640,StopActuating
95.077900,StartActuatingBack
98.087350,StopActuating
117.098500,StartActuatingLeft
120.099800,StopActuating
123.109300,SessionEnd
