time,angle
-0.499699,0.126669
-0.491520,0.126669
-0.483318,0.126669
-0.475208,0.126669
-0.470928,0.126669
-0.462688,0.126669
-0.454639,0.052339
-0.446549,0.027976
-0.442230,0.027976
-0.434208,0.027976
-0.426109,0.027976
-0.421730,0.027976
-0.409668,0.027976
-0.405430,0.027976
-0.397369,0.027976
-0.389179,0.027976
-0.384960,0.027976
-0.376900,0.027976
-0.368797,0.027976
-0.360477,0.027976
-0.356098,0.125115
-0.348118,0.125115
-0.340019,0.125115
-0.335697,0.125115
-0.327648,0.125115
-0.319519,0.125115
-0.311249,0.125115
-0.303169,0.125115
-0.298870,0.125115
-0.290749,0.125115
-0.282509,0.125115
-0.274288,0.196832
-0.266228,0.196832
-0.258019,0.196832
-0.250019,0.196832
-0.245590,0.196832
-0.237530,0.212142
-0.229370,0.212142
-0.221161,0.212142
-0.212959,0.212142
-0.204861,0.212142
-0.200558,0.212142
-0.192368,0.212142
-0.180359,0.212142
-0.175999,0.212142
-0.167957,0.212142
-0.159790,0.212142
-0.151569,0.212142
-0.147400,0.212142
-0.139298,0.212142
-0.131008,0.212142
-0.122818,0.212142
-0.114758,0.212142
-0.110439,0.212142
-0.102398,0.212142
-0.094299,0.212142
-0.089977,0.212142
-0.081799,0.212142
-0.069798,0.212142
-0.065338,0.212142
-0.057388,0.212142
-0.049259,0.212142
-0.040958,0.212142
-0.032799,0.212142
-0.024700,0.212142
-0.020348,0.212142
-0.012119,0.212142
-0.004040,0.212142
0.004169,0.212142
0.012112,0.212142
0.020321,0.212142
0.028580,0.212142
0.032902,0.212142
0.040981,0.212142
0.049049,0.212142
0.057240,0.212142
0.061489,0.212142
0.069672,0.212142
0.078030,0.212142
0.086090,0.212142
0.094139,0.212142
0.102249,0.212142
0.110512,0.212142
0.118801,0.212142
0.123180,0.212142
0.131100,0.212142
0.139301,0.212142
0.147381,0.212142
0.151680,0.212142
0.159870,0.212142
0.168121,0.212142
0.176300,0.212142
0.184322,0.212142
0.192440,0.212142
0.196739,0.212142
0.204792,0.212142
0.212830,0.212142
0.221050,0.212142
0.229271,0.212142
0.237461,0.212142
0.241722,0.260196
0.249790,0.260196
0.257912,0.260196
0.262173,0.316518
0.270351,0.316518
0.278572,0.316518
0.286682,0.316518
0.294769,0.316518
0.299122,0.316518
0.307152,0.316518
0.315220,0.316518
0.319622,0.316518
0.331562,0.316518
0.339901,0.389668
0.344112,0.389668
0.352161,0.389668
0.356571,0.389668
0.364533,0.502800
0.372582,0.502800
0.380821,0.502800
0.389050,0.502800
0.397171,0.577430
0.401440,0.577430
0.409493,0.577430
0.413841,0.577430
0.421890,0.641940
0.430092,0.641940
0.438320,0.722534
0.446381,0.722534
0.454533,0.722534
0.458771,0.722534
0.466831,0.722534
0.471161,0.872901
0.479363,0.872901
0.491390,0.872901
0.495632,0.872901
0.503700,0.957566
0.508041,0.957566
0.516090,0.957566
0.524139,0.957566
0.532311,1.112587
0.540592,1.112587
0.548733,1.112587
0.553001,1.112587
0.561070,1.112587
0.569229,1.199099
0.573441,1.199099
0.581673,1.199099
0.589851,1.199099
0.597920,1.262846
0.602242,1.333542
0.610302,1.333542
0.618382,1.422991
0.622681,1.422991
0.630810,1.422991
0.639099,1.422991
0.647152,1.512714
0.655232,1.512714
0.659531,1.512714
0.667603,1.512714
0.675640,1.673042
0.680061,1.673042
0.692089,1.673042
0.696369,1.762808
0.704422,1.762808
0.712570,1.762808
0.716850,1.762808
0.724941,1.852557
0.733009,1.852557
0.741272,1.852557
0.749439,2.022359
0.753731,2.022359
0.761772,2.022359
0.769913,2.022359
0.774212,2.111647
0.782280,2.111647
0.790569,2.111647
0.798611,2.111647
0.806751,2.201226
0.811031,2.201226
0.819061,2.201226
0.823422,2.201226
0.831532,2.201226
0.839790,2.201226
0.847931,2.361569
0.855930,2.361569
0.860252,2.361569
0.868313,2.361569
0.876381,2.361569
0.884460,2.361569
0.892792,2.361569
0.897072,2.451042
0.905109,2.521812
0.913273,2.521812
0.917522,2.521812
0.925579,2.521812
0.933682,2.521812
0.941940,2.521812
0.946312,2.521812
0.954361,2.521812
0.962433,2.521812
0.966770,2.611570
0.974800,2.611570
0.982941,2.611570
0.991192,2.611570
0.999321,2.675325
1.003750,2.675325
1.011662,2.675325
1.019741,2.675325
1.024052,2.675325
1.032169,2.765342
1.040390,2.765342
1.048450,2.765342
1.056530,2.765342
1.060982,2.765342
1.072891,2.765342
1.077351,2.765342
1.085392,2.765342
1.093502,2.765342
1.101662,2.765342
1.105881,2.765342
1.113979,2.765342
1.122231,2.765342
1.130402,2.765342
1.138531,2.765342
1.143051,2.765342
1.151001,2.765342
1.159370,2.765342
1.167442,2.836211
1.175552,2.926166
1.183601,2.926166
1.191853,2.926166
1.199970,2.926166
1.204231,2.926166
1.212360,2.926166
1.220642,2.926166
1.228832,2.926166
1.236973,2.855402
1.244991,2.855402
1.249352,2.855402
1.257492,2.855402
1.265511,2.855402
1.273651,2.855402
1.281940,2.855402
1.290119,2.856362
1.298229,2.856362
1.302502,2.856362
1.310562,2.856362
1.314873,2.856362
1.322960,2.856362
1.331181,2.856362
1.339371,2.856362
1.347420,2.856362
1.351730,2.856362
1.363682,2.856362
1.371971,2.855196
1.376289,2.855196
1.384293,2.945369
1.392521,2.945369
1.400650,2.874874
1.404900,2.874874
1.413071,2.874874
1.421291,2.874874
1.429462,2.874874
1.437481,2.874874
1.441879,2.874874
1.449963,2.874874
1.458000,2.874874
1.462311,2.874874
1.470531,2.874874
1.482559,2.880044
1.486851,2.880044
1.494850,2.970188
1.499210,2.970188
1.507252,2.970188
1.515350,2.970188
1.519642,2.970188
1.527710,2.974272
1.535751,2.974272
1.544029,2.974272
1.548340,3.064458
1.556393,3.064458
1.564510,3.064458
1.568783,3.064458
1.576839,3.064458
1.584911,3.064458
1.593201,3.064458
1.601341,3.154612
1.605560,3.154612
1.613663,3.154612
1.617992,3.154612
1.626072,3.154612
1.634190,3.154612
1.642410,3.154612
1.650501,3.244798
1.654800,3.253053
1.662960,3.253053
1.671181,3.253053
1.679390,3.261588
1.687420,3.261588
1.695572,3.261588
1.699871,3.261588
1.707951,3.261588
1.715969,3.261588
1.724171,3.261588
1.732441,3.261588
1.740601,3.351469
1.744862,3.351469
1.752991,3.351469
1.761242,3.351469
1.769382,3.351469
1.777431,3.351469
1.785542,3.351469
1.793861,3.351469
1.798161,3.351469
1.806190,3.351469
1.814442,3.351469
1.822639,3.351469
1.830830,3.351469
1.838902,3.351469
1.843231,3.351469
1.851280,3.351469
1.859402,3.351469
1.863720,3.351469
1.871891,3.351469
1.883900,3.351469
1.892151,3.351469
1.896381,3.421080
1.904461,3.421080
1.912731,3.421080
1.920982,3.421080
1.929020,3.421080
1.933350,3.421080
1.945393,3.421080
1.949600,3.421080
1.957672,3.421080
1.965820,3.421080
1.974041,3.421080
1.982262,3.421080
1.986622,3.421080
1.994652,3.351469
2.002762,3.351469
2.007050,3.351469
2.015079,3.351469
2.023293,3.351469
2.031521,3.351469
2.039612,3.351469
2.047760,3.351469
2.052040,3.351469
2.060112,3.261588
2.068172,3.261588
2.072582,3.261588
2.084579,3.261588
2.092831,3.261588
2.097042,3.261588
2.105141,3.261588
2.109501,3.261588
2.117592,3.171694
2.125591,3.171694
2.133850,3.171694
2.142090,3.171694
2.150169,3.171694
2.154541,3.102298
2.162540,3.102298
2.166840,3.102298
2.174900,3.102298
2.183083,3.102298
2.191360,3.102298
2.199360,3.012399
2.207493,3.012399
2.211761,3.012399
2.219810,3.012399
2.224140,2.994410
2.232342,2.994410
2.240532,2.994410
2.248592,2.994410
2.256641,2.994410
2.264832,2.994410
2.273060,2.994410
2.277401,2.924359
2.285442,2.924359
2.293690,2.924359
2.301743,2.924359
2.306042,2.924359
2.314251,2.834208
2.322399,2.834208
2.330662,2.834208
2.338661,2.834208
2.346783,2.834208
2.351070,2.834208
2.359119,2.834208
2.367180,2.924359
2.375370,2.924359
2.383640,2.924359
2.391823,2.924359
2.396072,2.924359
2.404182,2.924359
2.412491,2.924359
2.420582,2.924359
2.428612,2.924359
2.433041,2.924359
2.445080,2.924359
2.449360,2.924359
2.457432,2.924359
2.465572,2.924359
2.473812,2.924359
2.482010,2.924359
2.490082,2.924359
2.494431,2.924359
2.502480,2.924359
2.510620,2.924359
2.514881,2.924359
2.523090,2.924359
2.531330,2.924359
2.539410,2.924359
2.547569,2.924359
2.551800,2.924359
2.559841,2.924359
2.567909,2.924359
2.576050,2.924359
2.584301,2.924359
2.588612,2.924359
2.596630,2.834208
2.601002,2.834208
2.609070,2.834208
2.617092,2.904207
2.621422,2.904207
2.629471,2.904207
2.637501,2.904207
2.645752,2.904207
2.650051,2.904207
2.658150,2.904207
2.666222,2.904207
2.674461,2.904207
2.682671,2.904207
2.690762,2.904207
2.695080,2.904207
2.703140,2.904207
2.711292,2.904207
2.715511,2.904207
2.723732,2.904207
2.731991,2.904207
2.740002,2.904207
2.748093,2.904207
2.752441,2.904207
2.760571,2.904207
2.768600,2.904207
2.776760,2.904207
2.785000,2.904207
2.793221,2.899891
2.797550,2.899891
2.805622,2.899891
2.813850,2.899891
2.822071,2.899891
2.830101,2.899891
2.838161,2.899891
2.846451,2.899891
2.850742,2.899891
2.858791,2.904207
2.866932,2.904207
2.875160,2.904207
2.883400,2.904207
2.891521,2.904207
2.895790,2.834208
2.903831,2.834208
2.912003,2.834208
2.916260,2.834208
2.924431,2.834208
2.932720,2.834208
2.940811,2.834208
2.948841,2.834208
2.953239,2.834208
2.961250,2.834208
2.969280,2.834208
2.977421,2.834208
2.985672,2.834208
2.993912,2.834208
2.998230,2.854442
3.006252,2.854442
3.014393,2.854442
3.018631,2.854442
3.026711,2.854442
3.034962,2.854442
3.043133,2.854442
3.051220,2.849500
3.055519,2.849500
3.063763,2.849500
3.072002,2.849500
3.080040,2.849500
3.088081,2.849500
3.096310,2.849500
3.100670,2.849500
3.108711,2.849500
3.116940,2.849500
3.125042,2.849500
3.133270,2.854442
3.141361,2.854442
3.145702,2.854442
3.153782,2.854442
3.162029,2.854442
3.169941,2.854442
3.178169,2.849500
3.186382,2.849500
3.194592,2.764280
3.198879,2.689190
3.206932,2.689190
3.215073,2.689190
3.219341,2.689190
3.227402,2.604290
3.235661,2.604290
3.243759,2.604290
3.251892,2.534432
3.256241,2.444325
3.264240,2.444325
3.272400,2.444325
3.276661,2.444325
3.284870,2.444325
3.293053,2.444325
3.301121,2.284562
3.305443,2.284562
3.313560,2.284562
3.321590,2.284562
3.325871,2.194637
3.334091,2.194637
3.342262,2.184805
3.350262,2.110998
3.358410,2.020811
3.362690,2.020811
3.370762,2.020811
3.378853,1.950436
3.387100,1.950436
3.395290,1.860148
3.399590,1.860148
3.407631,1.699733
3.415760,1.699733
3.420040,1.699733
3.428070,1.609611
3.436222,1.609611
3.444450,1.609611
3.448700,1.449019
3.456810,1.449019
3.464920,1.449019
3.469261,1.358979
3.477242,1.358979
3.485390,1.358979
3.489750,1.198610
3.497803,1.191733
3.505913,1.191733
3.510170,1.101629
3.518211,1.101629
3.526333,1.101629
3.530609,0.940868
3.538670,0.940868
3.546970,0.940868
3.555031,0.946467
3.559273,0.786339
3.567341,0.786339
3.575481,0.786339
3.579769,0.697174
3.587841,0.626201
3.596081,0.626201
3.604172,0.626201
3.608471,0.537048
3.616531,0.537048
3.624729,0.466881
3.628971,0.378459
3.637032,0.378459
3.645309,0.378459
3.653362,0.378459
3.661472,0.223812
3.665752,0.223812
3.673801,0.223812
3.678162,0.144018
3.686291,0.144018
3.698360,0.144018
3.712570,0.144018
3.712711,0.083929
3.715042,0.083929
3.723061,0.083929
3.731121,0.083929
3.739220,0.150658
3.747513,0.150658
3.751862,0.150658
3.759960,0.150658
3.767982,0.222936
3.772320,0.222936
3.780361,0.222936
3.788502,0.313412
3.796730,0.313412
3.804901,0.383595
3.809120,0.383595
3.817181,0.383595
3.825302,0.474365
3.829620,0.474365
3.837681,0.564059
3.845970,0.564059
3.854019,0.573690
3.858360,0.642853
3.866463,0.642853
3.874493,0.733020
3.878822,0.733020
3.886982,0.822819
3.895222,0.822819
3.903240,0.822819
3.911320,0.822819
3.915661,0.822819
3.923721,0.983177
3.931770,0.983177
3.936161,0.983177
3.948181,0.983177
3.952511,1.073014
3.960541,1.073014
3.968731,1.073014
3.972980,1.073014
3.981003,1.163316
3.989132,1.233370
3.997402,1.233370
4.005512,1.233370
4.009800,1.233370
4.017860,1.233370
4.026031,1.323378
4.030262,1.323378
4.038361,1.323378
4.046619,1.323378
4.054710,1.323378
4.059021,1.323378
4.067131,1.323378
4.075199,1.323378
4.079491,1.483717
4.087643,1.483717
4.095932,1.483717
4.103951,1.483717
4.111992,1.483717
4.116489,1.483717
4.128361,1.483717
4.136612,1.483717
4.140881,1.483717
4.148979,1.483717
4.157131,1.483717
4.161480,1.483717
4.169411,1.393812
4.177631,1.393812
4.185810,1.393812
4.193920,1.393812
4.198212,1.393812
4.206249,1.393812
4.210590,1.393812
4.218700,1.393812
4.226860,1.393812
4.235050,1.393812
4.243092,1.393812
4.251270,1.393812
4.255520,1.393812
4.263573,1.393812
4.267891,1.303563
4.276112,1.303563
4.284283,1.303563
4.292301,1.303563
4.300423,1.303563
4.304729,1.303563
4.312801,1.303563
4.320820,1.303563
4.329021,1.303563
4.337280,1.303563
4.341671,1.303563
4.349682,1.303563
4.357800,1.303563
4.366032,1.303563
4.374180,1.303563
4.378429,1.233370
4.386642,1.233370
4.394901,1.233370
4.402950,1.143294
4.411030,1.143294
4.415321,1.143294
4.423370,1.143294
4.431412,1.143294
4.439590,1.143294
4.447910,1.143294
4.452141,1.143294
4.460190,1.143294
4.468380,1.143294
4.476643,1.143294
4.484741,1.143294
4.489090,1.143294
4.497272,1.143294
4.505291,1.143294
4.513359,1.143294
4.517731,1.143294
4.526161,1.143294
4.537971,1.143294
4.542233,1.053134
4.550301,1.053134
4.558453,1.053134
4.562721,1.053134
4.570770,1.045676
4.578972,1.045676
4.587212,0.975183
4.595329,0.975183
4.599621,0.975183
4.607681,0.975183
4.615803,0.975183
4.620041,0.975183
4.628132,0.975183
4.636299,0.884923
4.640690,0.884923
4.648750,0.884923
4.656799,0.884923
4.664940,0.884923
4.669212,0.884923
4.677280,0.884923
4.681591,0.884923
4.689640,0.884923
4.697891,0.884923
4.705933,0.795247
4.710281,0.795247
4.718422,0.795247
4.726643,0.795247
4.734840,0.795247
4.742882,0.795247
4.750992,0.795247
4.755322,0.795247
4.763351,0.795247
4.771400,0.795247
4.779732,0.795247
4.787872,0.795247
4.796051,0.795247
4.800262,0.795247
4.808331,0.795247
4.812660,0.795247
4.820721,0.795247
4.828953,0.795247
4.837162,0.795247
4.845291,0.795247
4.853333,0.795247
4.861431,0.795247
4.869690,0.795247
4.877941,0.795247
4.882191,0.795247
4.890270,0.795247
4.898521,0.795247
4.906590,0.795247
4.910931,0.795247
4.919041,0.795247
4.927292,0.795247
4.935452,0.795247
4.943512,0.802838
4.951672,0.802838
4.955990,0.802838
4.964012,0.802838
4.972031,0.802838
4.980240,0.802838
4.988510,0.810842
4.992870,0.810842
5.000961,0.810842
5.008980,0.810842
5.013332,0.810842
5.021412,0.810842
5.029579,0.810842
5.037842,0.810842
5.045982,0.810842
5.054050,0.810842
5.062141,0.742832
5.070370,0.742832
5.078632,0.742832
5.083000,0.742832
5.090969,0.654019
5.099232,0.654019
5.107311,0.654019
5.111591,0.654019
5.119900,0.654019
5.127979,0.654019
5.136162,0.654019
5.144222,0.654019
5.152370,0.679262
5.156670,0.679262
5.164829,0.710518
5.172771,0.710518
5.180992,0.710518
5.189232,0.710518
5.197422,0.710518
5.201801,0.710518
5.209831,0.710518
5.218071,0.710518
5.226273,0.710518
5.234303,0.710518
5.242382,0.710518
5.250652,0.710518
5.255001,0.710518
5.263000,0.710518
5.271122,0.710518
5.279369,0.710518
5.287582,0.710518
5.295650,0.710518
5.300011,0.710518
5.308102,0.710518
5.316181,0.710518
5.320431,0.710518
5.328651,0.710518
5.336872,0.710518
5.344952,0.710518
5.353043,0.710518
5.357311,0.710518
5.365360,0.710518
5.369659,0.710518
5.377892,0.710518
5.389942,0.710518
5.394150,0.710518
5.402203,0.710518
5.406521,0.710518
5.414581,0.710518
5.422623,0.710518
5.430862,0.710518
5.439060,0.710518
5.443432,0.710518
5.451481,0.710518
5.459522,0.710518
5.467781,0.710518
5.471962,0.710518
5.480129,0.710518
5.488392,0.710518
5.496582,0.710518
5.504601,0.710518
5.512779,0.710518
5.520943,0.710518
5.529190,0.710518
5.533470,0.710518
5.541550,0.710518
5.549751,0.710518
5.557831,0.710518
5.562130,0.710518
5.570251,0.710518
5.578522,0.710518
5.586700,0.710518
5.594742,0.710518
5.602921,0.571640
5.607212,0.571640
5.615231,0.571640
5.623291,0.571640
5.631512,0.571640
5.639751,0.571640
5.647942,0.571640
5.652229,0.571640
5.660320,0.571640
5.668571,0.571640
5.676701,0.571640
5.684731,0.571640
5.692902,0.571640
5.701252,0.571640
5.705502,0.571640
5.713551,0.571640
5.721703,0.571640
5.729961,0.571640
5.738152,0.571640
5.746262,0.571640
5.750561,0.571640
5.758690,0.571640
5.766800,0.571640
5.774853,0.571640
5.782982,0.571640
5.791241,0.571640
5.799500,0.571640
5.803780,0.571640
5.811840,0.571640
5.820080,0.571640
5.828312,0.571640
5.836391,0.571640
5.844433,0.571640
5.852722,0.571640
5.857071,0.571640
5.865040,0.571640
5.873142,0.571640
5.881382,0.571640
5.889572,0.571640
5.893871,0.571640
5.901981,0.571640
5.910061,0.571640
5.914352,0.496534
5.922432,0.550719
5.930641,0.550719
5.938831,0.550719
5.946930,0.550719
5.951302,0.550719
5.959301,0.550719
5.967400,0.550719
5.971703,0.550719
5.979752,0.550719
5.987923,0.550719
5.992271,0.550719
6.000381,0.550719
6.008423,0.550719
