time,angle
-0.497879,0.113641
-0.493668,0.113641
-0.485600,0.113641
-0.477520,0.113641
-0.469200,0.113641
-0.461029,0.113641
-0.452828,0.113641
-0.448650,0.113641
-0.440529,0.113641
-0.432320,0.113641
-0.424210,0.113641
-0.419880,0.113641
-0.411671,0.113641
-0.403427,0.113641
-0.395371,0.113641
-0.387341,0.113641
-0.379150,0.113641
-0.370869,0.113641
-0.362709,0.113641
-0.354637,0.113641
-0.350227,0.113641
-0.342148,0.113641
-0.334049,0.113641
-0.329727,0.182384
-0.321529,0.182384
-0.309528,0.182384
-0.305107,0.182384
-0.297131,0.111906
-0.288998,0.111906
-0.280750,0.111906
-0.272598,0.111906
-0.268269,0.111906
-0.260120,0.111906
-0.248070,0.111906
-0.243809,0.111906
-0.235790,0.111906
-0.227657,0.111906
-0.219379,0.111906
-0.211170,0.074019
-0.206841,0.074019
-0.198738,0.000000
-0.190640,0.000000
-0.182468,0.000000
-0.174377,0.000000
-0.170017,0.000000
-0.161770,0.000000
-0.149757,0.000000
-0.145477,0.000000
-0.137478,0.000000
-0.129269,0.000000
-0.121029,0.079129
-0.112907,0.113641
-0.108627,0.113641
-0.100399,0.113641
-0.092381,0.113641
-0.084278,0.113641
-0.079918,0.113641
-0.071690,0.113641
-0.063469,0.113641
-0.055439,0.113641
-0.047348,0.113641
-0.043018,0.113641
-0.034927,0.113641
-0.026909,0.113641
-0.018681,0.113641
-0.010448,0.113641
-0.002289,0.113641
0.002022,0.113641
0.010132,0.113641
0.018372,0.113641
0.026550,0.113641
0.034542,0.113641
0.042690,0.113641
0.050972,0.113641
0.059113,0.113641
0.063370,0.113641
0.071503,0.113641
0.079750,0.113641
0.087982,0.113641
0.096012,0.113641
0.104111,0.113641
0.108521,0.113641
0.116692,0.113641
0.124733,0.113641
0.132862,0.113641
0.141090,0.113641
0.149300,0.113641
0.157421,0.113641
0.161671,0.113641
0.169903,0.113641
0.178112,0.113641
0.186161,0.113641
0.194222,0.079129
0.202492,0.079129
0.206791,0.079129
0.214871,0.079129
0.222950,0.079129
0.231201,0.079129
0.239422,0.079129
0.247551,0.079129
0.251881,0.079129
0.259911,0.079129
0.268082,0.079129
0.276112,0.079129
0.280552,0.079129
0.292481,0.079129
0.300819,0.079129
0.305061,0.185575
0.313103,0.185575
0.321232,0.185575
0.325501,0.185575
0.333550,0.294086
0.341770,0.294086
0.349979,0.410693
0.358120,0.410693
0.362400,0.410693
0.370430,0.410693
0.378582,0.548226
0.382870,0.638578
0.391052,0.638578
0.399323,0.638578
0.407322,0.756147
0.415470,0.866827
0.419701,0.866827
0.427750,0.930832
0.432110,1.045114
0.440281,1.045114
0.452362,1.095751
0.456593,1.158596
0.464630,1.273032
0.468941,1.273032
0.476982,1.273032
0.485062,1.386775
0.493221,1.386775
0.501492,1.442522
0.505802,1.501417
0.513870,1.553686
0.521961,1.553686
0.526260,1.553686
0.534390,1.671404
0.542481,1.729861
0.550720,1.729861
0.558830,1.729861
0.563110,1.782679
0.571182,1.782679
0.579281,1.782679
0.583580,1.844193
0.591740,1.900531
0.600021,1.900531
0.608070,1.958447
0.616131,1.958447
0.620491,1.958447
0.628532,2.011589
0.636593,2.073016
0.640972,2.129552
0.653023,2.129552
0.657291,2.186954
0.665432,2.186954
0.673481,2.186954
0.677773,2.186954
0.685841,2.249772
0.693920,2.301888
0.702210,2.301888
0.710373,2.301888
0.714611,2.415732
0.722660,2.415732
0.730801,2.415732
0.735092,2.415732
0.743179,2.478203
0.751442,2.478203
0.759510,2.478203
0.763889,2.478203
0.771893,2.478203
0.780010,2.478203
0.784302,2.655202
0.792431,2.655202
0.800682,2.655202
0.808743,2.706748
0.816841,2.706748
0.821232,2.706748
0.829189,2.770292
0.837250,2.830338
0.841671,2.947761
0.853703,2.947761
0.857983,2.947761
0.866051,2.947761
0.874161,2.947761
0.878460,3.123554
0.886490,3.175765
0.894592,3.235795
0.902889,3.235795
0.911041,3.351410
0.915260,3.463680
0.923351,3.463680
0.927681,3.529253
0.935741,3.632325
0.943840,3.756922
0.952110,3.756922
0.960171,3.756922
0.964500,3.984723
0.972591,3.984723
0.980690,4.050671
0.984970,4.111327
0.993092,4.278419
1.001362,4.278419
1.009392,4.338605
1.017490,4.405622
1.021812,4.405622
1.029861,4.515749
1.037930,4.632907
1.042320,4.693732
1.054382,4.693732
1.058640,4.761686
1.066669,4.761686
1.074841,4.871420
1.079109,4.871420
1.087151,4.920637
1.095242,4.988413
1.103542,4.988413
1.107891,5.049660
1.115940,5.098275
1.124043,5.098275
1.128349,5.098275
1.136410,5.227984
1.144531,5.227984
1.152760,5.227984
1.160862,5.227984
1.165173,5.227984
1.173222,5.337517
1.181351,5.337517
1.185631,5.337517
1.193722,5.337517
1.202030,5.337517
1.210079,5.289910
1.218182,5.289910
1.222511,5.289910
1.230553,5.352072
1.238640,5.352072
1.242992,5.352072
1.251240,5.352072
1.259293,5.305888
1.267372,5.305888
1.271709,5.235662
1.279762,5.235662
1.287823,5.189653
1.292191,5.144413
1.304222,5.144413
1.308521,5.144413
1.316551,5.028548
1.324699,5.028548
1.328972,5.028548
1.337032,4.984523
1.345142,4.984523
1.353420,4.984523
1.361561,4.912827
1.365791,4.826453
1.373859,4.826453
1.378201,4.826453
1.386261,4.826453
1.394360,4.711519
1.402660,4.711519
1.410721,4.711519
1.415070,4.670051
1.423122,4.670051
1.431202,4.629905
1.435520,4.563213
1.443630,4.489604
1.451912,4.489604
1.459949,4.448934
1.468040,4.448934
1.472351,4.448934
1.480412,4.448934
1.488541,4.448934
1.492912,4.409444
1.504902,4.409444
1.509190,4.409444
1.517220,4.371480
1.525421,4.371480
1.529720,4.296372
1.537750,4.296372
1.545853,4.296372
1.554222,4.296372
1.558411,4.296372
1.566471,4.296372
1.574593,4.258506
1.582863,4.258506
1.590981,4.258506
1.599072,4.258506
1.603432,4.258506
1.611492,4.258506
1.619579,4.258506
1.623901,4.258506
1.631962,4.258506
1.640060,4.258506
1.644352,4.222342
1.652561,4.222342
1.660603,4.222342
1.668713,4.222342
1.673012,4.222342
1.681072,4.222342
1.685360,4.186942
1.693512,4.186942
1.705612,4.186942
1.709862,4.186942
1.717892,4.186942
1.722252,4.186942
1.730301,4.186942
1.738350,4.153316
1.746460,4.153316
1.754822,4.153316
1.759071,4.153316
1.767132,4.083174
1.775230,4.083174
1.779522,4.049800
1.787590,4.018295
1.795700,4.018295
1.803989,4.018295
1.812099,4.018295
1.816353,4.018295
1.824432,4.018295
1.832592,4.018295
1.836880,4.018295
1.844971,3.988162
1.853210,3.988162
1.861259,3.916517
1.869431,3.916517
1.873692,3.916517
1.881760,3.916517
1.886112,3.916517
1.894192,3.887309
1.902462,3.887309
1.910500,3.887309
1.918560,3.887309
1.922932,3.887309
1.930992,3.887309
1.939011,3.939399
1.943413,3.939399
1.955452,3.939399
1.959740,3.939399
1.967842,3.866802
1.975922,3.866802
1.980190,3.866802
1.988232,3.840430
1.996361,3.840430
2.004612,3.840430
2.008972,3.840430
2.017010,3.767384
2.025089,3.767384
2.029392,3.767384
2.037460,3.742143
2.045601,3.742143
2.053883,3.742143
2.061932,3.742143
2.066250,3.742143
2.074303,3.742143
2.082413,3.588342
2.086720,3.588342
2.094860,3.563703
2.103111,3.563703
2.111160,3.540110
2.119282,3.540110
2.123562,3.540110
2.131622,3.540110
2.139671,3.465997
2.144081,3.465997
2.156139,3.465997
2.160362,3.465997
2.168442,3.362666
2.172783,3.362666
2.180870,3.362666
2.188881,3.362666
2.197021,3.341640
2.205311,3.341640
2.209633,3.341640
2.217670,3.266686
2.225822,3.266686
2.230091,3.266686
2.238121,3.184814
2.246262,3.184814
2.254539,3.184814
2.262623,3.184814
2.266922,3.184814
2.274960,3.184814
2.283081,3.110050
2.287373,3.028667
2.295490,3.028667
2.303772,3.028667
2.311852,3.008302
2.319950,3.008302
2.324261,3.008302
2.332291,2.933249
2.340370,2.933249
2.344772,2.933249
2.353001,2.933249
2.361042,2.933249
2.369122,2.851629
2.373451,2.851629
2.381493,2.776785
2.389523,2.776785
2.397671,2.756976
2.405983,2.756976
2.410282,2.756976
2.418331,2.681610
2.426441,2.681610
2.430820,2.681610
2.438843,2.681610
2.446930,2.681610
2.455219,2.681610
2.463341,2.703274
2.467571,2.628529
2.475639,2.628529
2.483940,2.547911
2.488262,2.547911
2.496151,2.547911
2.504433,2.547911
2.512482,2.547911
2.516811,2.499750
2.524891,2.499750
2.533012,2.499750
2.537312,2.499750
2.545391,2.499750
2.553780,2.499750
2.561710,2.499750
2.569820,2.426242
2.574093,2.426242
2.582150,2.455670
2.590202,2.455670
2.594631,2.455670
2.606663,2.455670
2.610992,2.455670
2.618992,2.383349
2.627121,2.383349
2.631432,2.385401
2.639431,2.385401
2.647579,2.385401
2.655861,2.385401
2.660160,2.385401
2.668232,2.385401
2.676311,2.385401
2.680641,2.385401
2.688702,2.390810
2.696861,2.423659
2.705070,2.423659
2.713173,2.423659
2.717461,2.423659
2.725540,2.423659
2.733650,2.423659
2.737923,2.423659
2.746052,2.423659
2.754330,2.423659
2.762352,2.458776
2.770481,2.458776
2.774780,2.458776
2.782841,2.458776
2.790932,2.458776
2.795292,2.534664
2.807350,2.534664
2.811611,2.534664
2.819672,2.534664
2.827812,2.534664
2.832100,2.568722
2.840111,2.638785
2.848221,2.638785
2.856541,2.638785
2.860901,2.638785
2.868919,2.638785
2.877090,2.638785
2.885292,2.638785
2.893452,2.675983
2.901512,2.675983
2.905910,2.675983
2.913982,2.675983
2.922062,2.675983
2.926361,2.638785
2.934589,2.638785
2.946560,2.638785
2.950932,2.638785
2.958981,2.638785
2.967102,2.638785
2.975330,2.638785
2.983482,2.638785
2.987820,2.638785
2.995972,2.638785
3.004211,2.638785
3.012260,2.638785
3.020302,2.605492
3.028431,2.682412
3.036701,2.682412
3.044971,2.682412
3.049232,2.682412
3.057331,2.682412
3.065422,2.682412
3.069740,2.611120
3.077801,2.646193
3.085861,2.646193
3.090202,2.646193
3.098263,2.646193
3.106461,2.646193
3.114552,2.646193
3.118912,2.612994
3.126923,2.612994
3.135040,2.612994
3.139282,2.612994
3.147392,2.612994
3.155670,2.612994
3.163712,2.542066
3.171852,2.612994
3.176151,2.612994
3.184181,2.542066
3.192291,2.542066
3.196682,2.478203
3.204910,2.478203
3.212971,2.400369
3.221020,2.328265
3.225380,2.190977
3.233459,2.190977
3.241482,2.190977
3.249592,2.089566
3.257893,2.089566
3.262192,1.986034
3.270229,1.911415
3.278351,1.911415
3.282650,1.786846
3.290710,1.710979
3.298820,1.595814
3.307072,1.595814
3.315231,1.595814
3.319523,1.415960
3.327560,1.415960
3.335720,1.415960
3.339962,1.336181
3.348080,1.258499
3.356350,1.258499
3.364410,1.258499
3.368732,1.131077
3.376862,1.131077
3.384880,1.131077
3.389221,1.185642
3.397320,1.039105
3.405571,1.039105
3.413620,1.077927
3.421711,1.122045
3.426052,1.122045
3.434082,1.108711
3.442162,1.103049
3.446522,1.103049
3.458580,1.103049
3.462860,1.113115
3.470871,1.179188
3.475231,1.179188
3.483421,1.198773
3.491352,1.198773
3.499493,1.237646
3.507751,1.237646
3.512093,1.309404
3.520172,1.309404
3.528332,1.309404
3.532631,1.386210
3.540592,1.429303
3.548759,1.409172
3.556973,1.409172
3.565090,1.409172
3.569382,1.490034
3.577442,1.490034
3.585552,1.490034
3.589890,1.566231
3.597973,1.566231
3.606201,1.566231
3.614269,1.629188
3.622391,1.629188
3.626682,1.629188
3.634743,1.619792
3.642841,1.619792
3.647202,1.619792
3.655441,1.619792
3.663521,1.609611
3.671551,1.693157
3.675922,1.693157
3.683960,1.693157
3.692020,1.693157
3.700142,1.693157
3.708431,1.693157
3.712730,1.693157
3.720852,1.693157
3.728889,1.693157
3.733223,1.698120
3.741261,1.698120
3.749363,1.698120
3.757629,1.698120
3.765842,1.781252
3.770042,1.781252
3.778183,1.781252
3.786411,1.781252
3.794601,1.703643
3.809620,1.703643
3.810810,1.703643
3.815102,1.703643
3.823120,1.703643
3.831192,1.703643
3.839382,1.703643
3.847702,1.712122
3.851971,1.712122
3.860012,1.712122
3.868122,1.712122
3.872433,1.712122
3.880489,1.712122
3.888672,1.712122
3.896973,1.712122
3.905109,1.712122
3.913162,1.712122
3.917553,1.712122
3.929501,1.712122
3.937813,1.712122
3.942070,1.712122
3.950111,1.712122
3.958332,1.712122
3.966473,1.712122
3.970722,1.629428
3.978851,1.629428
3.987103,1.629428
3.995232,1.629428
4.003300,1.629428
4.011490,1.629428
4.015751,1.629428
4.023830,1.629428
4.028122,1.629428
4.036331,1.629428
4.044552,1.629428
4.052612,1.629428
4.060642,1.629428
4.064991,1.629428
4.073051,1.629428
4.081112,1.629428
4.089310,1.629428
4.097572,1.629428
4.105701,1.629428
4.109993,1.629428
4.118099,1.629428
4.126312,1.629428
4.134392,1.629428
4.138702,1.629428
4.146931,1.629428
4.158951,1.629428
4.163261,1.629428
4.171230,1.629428
4.179420,1.629428
4.187679,1.629428
4.195820,1.712122
4.200142,1.712122
4.208290,1.712122
4.216351,1.712122
4.224461,1.712122
4.228752,1.712122
4.236832,1.712122
4.241142,1.712122
4.249191,1.712122
4.257442,1.712122
4.265491,1.712122
4.273552,1.712122
4.277962,1.712122
4.286201,1.712122
4.294342,1.712122
4.302402,1.712122
4.310539,1.789254
4.318680,1.789254
4.322922,1.789254
4.330982,1.789254
4.339180,1.789254
4.347450,1.789254
4.355591,1.789254
4.363670,1.789254
4.368061,1.789254
4.376312,1.789254
4.388309,1.789254
4.392532,1.789254
4.400642,1.789254
4.408871,1.789254
4.416981,1.871999
4.421291,1.794824
4.429359,1.782130
4.437630,1.782130
4.445900,1.782130
4.453930,1.782130
4.462051,1.782130
4.466343,1.782130
4.474392,1.782130
4.482471,1.782130
4.486950,1.782130
4.495060,1.782130
4.503090,1.782130
4.511211,1.789691
4.515511,1.789691
4.523582,1.789691
4.531719,1.712351
4.539841,1.712351
4.548050,1.712351
4.552372,1.729409
4.560471,1.729409
4.568531,1.729409
4.572792,1.729409
4.580872,1.744506
4.588982,1.744506
4.593281,1.744506
4.601330,1.663540
4.609550,1.663540
4.617661,1.587946
4.621952,1.587946
4.630013,1.587946
4.638130,1.587946
4.642391,1.587946
4.650490,1.587946
4.658730,1.587946
4.666832,1.587946
4.671131,1.587946
4.679260,1.587946
4.687531,1.587946
4.695770,1.587946
4.703861,1.587946
4.711849,1.587946
4.719990,1.587946
4.728252,1.587946
4.732540,1.587946
4.740631,1.587946
4.748859,1.587946
4.757111,1.587946
4.765152,1.587946
4.773182,1.587946
4.781372,1.587946
4.789650,1.587946
4.797901,1.587946
4.802181,1.587946
4.810322,1.587946
4.818401,1.587946
4.826580,1.587946
4.830910,1.587946
4.839020,1.587946
4.847301,1.587946
4.859310,1.587946
4.863583,1.587946
4.871601,1.587946
4.879841,1.587946
4.888130,1.668709
4.896339,1.668709
4.904312,1.668709
4.908741,1.668709
4.916790,1.668709
4.924862,1.668709
4.932961,1.668709
4.941193,1.668709
4.949409,1.744506
4.953732,1.744506
4.961842,1.744506
4.969822,1.744506
4.978081,1.744506
4.982330,1.744506
4.990490,1.744506
4.998741,1.744506
5.006950,1.744506
5.015030,1.744506
5.023052,1.744506
5.031261,1.744506
5.039532,1.744506
5.047729,1.744506
5.052002,1.744506
5.060150,1.744506
5.068230,1.744506
5.072552,1.744506
5.080631,1.744506
5.088882,1.744506
5.097111,1.825849
5.105183,1.825849
5.113220,1.825849
5.121422,1.825849
5.129612,1.843344
5.137840,1.843344
5.142113,1.843344
5.150242,1.843344
5.158520,1.843344
5.166580,1.843344
5.174629,1.843344
5.179070,1.843344
5.191021,1.843344
5.199291,1.843344
5.203571,1.843344
5.211639,1.843344
5.219830,1.843344
5.227951,1.843344
5.232300,1.843344
5.240391,1.843344
5.248642,1.843344
5.256912,1.924069
5.264893,1.924069
5.272972,1.924069
5.277290,1.924069
5.285362,1.999586
5.293381,1.965330
5.301620,1.965330
5.309879,1.965330
5.314201,1.965330
5.322281,1.965330
5.330379,1.965330
5.334652,1.965330
5.342743,1.965330
5.350891,1.965330
5.359192,1.965330
5.367260,1.965330
5.375370,1.965330
5.379669,2.042198
5.387741,2.042198
5.395809,2.032977
5.400211,2.032977
5.412231,2.032977
5.416492,2.032977
5.424572,2.032977
5.432732,2.032977
5.436970,2.032977
5.445049,2.032977
5.453140,2.032977
5.461411,2.032977
5.465782,2.026710
5.473862,2.026710
5.482002,2.026710
5.486301,2.026710
5.494270,1.943198
5.502361,1.943198
5.510632,1.943198
5.518749,1.943198
5.523022,1.943198
5.531181,1.943198
5.539242,1.943198
5.543530,1.939670
5.551701,1.939670
5.559872,1.939670
5.567902,1.939670
5.576061,1.855724
5.580341,1.855724
5.588390,1.933607
5.592731,1.933607
5.600872,1.933607
5.609131,1.933607
5.617142,1.933607
5.625202,1.933607
5.633312,1.933607
5.641590,1.933607
5.649822,1.933607
5.654160,1.933202
5.662212,1.933202
5.670250,1.933202
5.674629,1.933202
5.682682,1.933202
5.690872,1.933202
5.699150,1.933202
5.707291,1.933202
5.715351,1.933202
5.723499,1.933202
5.727760,1.933202
5.735832,1.933202
5.743900,2.010908
5.752151,2.010908
5.760403,2.010908
5.764709,2.013631
5.772732,2.099004
5.780872,2.099004
5.785141,2.099004
5.793190,2.099004
5.801399,2.099004
5.809669,2.099004
5.817711,2.099004
5.822060,2.176278
5.830120,2.176278
5.838192,2.185074
5.842472,2.275721
5.850632,2.275721
5.858871,2.275721
5.866932,2.275721
5.875080,2.275721
5.879311,2.275721
5.887371,2.359496
5.891701,2.368768
5.899910,2.368768
5.911942,2.385237
5.916203,2.461163
5.924259,2.461163
5.932411,2.461163
5.936680,2.557955
5.944733,2.557955
5.952911,2.557955
5.961170,2.557955
5.969299,2.557955
5.973591,2.557955
5.981663,2.557955
5.989742,2.640713
5.994072,2.640713
6.002171,2.656381
