time,angle
-0.499359,0.157018
-0.495060,0.157018
-0.487030,0.157018
-0.478920,0.157018
-0.470749,0.157018
-0.462509,0.157018
-0.458229,0.157018
-0.450138,0.157018
-0.442020,0.157018
-0.437748,0.157018
-0.429699,0.157018
-0.421497,0.157018
-0.413338,0.159490
-0.405220,0.159490
-0.400898,0.159490
-0.392849,0.159490
-0.384708,0.159490
-0.380459,0.159490
-0.372238,0.159490
-0.364067,0.159490
-0.356037,0.159490
-0.347847,0.159490
-0.343609,0.159490
-0.335548,0.079129
-0.331200,0.151951
-0.323170,0.151951
-0.315048,0.151951
-0.310768,0.139882
-0.302559,0.139882
-0.294510,0.139882
-0.286419,0.139882
-0.282120,0.139882
-0.274078,0.139882
-0.265968,0.230700
-0.261627,0.230700
-0.253380,0.230700
-0.245327,0.230700
-0.237297,0.160713
-0.229149,0.160713
-0.220879,0.160713
-0.216469,0.160713
-0.208439,0.160713
-0.200329,0.160713
-0.192207,0.160713
-0.187950,0.160713
-0.179848,0.160713
-0.171639,0.160713
-0.163429,0.160713
-0.155369,0.160713
-0.150860,0.160713
-0.142910,0.160713
-0.134800,0.160713
-0.126770,0.160713
-0.122311,0.160713
-0.110329,0.160713
-0.102100,0.160713
-0.097809,0.160713
-0.089710,0.160713
-0.081509,0.160713
-0.073219,0.160713
-0.065159,0.160713
-0.057129,0.160713
-0.048847,0.160713
-0.044590,0.160713
-0.036537,0.160713
-0.028427,0.160713
-0.020180,0.160713
-0.011959,0.160713
-0.007637,0.160713
0.000431,0.160713
0.008492,0.160713
0.012810,0.160713
0.020870,0.160713
0.029041,0.160713
0.037300,0.160713
0.045410,0.160713
0.053463,0.160713
0.057873,0.160713
0.069851,0.160713
0.074242,0.160713
0.082302,0.160713
0.090481,0.160713
0.098770,0.160713
0.106812,0.160713
0.111153,0.160713
0.119270,0.160713
0.127522,0.160713
0.135712,0.160713
0.143730,0.160713
0.151840,0.160713
0.156193,0.160713
0.164223,0.090654
0.172260,0.090654
0.180470,0.090654
0.188740,0.090654
0.196880,0.090654
0.201141,0.090654
0.209190,0.090654
0.213581,0.090654
0.221581,0.000000
0.229672,0.000000
0.237900,0.000000
0.246082,0.000000
0.250393,0.000000
0.258369,0.000000
0.266541,0.068528
0.270760,0.068528
0.278912,0.068528
0.287163,0.160713
0.295212,0.160713
0.299591,0.160713
0.307632,0.160713
0.315712,0.160713
0.319992,0.251010
0.328041,0.251010
0.336163,0.269069
0.340443,0.269069
0.348770,0.269069
0.356720,0.269069
0.364822,0.354982
0.369141,0.354982
0.377152,0.354982
0.385250,0.354982
0.389610,0.442348
0.401703,0.442348
0.405922,0.511673
0.413971,0.600683
0.418331,0.600683
0.426380,0.616121
0.434563,0.616121
0.442520,0.703878
0.450851,0.703878
0.455151,0.703878
0.463211,0.791547
0.471333,0.791547
0.475620,0.816133
0.483681,0.970154
0.491772,0.970154
0.500042,0.970154
0.508160,1.057769
0.512432,1.057769
0.520481,1.057769
0.528641,1.145859
0.532890,1.214343
0.541000,1.302962
0.549271,1.302962
0.557343,1.391986
0.561661,1.391986
0.569759,1.391986
0.577812,1.481077
0.582123,1.550281
0.590290,1.627024
0.598530,1.627024
0.606560,1.717372
0.614651,1.798636
0.618980,1.798636
0.627029,1.888548
0.635113,1.888548
0.643200,1.978431
0.651512,1.978431
0.655823,2.047940
0.663853,2.137807
0.672001,2.137807
0.676270,2.137807
0.684311,2.137807
0.692440,2.297547
0.700722,2.297547
0.708851,2.297547
0.713093,2.297547
0.721180,2.297547
0.725533,2.457423
0.733563,2.457423
0.741680,2.457423
0.749943,2.457423
0.758022,2.457423
0.762341,2.617335
0.770401,2.617335
0.778511,2.617335
0.782829,2.617335
0.790970,2.617335
0.799252,2.617335
0.807251,2.777278
0.815342,2.777278
0.819660,2.777278
0.827713,2.777278
0.835781,2.937450
0.840172,2.937450
0.852222,2.937450
0.856522,3.027891
0.864552,3.097562
0.872700,3.102172
0.876972,3.102172
0.885040,3.171756
0.893131,3.273989
0.901451,3.273989
0.909550,3.273989
0.913811,3.343339
0.921871,3.343339
0.930031,3.343339
0.934273,3.433477
0.942352,3.502858
0.950630,3.502858
0.958710,3.502858
0.962990,3.516748
0.971050,3.516748
0.979172,3.675729
0.983501,3.675729
0.991562,3.675729
0.999912,3.675729
1.007870,3.745020
1.012199,3.835021
1.020271,3.835021
1.028332,3.835021
1.032730,3.835021
1.040821,3.835021
1.049171,3.835021
1.057121,3.994295
1.065201,3.994295
1.069561,3.994295
1.077610,3.994295
1.085651,3.994295
1.093761,3.994295
1.102070,3.994295
1.106380,4.084373
1.114483,4.153694
1.122551,4.153694
1.126842,4.153694
1.134903,4.153694
1.143013,4.153694
1.151272,4.153694
1.159500,4.223038
1.163651,4.223038
1.171722,4.223038
1.179863,4.223038
1.184132,4.223038
1.192249,4.223038
1.200500,4.223038
1.208542,4.292313
1.212921,4.382443
1.221012,4.382443
1.229031,4.382443
1.233391,4.382443
1.241512,4.382443
1.249889,4.382443
1.257851,4.451839
1.265900,4.451839
1.270210,4.451839
1.278240,4.451839
1.286320,4.555566
1.294491,4.555566
1.302822,4.555566
1.307022,4.624783
1.315090,4.624783
1.323250,4.624783
1.327511,4.714844
1.335560,4.784095
1.343681,4.784095
1.351910,4.784095
1.360081,4.784095
1.364311,4.874274
1.372379,4.874274
1.376751,4.943477
1.384769,4.943477
1.392902,5.102961
1.401180,5.102961
1.409271,5.102961
1.413570,5.102961
1.421642,5.102961
1.429722,5.193163
1.434071,5.262465
1.442162,5.250013
1.450420,5.250013
1.458481,5.340343
1.466591,5.340343
1.470882,5.340343
1.478943,5.340343
1.487011,5.500108
1.491409,5.500108
1.503452,5.500108
1.507710,5.602591
1.515762,5.602591
1.523911,5.602591
1.528191,5.602591
1.536240,5.692955
1.544361,5.692955
1.552601,5.692955
1.560772,5.783300
1.565010,5.783300
1.573082,5.783300
1.581261,5.783300
1.585491,5.783300
1.593601,5.873696
1.601883,5.873696
1.609982,5.943001
1.614262,5.943001
1.622391,5.943001
1.630630,5.943001
1.638771,5.943001
1.646832,5.943001
1.655003,5.943001
1.659332,5.943001
1.667351,5.943001
1.675449,5.870325
1.679771,5.870325
1.687813,5.939372
1.695850,5.939372
1.704132,5.939372
1.708420,5.939372
1.716492,5.849285
1.724609,5.849285
1.728901,5.849285
1.737091,5.843954
1.745029,5.843954
1.753281,5.843954
1.757622,5.754046
1.765720,5.754046
1.773781,5.754046
1.778103,5.754046
1.786140,5.671086
1.794262,5.689649
1.802502,5.689649
1.810642,5.689649
1.814892,5.600177
1.822971,5.600177
1.831100,5.600177
1.835373,5.620368
1.843521,5.620368
1.851730,5.620368
1.859779,5.541639
1.864090,5.541639
1.872169,5.541639
1.880260,5.541639
1.884560,5.564543
1.892700,5.476076
1.901020,5.476076
1.909031,5.476076
1.917091,5.488730
1.921440,5.488730
1.929482,5.488730
1.937561,5.426648
1.945690,5.426648
1.953991,5.426648
1.958290,5.426648
1.966343,5.338912
1.974461,5.338912
1.978760,5.383104
1.986820,5.383104
1.994911,5.383104
2.003170,5.383104
2.011311,5.326971
2.015560,5.326971
2.023621,5.326971
2.031773,5.345588
2.036030,5.259746
2.044121,5.293354
2.052361,5.293354
2.060452,5.273215
2.064781,5.273215
2.072830,5.273215
2.080959,5.273215
2.085232,5.188066
2.093372,5.288317
2.101700,5.288317
2.109730,5.203641
2.117771,5.203641
2.122112,5.203641
2.130142,5.203641
2.138210,5.268344
2.142620,5.268344
2.154652,5.268344
2.159019,5.268344
2.167072,5.183684
2.175133,5.183684
2.179401,5.248333
2.187469,5.333073
2.195560,5.333073
2.203842,5.333073
2.211990,5.333073
2.216240,5.333073
2.224331,5.333073
2.232502,5.333073
2.236820,5.397972
2.244843,5.397972
2.253193,5.397972
2.261162,5.397972
2.265553,5.397972
2.273533,5.397972
2.281620,5.483086
2.285900,5.483086
2.294083,5.483086
2.302311,5.483086
2.310371,5.548213
2.318432,5.548213
2.322811,5.548213
2.334831,5.548213
2.339211,5.633638
2.347332,5.614123
2.355392,5.614123
2.363522,5.614123
2.367783,5.647780
2.375832,5.647780
2.380199,5.647780
2.388210,5.647780
2.396252,5.647780
2.404503,5.647780
2.408833,5.713848
2.416882,5.713848
2.424973,5.713848
2.429272,5.713848
2.437332,5.713848
2.445461,5.779978
2.453720,5.779978
2.461830,5.779978
2.466122,5.763168
2.474182,5.763168
2.482311,5.763168
2.486610,5.821472
2.494713,5.888295
2.502979,5.888295
2.511051,5.888295
2.519161,5.888295
2.523510,5.888295
2.531540,5.888295
2.539619,5.888295
2.543972,5.888295
2.556042,5.888295
2.560272,5.975927
2.568340,5.975927
2.572681,5.975927
2.580750,6.042832
2.588779,6.042832
2.596882,6.042832
2.605202,6.042832
2.609520,6.042832
2.617531,6.130566
2.625671,6.130566
2.629951,6.130566
2.638012,6.130566
2.646111,6.117120
2.654392,6.117120
2.662521,6.205293
2.666920,6.205293
2.674843,6.205293
2.683002,6.205293
2.687252,6.293543
2.695362,6.268634
2.703671,6.268634
2.711700,6.268634
2.716030,6.268634
2.724121,6.268634
2.732201,6.357181
2.736683,6.357181
2.744621,6.357181
2.752892,6.357181
2.760910,6.357181
2.769001,6.394454
2.773342,6.394454
2.781391,6.394454
2.789452,6.482559
2.793819,6.482559
2.805870,6.482559
2.810143,6.482559
2.818180,6.482559
2.826363,6.482559
2.830589,6.482559
2.838631,6.549847
2.846760,6.549847
2.855053,6.549847
2.859360,6.638085
2.867432,6.638085
2.875500,6.638085
2.879822,6.638085
2.887882,6.638085
2.895981,6.638085
2.904263,6.638085
2.912373,6.638085
2.916653,6.705428
2.924770,6.705428
2.932850,6.705428
2.937092,6.793819
2.945240,6.793819
2.953522,6.793819
2.961540,6.793819
2.969681,6.793819
2.973961,6.793819
2.982002,6.793819
2.986401,6.793819
2.994530,6.861185
3.006550,6.861185
3.010811,6.861185
3.018841,6.861185
3.023212,6.861185
3.031292,6.861185
3.039310,6.861185
3.047512,6.928634
3.055752,6.928634
3.060051,6.917840
3.068123,6.917840
3.076221,6.917840
3.080563,6.985530
3.088570,6.896797
3.096710,6.896797
3.104961,6.896797
3.113071,6.964382
3.117352,6.964382
3.125481,6.964382
3.133572,6.964382
3.137833,7.022304
3.145943,7.022304
3.154202,7.022304
3.162243,7.090137
3.170441,7.090137
3.174671,7.090137
3.182732,7.068939
3.190830,7.068939
3.195190,7.068939
3.207253,7.068939
3.211502,6.979856
3.219582,6.890879
3.227730,6.801898
3.232021,6.801898
3.240051,6.869669
3.248211,6.780729
3.256519,6.780729
3.260750,6.780729
3.268841,6.691873
3.276920,6.670680
3.285072,6.670680
3.289330,6.670680
3.297592,6.581924
3.305660,6.581924
3.313789,6.581924
3.318043,6.425624
3.326122,6.425624
3.334270,6.425624
3.338543,6.337040
3.346672,6.361960
3.354881,6.361960
3.362911,6.206430
3.371059,6.219747
3.375332,6.219747
3.383381,6.064981
3.387722,6.064981
3.395832,5.998159
3.404072,5.998159
3.412132,6.026525
3.420212,5.889293
3.424610,5.889293
3.432701,5.823189
3.440639,5.823189
3.445061,5.757077
3.457111,5.757077
3.461372,5.757077
3.469563,5.691095
3.477592,5.691095
3.481831,5.711549
3.489891,5.711549
3.498013,5.645593
3.506283,5.645593
3.514431,5.614577
3.518681,5.548355
3.526752,5.548355
3.534912,5.548355
3.539150,5.482193
3.547310,5.482193
3.555580,5.482193
3.563622,5.434550
3.567932,5.368888
3.575993,5.368888
3.584080,5.368888
3.588402,5.303302
3.596493,5.303302
3.604740,5.303302
3.612782,5.237720
3.620911,5.237720
3.625202,5.237720
3.633270,5.237720
3.637569,5.172294
3.645710,5.086887
3.657852,5.086887
3.662029,5.021686
3.670082,5.021686
3.674412,5.021686
3.682491,4.956617
3.690510,4.956617
3.698650,4.956617
3.706951,4.956617
3.711281,4.956617
3.719311,4.857122
3.727463,4.857122
3.731731,4.771836
3.739761,4.771836
3.747890,4.706694
3.756161,4.706694
3.764271,4.706694
3.768562,4.621774
3.776642,4.621774
3.784760,4.621774
3.789021,4.621774
3.797142,4.514968
3.808380,4.514968
3.813492,4.481264
3.817791,4.395697
3.825871,4.395697
3.833950,4.395697
3.838261,4.395697
3.846382,4.310435
3.854652,4.310435
3.862671,4.289392
3.870762,4.257586
3.875111,4.257586
3.883141,4.171478
3.891190,4.171478
3.895599,4.171478
3.907650,4.171478
3.911972,4.054392
3.919983,3.969459
3.928101,3.969459
3.932411,3.882772
3.940472,3.882772
3.948582,3.882772
3.956852,3.882772
3.964981,3.767020
3.969353,3.767020
3.977341,3.662441
3.985462,3.662441
3.989750,3.662441
3.997852,3.662441
4.006092,3.662441
4.014160,3.575277
4.022301,3.575277
4.026562,3.575277
4.034630,3.488351
4.042763,3.488351
4.047100,3.488351
4.055340,3.488351
4.063431,3.401567
4.071449,3.401567
4.075802,3.401567
4.083839,3.401567
4.091900,3.314994
4.100010,3.314994
4.108353,3.314994
4.112640,3.314994
4.120670,3.228770
4.128799,3.228770
4.133121,3.228770
4.141151,3.209308
4.149273,3.209308
4.157581,3.209308
4.165691,3.094590
4.169922,3.094590
4.178001,3.094590
4.186150,3.094590
4.190380,3.094590
4.198490,3.094590
4.206760,3.094590
4.214832,3.094590
4.219181,3.007456
4.227230,2.940647
4.235321,2.940647
4.239620,2.940647
4.247791,2.940647
4.255993,2.940647
4.264030,2.940647
4.272141,2.873988
4.276440,2.873988
4.284542,2.873988
4.292629,2.873988
4.297001,2.873988
4.309162,2.873988
4.313332,2.721101
4.321331,2.721101
4.329502,2.721101
4.333752,2.721101
4.341789,2.635074
4.349892,2.569179
4.358162,2.569179
4.362522,2.569179
4.370560,2.483804
4.378632,2.483804
4.382942,2.483804
4.390980,2.398820
4.399132,2.333807
4.407383,2.333807
4.415493,2.333807
4.419800,2.333807
4.427860,2.333807
4.435970,2.249685
4.440231,2.249685
4.448372,2.249685
4.456711,2.249685
4.464722,2.185253
4.472813,2.102172
4.477112,2.102172
4.485161,2.065544
4.493252,2.065544
4.497643,2.000956
4.509689,2.000956
4.513931,2.000956
4.521999,2.000956
4.526340,2.000956
4.534401,1.917549
4.542450,1.917549
4.550571,1.853719
4.558861,1.853719
4.563183,1.853719
4.571201,1.853719
4.579342,1.853719
4.583611,1.853719
4.591652,1.853719
4.599770,1.790457
4.608040,1.790457
4.616180,1.790457
4.620502,1.832162
4.628490,1.832162
4.632881,1.790457
4.640873,1.790457
4.649002,1.727711
4.657291,1.727711
4.665371,1.727711
4.669682,1.727711
4.677792,1.727711
4.685841,1.727711
4.690121,1.727711
4.698322,1.727711
4.706532,1.727711
4.714581,1.665539
4.722672,1.665539
4.726990,1.665539
4.735043,1.665539
4.743103,1.665539
4.747520,1.665539
4.759541,1.665539
4.763813,1.665539
4.771851,1.707429
4.780052,1.707429
4.784271,1.707429
4.792320,1.643658
4.800461,1.643658
4.808769,1.643658
4.816872,1.643658
4.821152,1.726578
4.829189,1.726578
4.833542,1.700999
4.841572,1.700999
4.849712,1.700999
4.857960,1.700999
4.866062,1.669647
4.870373,1.669647
4.878490,1.669647
4.886539,1.756023
4.890892,1.756023
4.898972,1.756023
4.907200,1.756023
4.915230,1.756023
4.923290,1.756023
4.927731,1.689339
4.939701,1.689339
4.947952,1.689339
4.952221,1.689339
4.960281,1.689339
4.968441,1.689339
4.972683,1.775860
4.980732,1.775860
4.988953,1.775860
4.997192,1.775860
5.005280,1.775860
5.009613,1.775860
5.017651,1.775860
5.025780,1.775860
5.030102,1.775860
5.038250,1.775860
5.046631,1.775860
5.058521,1.775860
5.062752,1.775860
5.070820,1.775860
5.079060,1.775860
5.087242,1.775860
5.091560,1.842813
5.099632,1.842813
5.107872,1.842813
5.115921,1.842813
5.124020,1.842813
5.128391,1.842813
5.140350,1.842813
5.144852,1.842813
5.152870,1.842813
5.160931,1.842813
5.165279,1.842813
5.173321,1.842813
5.181450,1.842813
5.185760,1.842813
5.193802,1.818331
5.201832,1.818331
5.210091,1.818331
5.214413,1.818331
5.222492,1.803959
5.230602,1.803959
5.234882,1.892895
5.242912,1.892895
5.251133,1.892895
5.259281,1.892895
5.267452,1.824241
5.271683,1.824241
5.279892,1.824241
5.287991,1.807428
5.292202,1.897233
5.300282,1.897233
5.308582,1.897233
5.316601,1.827885
5.324730,1.827885
5.328991,1.827885
5.337082,1.827885
5.341412,1.827885
5.349510,1.917549
5.357792,1.917549
5.365822,1.848327
5.373951,1.848327
5.378242,1.848327
5.386341,1.848327
5.394321,1.848327
5.398762,1.848327
5.410782,1.848327
5.415031,1.868755
5.423061,1.868755
5.431240,1.868755
5.435532,1.868755
5.443531,1.856778
5.451672,1.787065
5.459942,1.787065
5.464272,1.877219
5.472301,1.877219
5.480442,1.877219
5.484722,1.877219
5.492760,1.897852
5.500900,1.890102
5.509182,1.890102
5.517250,1.890102
5.521580,1.890102
5.529652,1.890102
5.537743,1.909571
5.542072,1.909571
5.550152,1.909571
5.558422,1.909571
5.566502,2.000271
5.574581,1.930061
5.578941,1.930061
5.586971,2.020714
5.595032,2.024681
5.599491,2.024681
5.611469,2.024681
5.615730,2.045071
5.623802,2.052712
5.631992,2.052712
5.636211,2.052712
5.644321,2.142928
5.652382,2.083844
5.660652,2.083844
5.668793,2.083844
5.673012,2.173398
5.681091,2.173398
5.685440,2.173398
5.693481,2.104033
5.701611,2.104033
5.709862,2.104033
5.717941,2.104033
5.722260,2.193745
5.730343,2.193745
5.738441,2.193745
5.742722,2.193745
5.750820,2.193745
5.759102,2.193745
5.767151,2.124399
5.775280,2.124399
5.779640,2.124399
5.787621,2.124399
5.795700,2.213993
5.800091,2.227477
5.812141,2.227477
5.816391,2.227477
5.824463,2.227477
5.832630,2.227477
5.836872,2.227477
5.844921,2.227477
5.853020,2.227477
5.861301,2.227477
5.865631,2.227477
5.873672,2.227477
5.881783,2.242627
5.890079,2.242627
5.898220,2.242627
5.906292,2.242627
5.910652,2.262351
5.918720,2.262351
5.926811,2.262351
5.931080,2.262351
5.939133,2.262351
5.943542,2.262351
5.951550,2.262351
5.959770,2.262351
5.967850,2.262351
5.975952,2.262351
5.980312,2.262351
5.992260,2.262351
6.000572,2.262351
6.004803,2.262351
