time,angle
-0.497200,0.166689
-0.489121,0.166689
-0.484850,0.174713
-0.476710,0.161926
-0.468431,0.161926
-0.460410,0.161926
-0.452271,0.161926
-0.447840,0.161926
-0.439920,0.083929
-0.435600,0.083929
-0.427500,0.083929
-0.419240,0.083929
-0.411170,0.083929
-0.403010,0.019782
-0.398670,0.019782
-0.390710,0.019782
-0.382640,0.019782
-0.378210,0.019782
-0.366200,0.019782
-0.361940,0.019782
-0.353910,0.081565
-0.345740,0.081565
-0.341500,0.081565
-0.333430,0.081565
-0.325330,0.081565
-0.317050,0.081565
-0.308870,0.163129
-0.304660,0.163129
-0.296580,0.163129
-0.288430,0.163129
-0.284200,0.163129
-0.276080,0.163129
-0.267820,0.163129
-0.259740,0.163129
-0.255420,0.242283
-0.247350,0.242283
-0.239280,0.242283
-0.234921,0.324455
-0.226820,0.324455
-0.218560,0.324455
-0.210500,0.324455
-0.202410,0.324455
-0.198111,0.324455
-0.190070,0.332203
-0.182020,0.410216
-0.177600,0.410216
-0.165540,0.410216
-0.161310,0.410216
-0.153240,0.492180
-0.145010,0.492180
-0.140841,0.492180
-0.132780,0.492180
-0.124681,0.511673
-0.116390,0.511673
-0.112061,0.511673
-0.103971,0.511673
-0.095921,0.511673
-0.091570,0.511673
-0.083520,0.511673
-0.075420,0.511673
-0.067130,0.511673
-0.059011,0.495746
-0.054750,0.515483
-0.046690,0.515483
-0.038590,0.515483
-0.034300,0.515483
-0.026200,0.515483
-0.017920,0.515483
-0.009830,0.515483
-0.001760,0.515483
0.002580,0.515483
0.010580,0.515483
0.014970,0.515483
0.023060,0.515483
0.035120,0.515483
0.039350,0.515483
0.047390,0.499285
0.055540,0.519641
0.063820,0.519641
0.072010,0.519641
0.076340,0.519641
0.084420,0.519641
0.092480,0.519641
0.096800,0.519641
0.104850,0.519641
0.112989,0.519641
0.117230,0.519641
0.125310,0.519641
0.133550,0.519641
0.141620,0.441019
0.145930,0.441019
0.154040,0.441019
0.162090,0.441019
0.166410,0.369035
0.174500,0.369035
0.182770,0.369035
0.190860,0.412120
0.198990,0.412120
0.203220,0.412120
0.211280,0.348866
0.215600,0.348866
0.223720,0.348866
0.232000,0.348866
0.240050,0.296735
0.248110,0.296735
0.252480,0.296735
0.260520,0.239031
0.268590,0.239031
0.276690,0.187672
0.285000,0.187672
0.289320,0.187672
0.297350,0.187672
0.305460,0.187672
0.309770,0.187672
0.317830,0.120331
0.325940,0.120331
0.334230,0.120331
0.342330,0.120331
0.346630,0.120331
0.354680,0.120331
0.362800,0.120331
0.367140,0.120331
0.375230,0.237388
0.383450,0.237388
0.391500,0.237388
0.399650,0.301316
0.414030,0.372203
0.414240,0.372203
0.420130,0.372203
0.424450,0.447624
0.432710,0.447624
0.440740,0.525632
0.448790,0.702487
0.453140,0.702487
0.461180,0.737279
0.469290,0.812288
0.473630,0.888454
0.485690,0.888454
0.489940,0.888454
0.498020,0.965908
0.506140,0.965908
0.510460,1.043990
0.518470,1.119600
0.526600,1.199099
0.534850,1.199099
0.543010,1.279166
0.547240,1.359699
0.555340,1.359699
0.559890,1.440350
0.567710,1.619550
0.575850,1.699963
0.584100,1.699963
0.592160,1.780592
0.596570,1.938863
0.604610,1.938863
0.612650,2.020133
0.616950,2.101427
0.625060,2.182923
0.633349,2.182923
0.641390,2.264513
0.649490,2.428016
0.653820,2.509909
0.661910,2.509909
0.669990,2.591859
0.678040,2.755911
0.686370,2.755911
0.690630,2.920273
0.698690,3.002505
0.706850,3.002505
0.711090,3.181493
0.719160,3.345680
0.727260,3.510005
0.735530,3.510005
0.743700,3.674397
0.747920,3.921264
0.756010,4.164382
0.764170,4.164382
0.768390,4.329160
0.776500,4.574146
0.784770,4.574146
0.792840,4.739418
0.797160,4.825966
0.805230,4.825966
0.813320,4.991161
0.817610,5.239515
0.825720,5.405010
0.834010,5.405010
0.842040,5.491657
0.850170,5.569402
0.854500,5.569402
0.862500,5.735008
0.870600,5.739005
0.874960,5.909528
0.887060,5.909528
0.891270,5.913507
0.899400,5.991324
0.907510,5.991324
0.911780,6.074057
0.919840,6.246953
0.927970,6.329764
0.936240,6.329764
0.940530,6.329764
0.948570,6.491234
0.956680,6.491234
0.960990,6.491234
0.969050,6.573964
0.977160,6.573964
0.985410,6.573964
0.993540,6.573964
0.997820,6.573964
1.005890,6.573964
1.014000,6.573964
1.018280,6.582520
1.026400,6.582520
1.034660,6.582520
1.042720,6.661265
1.047070,6.661265
1.055120,6.661265
1.063160,6.820126
1.067530,6.898760
1.075720,6.909243
1.083910,6.909243
1.091949,7.070549
1.100060,7.153190
1.104370,7.231801
1.112430,7.231801
1.120480,7.393031
1.128580,7.475644
1.136889,7.475644
1.141200,7.636842
1.149270,7.730912
1.157390,7.730912
1.161660,7.892051
1.169710,7.974594
1.177820,8.057126
1.186069,8.057126
1.194210,8.218216
1.198480,8.300684
1.206550,8.383166
1.214700,8.383166
1.218960,8.550928
1.227040,8.633402
1.235290,8.633402
1.243380,8.715890
1.247690,8.880733
1.255760,8.880733
1.263860,8.975005
1.268150,9.061110
1.276279,9.143487
1.284520,9.143487
1.292550,9.311859
1.300700,9.476581
1.304980,9.476581
1.313129,9.480168
1.321140,9.644794
1.325530,9.727042
1.337570,9.727042
1.341860,9.812816
1.349900,9.982135
1.358050,9.982135
1.362309,9.997254
1.370359,10.161710
1.378469,10.326070
1.386760,10.326070
1.391290,10.329410
1.399150,10.493630
1.407210,10.493630
1.411590,10.670400
1.419610,10.673650
1.427690,10.837700
1.436040,10.837700
1.444110,10.919660
1.448359,11.018190
1.456429,11.182030
1.464550,11.182030
1.469000,11.263900
1.476940,11.441780
1.485209,11.441780
1.493270,11.605360
1.501400,11.701960
1.505680,11.701960
1.513750,11.865460
1.521870,12.028840
1.526200,12.125980
1.538260,12.125980
1.542570,12.289260
1.550630,12.452390
1.558790,12.628840
1.563050,12.628840
1.571040,12.791830
1.579120,12.890020
1.587450,12.890020
1.591750,13.052880
1.599910,13.232970
1.607940,13.232970
1.612240,13.314320
1.620399,13.491880
1.628390,13.573060
1.636640,13.573060
1.644800,13.754190
1.649060,13.994970
1.657130,14.095360
1.665250,14.095360
1.669519,14.257380
1.677640,14.439140
1.685900,14.439140
1.693940,14.520010
1.702180,14.702110
1.706360,14.702110
1.714400,14.782900
1.722530,14.965270
1.726860,15.126710
1.735130,15.126710
1.743180,15.309300
1.751250,15.387940
1.755610,15.387940
1.763659,15.571000
1.771700,15.651410
1.779920,15.913190
1.788140,15.913190
1.792419,15.993500
1.800489,16.154030
1.808599,16.335710
1.812930,16.335710
1.820950,16.496030
1.829040,16.599600
1.837310,16.599600
1.845440,16.838150
1.849720,16.942020
1.857790,16.942020
1.866000,17.100420
1.870180,17.260260
1.878310,17.364400
1.886559,17.364400
1.894600,17.444220
1.898990,17.602440
1.907070,17.706870
1.915330,17.706870
1.923480,17.706870
1.931520,17.786590
1.939660,17.786590
1.943970,17.786590
1.952040,17.866290
1.960120,17.891330
1.964430,17.891330
1.972450,17.971010
1.980500,18.049400
1.988830,18.049400
1.993080,18.049400
2.001150,18.129020
2.009270,18.129020
2.013550,18.129020
2.021600,18.129020
2.029680,18.129020
2.038000,18.129020
2.042300,18.131310
2.050350,18.289480
2.058420,18.289480
2.062760,18.289480
2.070790,18.289480
2.078920,18.289480
2.087190,18.289480
2.095290,18.289480
2.099590,18.367980
2.107650,18.367980
2.115770,18.367980
2.120060,18.367980
2.128160,18.367980
2.136420,18.367980
2.144470,18.367980
2.152610,18.367980
2.156890,18.367980
2.164930,18.367980
2.169280,18.446460
2.177410,18.342030
2.185679,18.342030
2.193700,18.342030
2.201780,18.342030
2.206120,18.342030
2.214170,18.262340
2.222239,18.344180
2.230360,18.240300
2.238640,18.240300
2.242949,18.240300
2.251019,18.239020
2.259109,18.239020
2.263390,18.239020
2.271450,18.159130
2.279570,18.214040
2.287840,18.214040
2.295990,18.134130
2.300240,18.212710
2.308300,18.212710
2.316430,18.132750
2.320680,18.132750
2.328800,18.108060
2.337080,18.108060
2.345150,18.186610
2.349490,18.191310
2.357550,18.191310
2.365640,18.111220
2.369960,18.189870
2.378080,18.189870
2.390220,18.189870
2.394410,18.268500
2.402490,18.188390
2.406820,18.188390
2.414890,18.267030
2.422930,18.267030
2.431040,18.267030
2.439340,18.267030
2.443660,18.345660
2.451690,18.340750
2.459810,18.340750
2.464090,18.419260
2.472140,18.419260
2.480250,18.419260
2.488520,18.419260
2.496700,18.577760
2.500910,18.577760
2.509010,18.577760
2.513320,18.601130
2.521390,18.679630
2.529500,18.679630
2.537770,18.679630
2.545820,18.758130
2.550230,18.758130
2.558290,18.758130
2.566310,18.836620
2.570610,18.836620
2.578740,18.915100
2.587009,18.915100
2.595119,18.910190
2.603180,18.934270
2.607480,18.934270
2.615520,19.012640
2.623580,19.012640
2.627950,19.091010
2.640010,19.091010
2.644330,19.086610
2.652309,19.111360
2.656650,19.111360
2.664720,19.109800
2.672750,19.109800
2.680870,19.109800
2.689179,19.109800
2.693480,19.184210
2.701530,19.104450
2.709660,19.104450
2.713920,19.104450
2.722020,19.208020
2.730110,19.208020
2.738330,19.208020
2.742660,19.128220
2.750700,19.125120
2.758790,19.125120
2.763090,19.045360
2.771130,19.123410
2.779320,19.123410
2.787510,19.123410
2.795620,19.043630
2.799970,19.040980
2.808000,19.040980
2.812290,18.961260
2.820320,19.039190
2.828490,19.039190
2.836620,19.039190
2.840960,18.959430
2.849030,18.959430
2.857080,18.959430
2.861390,18.982040
2.869470,18.982040
2.877600,18.982040
2.885730,18.982040
2.890039,18.978580
2.898060,18.978580
2.902400,18.978580
2.910460,19.003980
2.918660,19.003980
2.926800,19.003980
2.934950,19.080640
2.939230,19.078620
2.947280,19.078620
2.955400,19.076580
2.959680,19.104220
2.967740,19.104220
2.975880,19.102100
2.980120,19.099960
2.988359,19.099960
2.996400,19.177220
3.004519,19.097730
3.008800,19.095510
3.016850,19.095510
3.021210,19.093230
3.029330,19.120470
3.037560,19.120470
3.045670,19.120470
3.053710,19.118110
3.058070,19.118110
3.066110,19.115720
3.074170,19.115720
3.082250,19.113280
3.090560,19.113280
3.094850,19.084020
3.102900,19.081560
3.111030,19.081560
3.115310,19.001960
3.123460,19.079050
3.131490,18.999410
3.139729,18.999410
3.147870,18.999410
3.152150,18.919730
3.160200,18.919730
3.168370,18.919730
3.172610,18.811090
3.180720,18.811090
3.189040,18.811090
3.197100,18.731370
3.201489,18.574450
3.209470,18.574450
3.217530,18.466080
3.221880,18.388940
3.230030,18.309100
3.238230,18.309100
3.246290,18.152120
3.254390,18.123850
3.258690,18.043960
3.266780,18.043960
3.274830,17.886870
3.279310,17.701850
3.291240,17.701850
3.295520,17.621850
3.303550,17.544680
3.311710,17.544680
3.316040,17.437100
3.324039,17.278830
3.332150,17.198640
3.340420,17.198640
3.344740,17.014220
3.352810,17.014220
3.360870,17.014220
3.365210,16.933980
3.373260,16.749840
3.381380,16.669550
3.389650,16.669550
3.397730,16.485710
3.402160,16.328010
3.410089,16.328010
3.418210,16.167240
3.422490,15.982630
3.430620,15.902070
3.438860,15.902070
3.446910,15.743970
3.455080,15.480130
3.459330,15.480130
3.467370,15.321920
3.471720,15.135810
3.479860,14.977520
3.491980,14.977520
3.496180,14.714120
3.504240,14.555750
3.512460,14.555750
3.516640,14.292540
3.524680,14.053190
3.532790,13.869590
3.541110,13.869590
3.545420,13.684760
3.553510,13.444750
3.561580,13.444750
3.565910,13.263580
3.573950,13.022070
3.582060,12.760110
3.590310,12.760110
3.598500,12.579980
3.602730,12.417110
3.610780,12.417110
3.619040,12.237350
3.623190,11.995610
3.631320,11.734870
3.639610,11.734870
3.647620,11.653170
3.655750,11.392800
3.660049,11.151180
3.668130,11.151180
3.676200,10.973000
3.680570,10.809120
3.692620,10.809120
3.696890,10.566930
3.704910,10.389530
3.713099,10.389530
3.717340,10.225450
3.725400,10.065130
3.733530,9.901926
3.741810,9.901926
3.746119,9.724576
3.754189,9.560551
3.762290,9.400361
3.766620,9.400361
3.774710,9.236206
3.782770,9.075994
3.791019,9.075994
3.799129,8.993899
3.803390,8.832398
3.811450,8.832398
3.819590,8.672445
3.823850,8.590457
3.832040,8.430514
3.840219,8.430514
3.848280,8.271086
3.852660,8.189209
3.860700,8.029669
3.868760,8.029669
3.873120,7.947792
3.881190,7.865892
3.889460,7.865892
3.897570,7.631418
3.905590,7.549746
3.909920,7.549746
3.918050,7.468054
3.926030,7.329915
3.930429,7.258042
3.942460,7.258042
3.946700,7.176710
3.954760,7.018532
3.959090,7.018532
3.967170,6.937263
3.975210,6.867842
3.983330,6.786888
3.991620,6.786888
3.995960,6.705955
4.004030,6.548709
4.012100,6.548709
4.016400,6.548709
4.024430,6.507948
4.032690,6.427607
4.040820,6.427607
4.048980,6.347334
4.053210,6.267102
4.061260,6.267102
4.065599,6.186878
4.073660,6.124551
4.081779,6.044843
4.090030,6.044843
4.098110,5.890391
4.102400,5.810856
4.110440,5.810856
4.118580,5.831161
4.122820,5.783165
4.131050,5.783165
4.139160,5.704545
4.147240,5.626050
4.151570,5.547683
4.159600,5.547683
4.167730,5.469380
4.172040,5.416201
4.180210,5.416201
4.188360,5.338618
4.196460,5.261273
4.204580,5.261273
4.208839,5.261273
4.216890,5.111899
4.221280,5.035050
4.229440,5.035050
4.237530,4.958356
4.245570,4.881825
4.253740,4.881825
4.257970,4.805545
4.266070,4.805545
4.274120,4.805545
4.278570,4.729488
4.286620,4.583044
4.294700,4.507717
4.299080,4.507717
4.307060,4.432703
4.315100,4.288433
4.323280,4.288433
4.331590,4.214263
4.335800,4.214263
4.343870,4.140376
4.348200,4.140376
4.356270,4.025064
4.364360,3.951312
4.368660,3.951312
4.376750,3.883024
4.384750,3.810074
4.392990,3.810074
4.397300,3.810074
4.405340,3.737484
4.413460,3.737484
4.417750,3.737484
4.425780,3.665434
4.433900,3.665434
4.442170,3.665434
4.446480,3.549224
4.454590,3.549224
4.462640,3.549224
4.467010,3.549224
4.475030,3.477333
4.483130,3.477333
4.491390,3.477333
4.499540,3.405938
4.503770,3.405938
4.511840,3.405938
4.520020,3.405938
4.524250,3.335072
4.532380,3.335072
4.540650,3.335072
4.548870,3.335072
4.556849,3.200083
4.561069,3.200083
4.569130,3.200083
4.573490,3.200083
4.581590,3.131066
4.589840,3.131066
4.597980,3.131066
4.606000,3.195002
4.610290,3.195002
4.618560,3.125998
4.626349,3.125998
4.630820,3.125998
4.642830,3.125998
4.647050,3.125998
4.655120,3.057551
4.659430,3.057551
4.667510,3.057551
4.675520,3.107846
4.683710,3.107846
4.691980,3.041245
4.696239,3.090095
4.704270,3.090095
4.708610,3.090095
4.716660,3.025368
4.724720,3.025368
4.733050,3.025368
4.737200,3.076635
4.745250,3.071030
4.749570,3.071030
4.757620,3.071030
4.765710,3.010449
4.770050,3.010449
4.778080,3.010449
4.786119,3.126499
4.794370,3.069181
4.798660,3.069181
4.806680,3.069181
4.814840,3.073388
4.819090,3.073388
4.827120,3.186350
4.835230,3.132379
4.843520,3.132379
4.847810,3.132379
4.855860,3.194450
4.864010,3.194450
4.868279,3.209308
4.876310,3.225797
4.884430,3.294436
4.892690,3.294436
4.900850,3.248476
4.905080,3.316470
4.913150,3.316470
4.917480,3.382519
4.925529,3.451392
4.933670,3.482228
4.941930,3.482228
4.950020,3.514242
4.954380,3.514242
4.962430,3.514242
4.970490,3.551926
4.974800,3.624825
4.982910,3.695970
4.991209,3.695970
4.999359,3.695970
5.007360,3.736750
5.011770,3.736750
5.019739,3.705599
5.027781,3.782686
5.032221,3.857880
5.044230,3.857880
5.048540,3.829503
5.056549,3.853766
5.064720,3.853766
5.068979,3.825513
5.077120,3.903546
5.085140,3.903546
5.093410,3.903546
5.101570,3.877322
5.105841,3.877322
5.113899,3.877322
5.122080,3.877322
5.126301,3.852750
5.134409,3.852750
5.142660,3.852750
5.150740,3.833541
5.155081,3.833541
5.163151,3.833541
5.171209,3.833541
5.175539,3.732555
5.183689,3.732555
5.191910,3.732555
5.199949,3.716205
5.208050,3.716205
5.212360,3.716205
5.220409,3.558150
5.228500,3.558150
5.232870,3.542708
5.245001,3.542708
5.249180,3.483577
5.257231,3.404213
5.265400,3.404213
5.269609,3.387898
5.277651,3.229861
5.285789,3.229861
5.294060,3.229861
5.298370,3.151383
5.306431,3.055886
5.314529,3.055886
5.318819,3.055886
5.326839,2.977101
5.334990,2.897730
5.343281,2.897730
5.351391,2.882626
5.355740,2.822720
5.363729,2.822720
5.371861,2.743881
5.376120,2.743881
5.384270,2.743881
5.392509,2.743881
5.400570,2.648485
5.404900,2.569484
5.412960,2.569484
5.421030,2.569484
5.425341,2.569484
5.433479,2.569484
5.441759,2.569484
5.449789,2.490493
5.457859,2.490493
5.462210,2.490493
5.470230,2.395717
5.478270,2.395717
5.482719,2.395717
5.494749,2.395717
5.499069,2.395717
5.507090,2.395717
5.515221,2.395717
5.519510,2.395717
5.527519,2.395717
5.535669,2.382117
5.543949,2.382117
5.552290,2.302058
5.556391,2.302058
5.564421,2.302058
5.568720,2.222727
5.576820,2.207353
5.584940,2.207353
5.593281,2.207353
5.601259,2.207353
5.605539,2.198290
5.613600,2.198290
5.627769,2.198290
5.627890,2.198290
5.634251,2.198290
5.642429,2.198290
5.650459,2.189101
5.658569,2.189101
5.662889,2.189101
5.670910,2.189101
5.678980,2.189101
5.683399,2.189101
5.695440,2.189101
5.699730,2.182923
5.707769,2.182923
5.712080,2.182923
5.720140,2.182923
5.728170,2.182923
5.736320,2.182923
5.744610,2.182923
5.748970,2.182923
5.757030,2.179873
5.765070,2.179873
5.769381,2.260273
5.777420,2.341844
5.785561,2.341844
5.793829,2.341844
5.802010,2.341928
5.806210,2.341928
5.814360,2.341928
5.822620,2.341928
5.830790,2.341928
5.838850,2.341928
5.847000,2.341928
5.851299,2.341928
5.859350,2.341928
5.867411,2.341928
5.871780,2.341928
5.879900,2.341928
5.888069,2.347520
5.896130,2.347520
5.900459,2.347520
5.908501,2.427935
5.916611,2.509284
5.920910,2.509284
5.928949,2.509284
5.937059,2.517384
5.945290,2.517384
5.949631,2.517384
5.957670,2.517384
5.965759,2.517384
5.970079,2.608420
5.978121,2.689045
5.986240,2.701826
5.994490,2.701826
6.002630,2.701826
6.006870,2.692173
