time,angle
-0.497711,0.062557
-0.489548,0.062557
-0.485260,0.062557
-0.477226,0.062557
-0.469185,0.062557
-0.460991,0.062557
-0.452698,0.062557
-0.448357,0.062557
-0.440315,0.062557
-0.432205,0.062557
-0.424027,0.062557
-0.419655,0.062557
-0.411537,0.062557
-0.403381,0.062557
-0.395165,0.062557
-0.387054,0.062557
-0.379028,0.062557
-0.370865,0.062557
-0.362526,0.062557
-0.358292,0.062557
-0.350235,0.074019
-0.342011,0.074019
-0.333885,0.074019
-0.329605,0.074019
-0.321510,0.059347
-0.313286,0.059347
-0.305061,0.059347
-0.297005,0.059347
-0.288849,0.059347
-0.284401,0.059347
-0.276535,0.059347
-0.268501,0.059347
-0.260284,0.059347
-0.252014,0.059347
-0.243805,0.059347
-0.239510,0.059347
-0.231400,0.059347
-0.223160,0.059347
-0.214951,0.059347
-0.206924,0.059347
-0.198868,0.059347
-0.190590,0.059347
-0.186287,0.059347
-0.178261,0.059347
-0.170136,0.059347
-0.161865,0.059347
-0.153648,0.059347
-0.145546,0.059347
-0.141228,0.059347
-0.133110,0.059347
-0.124985,0.059347
-0.116928,0.059347
-0.112495,0.059347
-0.100571,0.059347
-0.092300,0.059347
-0.088020,0.059347
-0.079971,0.059347
-0.071747,0.059347
-0.063545,0.059347
-0.055420,0.074019
-0.051109,0.074019
-0.042915,0.074019
-0.034882,0.074019
-0.026825,0.074019
-0.022385,0.074019
-0.010445,0.074019
-0.002174,0.074019
0.002106,0.074019
0.010216,0.074019
0.018280,0.074019
0.022583,0.074019
0.030624,0.074019
0.038811,0.074019
0.047066,0.074019
0.055176,0.074019
0.059464,0.074019
0.067535,0.074019
0.075668,0.074019
0.079971,0.074019
0.088173,0.074019
0.100082,0.074019
0.108398,0.074019
0.112663,0.074019
0.120735,0.074019
0.128944,0.074019
0.137283,0.074019
0.145302,0.074019
0.149620,0.074019
0.157799,0.074019
0.165840,0.074019
0.173889,0.074019
0.182091,0.074019
0.190224,0.074019
0.198479,0.074019
0.202866,0.074019
0.210976,0.074019
0.218994,0.074019
0.227203,0.074019
0.231522,0.074019
0.239609,0.074019
0.247849,0.074019
0.256104,0.074019
0.264145,0.074019
0.272194,0.074019
0.280411,0.074019
0.288673,0.074019
0.296822,0.145370
0.304932,0.145370
0.309296,0.220287
0.317360,0.220287
0.325485,0.220287
0.329750,0.220287
0.337799,0.220287
0.345970,0.220287
0.350235,0.220287
0.358482,0.220287
0.366493,0.220287
0.374603,0.301316
0.378952,0.301316
0.386963,0.301316
0.395096,0.378976
0.399506,0.378976
0.407661,0.378976
0.415741,0.461401
0.423805,0.461401
0.431969,0.543927
0.436195,0.543927
0.444260,0.543927
0.452400,0.557429
0.476135,0.557429
0.476456,0.634273
0.476585,0.716005
0.481194,0.716005
0.485405,0.716005
0.493530,0.815894
0.501564,0.815894
0.509819,0.815894
0.517990,0.815894
0.522224,0.896566
0.530304,0.896566
0.538506,0.896566
0.542702,0.896566
0.550812,1.054248
0.559143,1.054248
0.567139,1.054248
0.571480,1.054248
0.579514,1.054248
0.587624,1.135739
0.591911,1.135739
0.600044,1.135739
0.608315,1.135739
0.616348,1.217722
0.624489,1.217722
0.628792,1.217722
0.636826,1.377288
0.644913,1.377288
0.649269,1.377288
0.661354,1.377288
0.665588,1.459515
0.673653,1.459515
0.681824,1.459515
0.686066,1.619913
0.694099,1.619913
0.702210,1.619913
0.710503,1.619913
0.714844,1.702034
0.722885,1.702034
0.730980,1.780482
0.735306,1.780482
0.743355,1.862881
0.751473,1.862881
0.759720,1.862881
0.767822,1.862881
0.772125,1.945513
0.780220,1.945513
0.788330,1.945513
0.792595,2.024004
0.800713,2.106636
0.808975,2.106636
0.817032,2.106636
0.825150,2.106636
0.829483,2.106636
0.837502,2.106636
0.845619,2.189190
0.849999,2.189190
0.862045,2.189190
0.866249,2.189190
0.874313,2.189190
0.878670,2.189190
0.886719,2.267708
0.894783,2.267708
0.902901,2.350353
0.911224,2.350353
0.915520,2.350353
0.923554,2.350353
0.931679,2.350353
0.939919,2.350353
0.948120,2.350353
0.956245,2.350353
0.960548,2.350353
0.968620,2.350353
0.976723,2.350353
0.981041,2.350353
0.989235,2.350353
1.001183,2.350353
1.005630,2.350353
1.013680,2.433170
1.021790,2.433170
1.030052,2.433170
1.038292,2.433170
1.046379,2.433170
1.050659,2.433170
1.062698,2.433170
1.066956,2.433170
1.074989,2.433170
1.083115,2.433170
1.091415,2.433170
1.099602,2.433170
1.103935,2.433170
1.112015,2.433170
1.120064,2.433170
1.124413,2.433170
1.132469,2.433170
1.140656,2.433170
1.148903,2.433170
1.157082,2.433170
1.165123,2.433170
1.173233,2.433170
1.181572,2.433170
1.189705,2.433170
1.193985,2.433170
1.202080,2.443364
1.210335,2.443364
1.218445,2.453038
1.226479,2.453038
1.230820,2.453038
1.239082,2.453038
1.247253,2.453038
1.255302,2.453038
1.263412,2.453038
1.267761,2.453038
1.275826,2.453038
1.283844,2.453038
1.292091,2.453038
1.300285,2.453038
1.304588,2.453038
1.312653,2.453038
1.320808,2.453038
1.325066,2.453038
1.333099,2.453038
1.341293,2.453038
1.349525,2.453038
1.357635,2.453038
1.361931,2.453038
1.369972,2.453038
1.378105,2.453038
1.382385,2.468628
1.390465,2.468628
1.398613,2.546144
1.406670,2.546144
1.411095,2.531031
1.419212,2.531031
1.427238,2.531031
1.431580,2.531031
1.439774,2.531031
1.448112,2.531031
1.456085,2.531031
1.464134,2.613219
1.468422,2.613219
1.476501,2.628007
1.484520,2.628007
1.492729,2.628007
1.500954,2.628007
1.505241,2.613219
1.513313,2.613219
1.521469,2.613219
1.525902,2.613219
1.533752,2.531031
1.541939,2.531031
1.550171,2.531031
1.558304,2.531031
1.562546,2.531031
1.570625,2.531031
1.578766,2.531031
1.583015,2.531031
1.591225,2.531031
1.599480,2.531031
1.607475,2.531031
1.615631,2.531031
1.619843,2.531031
1.627930,2.531031
1.632240,2.531031
1.640495,2.531031
1.648674,2.531031
1.656723,2.531031
1.664795,2.531031
1.672913,2.531031
1.677269,2.531031
1.685326,2.531031
1.693443,2.531031
1.701691,2.531031
1.709862,2.531031
1.717979,2.531031
1.722305,2.531031
1.730499,2.531031
1.738663,2.531031
1.746719,2.531031
1.754799,2.531031
1.763084,2.531031
1.767395,2.531031
1.775452,2.531031
1.783562,2.531031
1.791824,2.531031
1.799995,2.531031
1.808075,2.531031
1.812485,2.613219
1.820473,2.613219
1.828590,2.613219
1.832924,2.613219
1.841064,2.613219
1.849281,2.613219
1.857330,2.613219
1.865501,2.613219
1.869888,2.613219
1.877831,2.613219
1.885841,2.613219
1.894066,2.613219
1.902405,2.613219
1.906555,2.613219
1.914665,2.613219
1.922829,2.613219
1.927040,2.613219
1.935089,2.613219
1.943321,2.613219
1.951500,2.613219
1.955841,2.613219
1.963875,2.613219
1.971985,2.613219
1.976280,2.613219
1.984299,2.613219
1.992516,2.613219
2.000694,2.613219
2.008835,2.613219
2.013115,2.613219
2.021172,2.613219
2.029312,2.613219
2.033562,2.613219
2.041756,2.613219
2.049934,2.613219
2.057976,2.613219
2.066162,2.613219
2.070450,2.613219
2.078514,2.613219
2.082779,2.613219
2.091019,2.613219
2.103035,2.613219
2.107254,2.613219
2.115318,2.613219
2.119629,2.613219
2.127686,2.613219
2.135719,2.613219
2.143944,2.613219
2.152168,2.531031
2.156479,2.531031
2.164543,2.531031
2.172653,2.531031
2.176926,2.531031
2.184944,2.531031
2.193161,2.531031
2.201355,2.531031
2.209473,2.531031
2.213776,2.531031
2.221832,2.531031
2.226151,2.531031
2.234215,2.531031
2.242538,2.531031
2.250565,2.531031
2.258644,2.531031
2.263000,2.531031
2.271042,2.531031
2.279175,2.531031
2.283470,2.531031
2.291679,2.531031
2.299866,2.531031
2.307869,2.531031
2.316010,2.531031
2.320335,2.531031
2.328339,2.531031
2.336395,2.531031
2.344604,2.531031
2.352852,2.531031
2.357155,2.531031
2.365204,2.613219
2.373390,2.613219
2.377579,2.613219
2.385635,2.613219
2.393845,2.613219
2.402061,2.613219
2.410225,2.613219
2.414558,2.613219
2.422623,2.613219
2.426849,2.613219
2.434898,2.613219
2.443115,2.613219
2.451340,2.613219
2.459579,2.613219
2.467529,2.613219
2.471893,2.613219
2.483864,2.695443
2.488281,2.695443
2.496315,2.695443
2.504456,2.695443
2.512733,2.695443
2.520844,2.695443
2.525108,2.695443
2.533279,2.695443
2.541519,2.695443
2.549713,2.686787
2.557762,2.686787
2.565849,2.686787
2.574013,2.686787
2.578362,2.686787
2.586365,2.686787
2.594543,2.686787
2.602814,2.686787
2.610939,2.769444
2.619034,2.769444
2.623383,2.690937
2.631676,2.690937
2.639793,2.690937
2.647850,2.690937
2.655983,2.690937
2.664192,2.690937
2.672394,2.690937
2.676582,2.690937
2.684692,2.690937
2.692963,2.690937
2.701118,2.690937
2.709160,2.617335
2.717392,2.617335
2.721634,2.617335
2.729691,2.617335
2.734009,2.695443
2.742249,2.695443
2.754219,2.695443
2.758644,2.695443
2.766594,2.686787
2.774704,2.686787
2.782928,2.695443
2.787354,2.695443
2.795319,2.695443
2.803535,2.695443
2.811714,2.695443
2.819771,2.695443
2.824112,2.695443
2.832329,2.695443
2.844414,2.695443
2.848625,2.686787
2.856659,2.686787
2.864883,2.686787
2.873009,2.686787
2.877274,2.686787
2.885429,2.686787
2.893654,2.686787
2.901810,2.773470
2.909859,2.773470
2.914246,2.773470
2.922295,2.773470
2.930405,2.773470
2.934685,2.773470
2.942909,2.773470
2.954933,2.773470
2.959259,2.773470
2.967209,2.773470
2.975395,2.773470
2.979752,2.855745
2.987801,2.855745
2.995918,2.855745
3.004166,2.855745
3.012383,2.855745
3.020454,2.855745
3.024818,2.855745
3.033012,2.855745
3.041199,2.855745
3.049263,2.855745
3.057289,2.855745
3.065544,2.855745
3.069855,2.855745
3.077972,2.855745
3.086029,2.855745
3.094269,2.855745
3.102432,2.855745
3.110550,2.855745
3.114876,2.938050
3.122932,2.938050
3.131042,2.938050
3.135345,2.938050
3.143555,2.938050
3.151772,2.938050
3.159843,2.938050
3.167892,2.938050
3.176025,2.938050
3.184303,2.938050
3.188545,2.938050
3.196625,2.859923
3.204865,2.859923
3.213058,2.859923
3.221169,2.699506
3.225471,2.699506
3.233559,2.699506
3.241669,2.636336
3.245934,2.554586
3.254150,2.554586
3.262314,2.476939
3.270355,2.476939
3.278519,2.476939
3.282776,2.476939
3.290810,2.395391
3.298859,2.318071
3.307060,2.318071
3.315392,2.236684
3.319611,2.236684
3.327682,2.236684
3.331993,2.236684
3.340034,2.155404
3.348076,2.172678
3.356270,2.172678
3.364555,2.172678
3.368729,2.092280
3.376839,2.092280
3.381210,2.092280
3.389282,2.012075
3.397285,2.012075
3.405464,2.012075
3.413719,1.932088
3.417931,1.932088
3.425972,1.932088
3.430321,1.852557
3.438332,1.852557
3.446434,1.852557
3.450729,1.773103
3.458870,1.773103
3.466949,1.694197
3.475143,1.694197
3.479424,1.694197
3.487465,1.615436
3.491760,1.615436
3.499794,1.615436
3.507858,1.615436
3.516090,1.615436
3.524284,1.537479
3.528496,1.537479
3.536552,1.537479
3.544724,1.459649
3.548950,1.459649
3.557060,1.459649
3.565315,1.459649
3.573410,1.459649
3.577751,1.382676
3.585785,1.382676
3.593895,1.382676
3.598175,1.382676
3.606316,1.382676
3.614571,1.382676
3.622635,1.382676
3.630669,1.382676
3.635078,1.414854
3.647110,1.414854
3.655312,1.453738
3.659538,1.385504
3.667679,1.385504
3.675781,1.385504
3.680069,1.385504
3.688095,1.385504
3.696289,1.385504
3.704483,1.385504
3.712631,1.385504
3.716904,1.385504
3.724960,1.385504
3.733124,1.457905
3.737343,1.457905
3.745575,1.457905
3.753784,1.457905
3.761833,1.457905
3.769981,1.457905
3.774231,1.457905
3.782310,1.457905
3.790390,1.457905
3.798531,1.457905
3.806824,1.457905
3.811172,1.457905
3.819199,1.457905
3.827286,1.457905
3.835526,1.457905
3.839783,1.457905
3.847870,1.457905
3.856110,1.457905
3.864311,1.457905
3.872398,1.457905
3.876709,1.457905
3.884903,1.457905
3.893059,1.457905
3.901115,1.457905
3.909195,1.457905
3.917465,1.457905
3.921875,1.457905
3.929825,1.457905
3.937935,1.500244
3.946205,1.500244
3.954414,1.542562
3.962440,1.542562
3.966820,1.542562
3.974846,1.542562
3.982964,1.542562
3.987244,1.542562
3.995476,1.542562
4.003685,1.542562
4.011719,1.542562
4.019829,1.542562
4.024101,1.542562
4.032166,1.542562
4.040184,1.542562
4.048401,1.542562
4.056694,1.542562
4.060928,1.500244
4.069016,1.457905
4.077225,1.457905
4.081459,1.457905
4.089470,1.457905
4.093796,1.457905
4.101860,1.457905
4.109901,1.457905
4.118134,1.457905
4.122513,1.457905
4.130524,1.457905
4.138634,1.457905
4.142952,1.457905
4.150940,1.385504
4.159035,1.385504
4.167305,1.385504
4.175461,1.344648
4.179726,1.310599
4.187782,1.310599
4.192093,1.310599
4.200150,1.310599
4.208275,1.310599
4.216522,1.310599
4.224640,1.310599
4.228920,1.310599
4.237061,1.310599
4.245316,1.310599
4.253502,1.310599
4.261459,1.310599
4.269669,1.310599
4.273949,1.310599
4.281990,1.310599
4.290054,1.310599
4.298294,1.310599
4.306519,1.310599
4.310776,1.278247
4.318871,1.252577
4.327003,1.252577
4.331284,1.252577
4.339302,1.252577
4.343765,1.252577
4.351669,1.252577
4.359749,1.252577
4.367981,1.252577
4.372299,1.252577
4.380371,1.252577
4.388580,1.252577
4.392784,1.252577
4.400826,1.177527
4.408958,1.177527
4.417351,1.177527
4.425316,1.177527
4.429604,1.256788
4.437675,1.256788
4.445801,1.256788
4.450066,1.256788
4.458321,1.256788
4.466499,1.256788
4.474510,1.256788
4.482613,1.256788
4.487030,1.256788
4.498955,1.256788
4.507202,1.182006
4.511459,1.182006
4.519539,1.182006
4.527695,1.182006
4.531929,1.182006
4.539993,1.182006
4.548225,1.182006
4.556450,1.182006
4.564560,1.182006
4.568901,1.182006
4.576881,1.182006
4.581169,1.182006
4.589249,1.182006
4.597488,1.182006
4.605675,1.182006
4.613762,1.182006
4.621895,1.182006
4.626205,1.182006
4.634399,1.182006
4.642448,1.182006
4.650520,1.256788
4.658752,1.256788
4.666992,1.256788
4.671295,1.336327
4.679359,1.336327
4.687454,1.336327
4.691742,1.336327
4.699799,1.336327
4.708015,1.336327
4.716270,1.336327
4.724411,1.336327
4.732384,1.336327
4.736824,1.336327
4.748779,1.336327
4.753212,1.336327
4.761246,1.336327
4.769432,1.336327
4.777565,1.336327
4.781799,1.336327
4.789879,1.336327
4.798119,1.336327
4.806374,1.336327
4.814499,1.336327
4.822609,1.336327
4.830666,1.336327
4.838921,1.336327
4.847160,1.336327
4.851456,1.336327
4.859566,1.336327
4.867805,1.336327
4.875862,1.336327
4.880196,1.336327
4.888260,1.336327
4.896339,1.336327
4.900635,1.336327
4.908775,1.233687
4.917000,1.233687
4.925041,1.295129
4.933159,1.295129
4.937462,1.295129
4.945496,1.295129
4.953583,1.295129
4.957954,1.295129
4.970032,1.295129
4.974274,1.295129
4.982315,1.295129
4.990479,1.295129
4.998741,1.295129
5.006920,1.295129
5.015045,1.295129
5.019371,1.295129
5.027420,1.295129
5.035561,1.295129
5.039795,1.295129
5.047989,1.295129
5.056229,1.295129
5.064270,1.295129
5.072380,1.295129
5.076744,1.295129
5.084785,1.217722
5.092819,1.217722
5.100990,1.217722
5.109276,1.217722
5.117485,1.217722
5.121803,1.217722
5.129913,1.217722
5.138115,1.217722
5.146461,1.217722
5.154434,1.217722
5.162399,1.217722
5.170746,1.217722
5.174995,1.217722
5.183029,1.217722
5.191162,1.217722
5.199425,1.217722
5.207672,1.217722
5.211952,1.217722
5.220032,1.217722
5.228073,1.217722
5.232460,1.217722
5.240479,1.217722
5.248680,1.217722
5.256882,1.217722
5.264938,1.217722
5.269272,1.217722
5.277420,1.217722
5.285515,1.217722
5.293541,1.217722
5.301689,1.217722
5.309959,1.217722
5.318214,1.217722
5.322510,1.217722
5.330574,1.217722
5.338776,1.217722
5.347031,1.217722
5.355133,1.217722
5.363174,1.217722
5.371422,1.217722
5.375702,1.217722
5.383781,1.217722
5.391846,1.217722
5.400085,1.217722
5.408302,1.217722
5.412659,1.217722
5.420792,1.217722
5.428749,1.217722
5.433105,1.217722
5.441154,1.217722
5.449341,1.217722
5.457649,1.217722
5.465759,1.217722
5.469955,1.217722
5.478035,1.217722
5.486183,1.217722
5.490479,1.217722
5.498619,1.217722
5.510635,1.217722
5.515022,1.217722
5.523048,1.217722
5.531181,1.217722
5.539429,1.217722
5.547615,1.295129
5.555710,1.295129
5.560013,1.295129
5.568253,1.295129
5.576309,1.295129
5.584320,1.295129
5.592461,1.295129
5.600723,1.295129
5.608978,1.295129
5.613258,1.295129
5.621368,1.295129
5.629456,1.295129
5.633759,1.295129
5.641815,1.295129
5.649971,1.295129
5.658218,1.295129
5.666328,1.295129
5.670639,1.295129
5.678780,1.295129
5.686974,1.295129
5.695023,1.295129
5.703079,1.295129
5.723221,1.295129
5.723389,1.295129
5.723869,1.295129
5.731934,1.295129
5.740135,1.295129
5.748360,1.295129
5.756462,1.295129
5.764511,1.295129
5.772804,1.295129
5.777031,1.295129
5.785072,1.295129
5.793175,1.295129
5.801392,1.295129
5.809685,1.295129
5.813919,1.295129
5.822021,1.295129
5.830170,1.295129
5.834465,1.295129
5.842461,1.295129
5.850784,1.295129
5.858871,1.295129
5.867012,1.295129
5.871269,1.217722
5.879410,1.217722
5.887535,1.217722
5.891708,1.217722
5.899925,1.217722
5.908165,1.217722
5.916229,1.217722
5.924400,1.217722
5.928635,1.217722
5.936668,1.217722
5.944725,1.217722
5.952904,1.217722
5.961159,1.217722
5.969398,1.295129
5.973656,1.295129
5.981773,1.295129
5.990028,1.295129
5.998199,1.295129
6.006264,1.295129
