time,angle
-0.494057,0.106531
-0.485977,0.106531
-0.481651,0.106531
-0.473587,0.106531
-0.465492,0.106531
-0.461197,0.106531
-0.452995,0.106531
-0.444817,0.106531
-0.436791,0.106531
-0.428650,0.110143
-0.424332,0.110143
-0.412750,0.110143
-0.408203,0.110143
-0.400017,0.110143
-0.391777,0.110143
-0.387466,0.110143
-0.379364,0.110143
-0.371361,0.110143
-0.366936,0.110143
-0.358887,0.110143
-0.350731,0.100871
-0.342476,0.100871
-0.334282,0.027976
-0.326241,0.027976
-0.318153,0.027976
-0.309921,0.027976
-0.301697,0.027976
-0.293480,0.027976
-0.289185,0.111906
-0.281067,0.111906
-0.272926,0.111906
-0.268631,0.111906
-0.260582,0.128204
-0.252335,0.128204
-0.244087,0.128204
-0.235901,0.128204
-0.227890,0.128204
-0.219803,0.128204
-0.211411,0.128204
-0.203346,0.128204
-0.199013,0.128204
-0.190910,0.128204
-0.182655,0.128204
-0.174622,0.128204
-0.166557,0.128204
-0.162140,0.128204
-0.150185,0.128204
-0.141945,0.178041
-0.133720,0.178041
-0.129501,0.178041
-0.121330,0.178041
-0.113121,0.178041
-0.105042,0.178041
-0.100662,0.178041
-0.092522,0.178041
-0.080490,0.178041
-0.076195,0.178041
-0.068153,0.251010
-0.060013,0.251010
-0.051743,0.251010
-0.043587,0.251010
-0.035515,0.251010
-0.031097,0.251010
-0.023041,0.251010
-0.014984,0.251010
-0.010651,0.251010
-0.002441,0.251010
0.005775,0.251010
0.013863,0.251010
0.021919,0.251010
0.026253,0.251010
0.034409,0.251010
0.042419,0.251010
0.050613,0.321425
0.058884,0.321425
0.067070,0.321425
0.075119,0.321425
0.079460,0.321425
0.087685,0.321425
0.099663,0.321425
0.104134,0.321425
0.112129,0.321425
0.120255,0.321425
0.128380,0.321425
0.132683,0.321425
0.140755,0.321425
0.148979,0.321425
0.157219,0.321425
0.165283,0.321425
0.169609,0.321425
0.177750,0.321425
0.185913,0.321425
0.193985,0.321425
0.202057,0.321425
0.210274,0.321425
0.218498,0.321425
0.222824,0.251010
0.230904,0.321425
0.239113,0.321425
0.247345,0.321425
0.255394,0.321425
0.263443,0.321425
0.271736,0.321425
0.276039,0.402512
0.284073,0.402512
0.292259,0.402512
0.296509,0.402512
0.304543,0.402512
0.312637,0.402512
0.320900,0.402512
0.325218,0.402512
0.333290,0.559881
0.341370,0.559881
0.345718,0.559881
0.353783,0.559881
0.361870,0.628696
0.370110,0.628696
0.378250,0.712444
0.382500,0.712444
0.390633,0.874692
0.398705,0.874692
0.402977,0.874692
0.411110,1.036277
0.419334,1.036277
0.427414,1.034765
0.431778,1.196649
0.439804,1.196649
0.447884,1.196649
0.456009,1.358547
0.460335,1.442115
0.468590,1.442115
0.476669,1.520456
0.484703,1.682257
0.489159,1.682257
0.497109,1.767243
0.505158,1.845784
0.513268,2.007304
0.521614,2.007304
0.525864,2.084783
0.533974,2.246725
0.542038,2.326163
0.546364,2.326163
0.554428,2.408916
0.562500,2.570702
0.570763,2.570702
0.578926,2.732515
0.583153,2.896243
0.591240,2.896243
0.599434,3.051719
0.603668,3.213575
0.611763,3.375451
0.619988,3.375451
0.628090,3.537399
0.632393,3.695757
0.640465,3.857829
0.648613,3.857829
0.652878,4.100548
0.660973,4.339688
0.669235,4.339688
0.677300,4.501760
0.685410,4.745119
0.689804,4.745119
0.697777,4.986370
0.705879,5.229446
0.710266,5.553298
0.722443,5.553298
0.726639,5.796300
0.734650,6.038775
0.742760,6.362607
0.747055,6.362607
0.755089,6.612303
0.763184,6.936047
0.771507,6.936047
0.775818,7.177585
0.783836,7.501141
0.791924,7.501141
0.800087,7.745496
0.804329,7.991930
0.812424,8.236473
0.820686,8.236473
0.828766,8.398285
0.833099,8.563665
0.841148,8.725418
0.849258,8.725418
0.853577,8.890748
0.861656,9.136048
0.869949,9.136048
0.877998,9.301448
0.886086,9.541183
0.890396,9.541183
0.898453,9.706404
0.906593,9.951235
0.910919,10.116570
0.922966,10.116570
0.927193,10.278330
0.935265,10.528180
0.939606,10.693490
0.947670,10.693490
0.955750,11.017160
0.963844,11.182410
0.972130,11.182410
0.976456,11.347600
0.984497,11.510110
0.992638,11.510110
0.996918,11.674440
1.004959,11.763260
1.013100,11.925890
1.021339,11.925890
1.029457,12.090960
1.033745,12.180080
1.041809,12.180080
1.049919,12.343360
1.054214,12.345170
1.062309,12.508450
1.070557,12.508450
1.078636,12.511780
1.082977,12.675580
1.091034,12.675580
1.099113,12.675580
1.103447,12.678880
1.111557,12.767800
1.119804,12.767800
1.127853,12.771070
1.135933,12.774890
1.140274,12.774890
1.148315,12.850210
1.156380,12.940830
1.160767,12.945710
1.172813,12.945710
1.177094,12.947580
1.185150,12.953490
1.193283,12.953490
1.197556,12.953490
1.205627,12.963330
1.213737,12.963330
1.222000,12.963330
1.230133,13.061420
1.234383,13.061420
1.242470,13.061420
1.246773,13.075160
1.254829,13.149860
1.262917,13.155490
1.271210,13.155490
1.279320,13.161580
1.283600,13.172030
1.291679,13.172030
1.299789,13.265250
1.304047,13.272690
1.312180,13.280540
1.320435,13.280540
1.328484,13.362890
1.336594,13.362890
1.340889,13.362890
1.348915,13.371520
1.353310,13.380610
1.361389,13.390110
1.373489,13.390110
1.377739,13.400090
1.385773,13.395760
1.390129,13.395760
1.398209,13.406090
1.406235,13.416820
1.414360,13.428000
1.422653,13.428000
1.427010,13.439600
1.435104,13.451640
1.443169,13.288210
1.447487,13.288210
1.455544,13.300760
1.463638,13.331970
1.471893,13.331970
1.479996,13.187810
1.484283,13.202340
1.492424,13.202340
1.500473,13.132310
1.504738,13.075300
1.512863,13.112850
1.521103,13.112850
1.529160,13.045290
1.537300,12.990750
1.541565,12.990750
1.549614,13.032510
1.554016,12.895930
1.562057,12.940930
1.570328,12.940930
1.578384,12.987770
1.586449,12.855240
1.590813,12.855240
1.598885,12.905400
1.606888,12.928350
1.611313,12.981160
1.623360,12.981160
1.627678,12.884310
1.635704,12.884310
1.643829,12.884310
1.648140,12.941330
1.656250,13.000110
1.664307,12.958950
1.672554,12.958950
1.680679,12.992620
1.684959,12.939680
1.693077,12.974380
1.701180,12.974380
1.705444,13.003430
1.713539,13.038970
1.721809,13.038970
1.729950,13.068790
1.734207,13.105200
1.742279,13.105200
1.750305,13.135830
1.754700,13.135830
1.762756,13.107050
1.771080,13.107050
1.779129,13.107050
1.787155,13.107050
1.791588,13.107050
1.799530,13.107050
1.807587,13.107050
1.812019,13.107050
1.824013,13.107050
1.828293,13.144950
1.836349,13.144950
1.844513,13.144950
1.848747,13.144950
1.856827,13.113270
1.864929,13.113270
1.873199,13.113270
1.877518,13.113270
1.885643,13.113270
1.893669,13.113270
1.898026,13.081940
1.906036,13.002130
1.914169,13.002130
1.922440,13.002130
1.930519,12.971050
1.934837,12.934220
1.942940,12.867580
1.951210,12.867580
1.959320,12.837070
1.967377,12.837070
1.975594,12.837070
1.979843,12.837070
1.987900,12.837070
1.996025,12.806970
2.000313,12.806970
2.008339,12.806970
2.012695,12.806970
2.024704,12.806970
2.028954,12.777220
2.037003,12.777220
2.045189,12.777220
2.049408,12.777220
2.057449,12.667400
2.065590,12.667400
2.073853,12.667400
2.078178,12.667400
2.086205,12.570600
2.094345,12.570600
2.098686,12.570600
2.106659,12.570600
2.114830,12.541670
2.123077,12.541670
2.131187,12.461130
2.135460,12.461130
2.143524,12.461130
2.151649,12.461130
2.155914,12.432450
2.164040,12.364380
2.172287,12.364380
2.180344,12.364380
2.184677,12.283940
2.192749,12.283940
2.200859,12.283940
2.205139,12.289920
2.213280,12.289920
2.221504,12.289920
2.229523,12.221940
2.237656,12.221940
2.241989,12.221940
2.249985,12.141790
2.254333,12.141790
2.262489,12.141790
2.270683,12.141790
2.278763,12.073870
2.286850,11.993950
2.291115,11.993950
2.299187,11.993950
2.307213,11.993950
2.315430,11.993950
2.323715,11.926130
2.327980,11.896450
2.336037,11.816620
2.344185,11.816620
2.348434,11.816620
2.356483,11.816620
2.364670,11.816620
2.372879,11.816620
2.377197,11.816620
2.385246,11.816620
2.393333,11.816620
2.397675,11.816620
2.405678,11.816620
2.413879,11.816620
2.422073,11.816620
2.430176,11.816620
2.434464,11.781170
2.442520,11.781170
2.450645,11.752240
2.454918,11.752240
2.463120,11.752240
2.471306,11.752240
2.479370,11.752240
2.483673,11.752240
2.491730,11.752240
2.499825,11.752240
2.504128,11.752240
2.512344,11.752240
2.520554,11.752240
2.528549,11.787210
2.536674,11.787210
2.540947,11.787210
2.549004,11.787210
2.557053,11.787210
2.565285,11.787210
2.573509,11.787210
2.577820,11.787210
2.585854,11.758200
2.590179,11.758200
2.598267,11.758200
2.606293,11.758200
2.614578,11.758200
2.622719,11.758200
2.627037,11.793160
2.635094,11.793160
2.643173,11.793160
2.647484,11.793160
2.655548,11.793160
2.663795,11.793160
2.671936,11.764150
2.680046,11.764150
2.684334,11.764150
2.692383,11.764150
2.700508,11.764150
2.704796,11.764150
2.713013,11.764150
2.721313,11.764150
2.729324,11.799140
2.737297,11.799140
2.745506,11.799140
2.753769,11.799140
2.761993,11.799140
2.766258,11.799140
2.774399,11.799140
2.782433,11.799140
2.786850,11.799140
2.794868,11.799140
2.803093,11.799140
2.811287,11.799140
2.819328,11.799140
2.827484,11.799140
2.831795,11.799140
2.839806,11.834630
2.847923,11.834630
2.852219,11.834630
2.860283,11.834630
2.868340,11.864580
2.876625,11.864580
2.880913,11.864580
2.888954,11.864580
2.897118,11.864580
2.901367,11.864580
2.909393,11.864580
2.917473,11.864580
2.925766,11.864580
2.930077,11.864580
2.938133,11.974420
2.946243,11.974420
2.950539,11.974420
2.958626,11.974420
2.966705,11.974420
2.974998,11.974420
2.983093,11.974420
2.987366,12.005050
2.995430,12.005050
3.003586,12.005050
3.007820,12.005050
3.015953,12.072330
3.024216,12.072330
3.032280,12.103120
3.036598,12.066270
3.044769,12.066270
3.052750,12.066270
3.057083,12.066270
3.065178,12.145850
3.073433,12.145850
3.081490,12.139780
3.089607,12.139780
3.093895,12.139780
3.101959,12.139780
3.110016,12.207180
3.114403,12.207180
3.126450,12.207180
3.130730,12.201130
3.138763,12.280980
3.146927,12.280980
3.151184,12.280980
3.159225,12.280980
3.167366,12.378400
3.175644,12.378400
3.180016,12.378400
3.188049,12.378400
3.196098,12.378400
3.204300,12.378400
3.208580,12.408680
3.216660,12.408680
3.224953,12.408680
3.232964,12.408680
3.237297,12.341650
3.245369,12.335520
3.253456,12.335520
3.257744,12.255960
3.265869,12.255960
3.274117,12.255960
3.282173,12.219110
3.290283,12.249750
3.294579,12.249750
3.302673,12.249750
3.310730,12.212960
3.315109,12.243550
3.327148,12.243550
3.331436,12.206780
3.339455,12.206780
3.347664,12.206780
3.351860,12.200540
3.359886,12.200540
3.368019,12.194270
3.376305,12.194270
3.380783,12.194270
3.388680,12.255400
3.396820,12.255400
3.401108,12.255400
3.409149,12.219390
3.417259,12.249100
3.425537,12.249100
3.433670,12.249100
3.437935,12.242820
3.446030,12.242820
3.454140,12.175420
3.458420,12.175420
3.466530,12.089420
3.474785,12.089420
3.482826,12.089420
3.490967,12.089420
3.495255,11.942650
3.503296,11.942650
3.511414,11.973540
3.515770,11.936260
3.524033,11.936260
3.532074,11.789840
3.540115,11.789840
3.544510,11.789840
3.552544,11.643820
3.560608,11.643820
3.568718,11.675500
3.577019,11.675500
3.581299,11.530300
3.589363,11.530300
3.597488,11.530300
3.601753,11.425150
3.609818,11.425150
3.617920,11.281370
3.626160,11.281370
3.630486,11.281370
3.638550,11.138040
3.646614,11.138040
3.650940,11.060960
3.658997,11.036810
3.667137,10.960250
3.675377,10.960250
3.683479,10.859660
3.687790,10.783250
3.695847,10.783250
3.703949,10.717920
3.708260,10.641890
3.716400,10.501030
3.724777,10.501030
3.732719,10.479990
3.740799,10.404900
3.745117,10.404900
3.753227,10.265900
3.761299,10.201840
3.765770,10.063800
3.777710,10.063800
3.781929,9.989913
3.790009,9.853011
3.798157,9.853011
3.802460,9.716890
3.810448,9.702026
3.818596,9.629760
3.826843,9.629760
3.831223,9.495852
3.839233,9.362881
3.847313,9.362881
3.851677,9.230779
3.859673,9.099627
3.867828,8.969531
3.876076,8.969531
3.884163,8.909533
3.888466,8.840446
3.896530,8.840446
3.904633,8.712441
3.908913,8.632515
3.917053,8.507569
3.925308,8.507569
3.933380,8.327914
3.941483,8.204779
3.945778,8.204779
3.953835,8.082986
3.961929,7.962646
3.966309,7.780563
3.978394,7.780563
3.982643,7.664034
3.990753,7.550941
3.998863,7.550941
4.003090,7.502867
4.011185,7.394358
4.019279,7.287877
4.027550,7.287877
4.031898,7.183405
4.039940,7.081167
4.048050,6.981148
4.056198,6.981148
4.060425,6.883532
4.068520,6.952571
4.076790,6.952571
4.084877,6.858297
4.089203,6.766571
4.097275,6.677556
4.105370,6.677556
4.109688,6.711246
4.117760,6.599449
4.126015,6.599449
4.134079,6.562021
4.142197,6.589874
4.146484,6.510358
4.154533,6.510358
4.162636,6.476567
4.167023,6.509696
4.175240,6.509696
4.183273,6.477990
4.191345,6.437270
4.195686,6.437270
4.203735,6.484374
4.211807,6.415362
4.216187,6.347921
4.228256,6.347921
4.232529,6.425868
4.240570,6.362638
4.248688,6.362638
4.252983,6.362638
4.261024,6.453972
4.269135,6.453972
4.277550,6.453972
4.285583,6.399266
4.289803,6.479533
4.297897,6.479533
4.306023,6.429041
4.310287,6.484162
4.318405,6.537440
4.326653,6.537440
4.334709,6.595882
4.339058,6.556341
4.347130,6.556341
4.355217,6.631050
4.359520,6.678555
4.367653,6.753718
4.375923,6.753718
4.383949,6.722983
4.392029,6.798581
4.396393,6.798581
4.404388,6.791192
4.412476,6.771988
4.416855,6.842721
4.428909,6.842721
4.433189,6.825358
4.441254,6.741685
4.449379,6.741685
4.453674,6.814775
4.461685,6.799302
4.469803,6.799302
4.478073,6.799302
4.482407,6.714050
4.490509,6.714050
4.498566,6.714050
4.502884,6.777142
4.510956,6.777142
4.519043,6.693807
4.527283,6.693807
4.535423,6.693807
4.539703,6.682106
4.547775,6.682106
4.555885,6.598022
4.560173,6.600638
4.568298,6.590826
4.576546,6.590826
4.584625,6.590826
4.592720,6.595496
4.597023,6.595496
4.605057,6.503458
4.613144,6.503458
4.617508,6.510238
4.629616,6.510238
4.633827,6.510238
4.641899,6.504302
4.646233,6.504302
4.654289,6.504302
4.662354,6.513159
4.670464,6.429041
4.678764,6.429041
4.683075,6.429041
4.691154,6.348014
4.699249,6.348014
4.703529,6.348014
4.711647,6.348014
4.719917,6.264066
4.727989,6.264066
4.736099,6.190489
4.740387,6.190489
4.748444,6.190489
4.756599,6.181711
4.760849,6.104513
4.768990,6.020374
4.777214,6.020374
4.785408,6.020374
4.800400,5.935708
4.800537,5.935708
4.805733,5.942243
4.810104,5.864979
4.818169,5.780792
4.826477,5.780792
4.834488,5.780792
4.842606,5.698667
4.846909,5.698667
4.854973,5.698667
4.863045,5.698667
4.871140,5.621554
4.879448,5.621554
4.883743,5.621554
4.891769,5.621554
4.899918,5.621554
4.904205,5.630089
4.912254,5.468699
4.920357,5.468699
4.928650,5.468699
4.936783,5.468699
4.941017,5.466549
4.949089,5.466549
4.953415,5.466549
4.961517,5.466549
4.969627,5.477329
4.977859,5.477329
4.985939,5.477329
4.990227,5.400875
4.998283,5.400875
5.006409,5.400875
5.010689,5.400875
5.018845,5.400875
5.027100,5.400875
5.035210,5.400875
5.043243,5.414030
5.047523,5.414030
5.055618,5.417033
5.063660,5.333110
5.068069,5.333110
5.080124,5.333110
5.084373,5.333110
5.092407,5.333110
5.096764,5.333110
5.104843,5.333110
5.112938,5.333110
5.121010,5.348557
5.129295,5.348557
5.133789,5.354269
5.141678,5.430438
5.149826,5.430438
5.158066,5.430438
5.166214,5.430438
5.174263,5.430438
5.178688,5.430438
5.186745,5.430438
5.194817,5.430438
5.199104,5.430438
5.207146,5.430438
5.215263,5.506588
5.219574,5.506588
5.227798,5.506588
5.235817,5.506588
5.243988,5.506588
5.248215,5.506588
5.256287,5.582722
5.264374,5.499003
5.268745,5.499003
5.280823,5.499003
5.285118,5.599827
5.293106,5.599827
5.297478,5.599827
5.305519,5.599827
5.313606,5.675646
5.321655,5.675646
5.330017,5.675646
5.334267,5.704408
5.342293,5.779842
5.350426,5.779842
5.354706,5.779842
5.362747,5.855347
5.370880,5.865280
5.379128,5.865280
5.383453,5.887529
5.391510,5.962595
5.399620,5.962595
5.403900,5.962595
5.411949,5.962595
5.420105,6.037639
5.428360,6.037639
5.436440,6.049220
5.440735,6.073121
5.448799,6.073121
5.456993,6.147778
5.461174,6.147778
5.469330,6.147778
5.477669,6.147778
5.485603,6.147778
5.489960,6.222520
5.497986,6.222520
5.506073,6.222520
5.510368,6.235582
5.518570,6.235582
5.526810,6.260967
5.534920,6.335214
5.542938,6.335214
5.547203,6.335214
5.555305,6.335214
5.559578,6.335214
5.567810,6.335214
5.579803,6.335214
5.584053,6.335214
5.592094,6.409553
5.596443,6.409553
5.604500,6.409553
5.612556,6.409553
5.620743,6.409553
5.628960,6.409553
5.633263,6.491808
5.641319,6.566264
5.649414,6.566264
5.653687,6.566264
5.661743,6.566264
5.669937,6.566264
5.678185,6.566264
5.686317,6.566264
5.690559,6.566264
5.698799,6.566264
5.707039,6.566264
5.715065,6.640714
5.723137,6.640714
5.731369,6.640714
5.735664,6.572204
5.743683,6.572204
5.751793,6.572204
5.760155,6.572204
5.768410,6.558344
5.776360,6.558344
5.780685,6.558344
5.788795,6.558344
5.796959,6.558344
5.805008,6.558344
5.809410,6.558344
5.821365,6.558344
5.829666,6.558344
5.833946,6.558344
5.841988,6.558344
5.850197,6.558344
5.858414,6.558344
5.866508,6.558344
5.870827,6.558344
5.879036,6.558344
5.887108,6.558344
5.895119,6.558344
5.899513,6.640714
5.911469,6.640714
5.919769,6.640714
5.924019,6.640714
5.932114,6.640714
5.940224,6.640714
5.944496,6.640714
5.952538,6.640714
5.960724,6.640714
5.968987,6.640714
5.977104,6.640714
5.981400,6.640714
5.989578,6.640714
5.997795,6.628151
6.005913,6.628151
