time,angle
-0.493057,0.039565
-0.484810,0.039565
-0.480530,0.039565
-0.472508,0.039565
-0.464390,0.039565
-0.456188,0.039565
-0.447960,0.039565
-0.439728,0.039565
-0.435520,0.039565
-0.427380,0.039565
-0.419109,0.039565
-0.410938,0.039565
-0.402969,0.039565
-0.394699,0.039565
-0.386498,0.039565
-0.382179,0.039565
-0.374130,0.039565
-0.365990,0.039565
-0.357739,0.039565
-0.349548,0.039565
-0.341499,0.039565
-0.337120,0.039565
-0.328999,0.039565
-0.320969,0.039565
-0.316670,0.039565
-0.308449,0.039565
-0.300259,0.039565
-0.292198,0.079129
-0.284130,0.079129
-0.279808,0.079129
-0.271778,0.079129
-0.263630,0.079129
-0.259411,0.079129
-0.251339,0.081565
-0.246918,0.137056
-0.234989,0.137056
-0.230568,0.137056
-0.222698,0.137056
-0.214569,0.137056
-0.206329,0.137056
-0.198090,0.137056
-0.193798,0.137056
-0.185688,0.137056
-0.177609,0.137056
-0.173199,0.137056
-0.165249,0.137056
-0.157009,0.137056
-0.148808,0.137056
-0.140709,0.137056
-0.132649,0.137056
-0.128128,0.137056
-0.116249,0.137056
-0.111877,0.137056
-0.103859,0.137056
-0.095688,0.137056
-0.087399,0.137056
-0.079319,0.137056
-0.074959,0.137056
-0.066837,0.137056
-0.058609,0.137056
-0.050407,0.137056
-0.042358,0.137056
-0.034290,0.137056
-0.029919,0.137056
-0.021870,0.137056
-0.013847,0.137056
-0.005650,0.137056
0.002621,0.137056
0.006920,0.137056
0.014992,0.137056
0.023041,0.137056
0.027382,0.137056
0.035450,0.137056
0.043621,0.137056
0.051842,0.137056
0.060070,0.137056
0.064281,0.137056
0.072441,0.137056
0.080669,0.137056
0.088810,0.137056
0.096832,0.137056
0.104981,0.137056
0.113270,0.137056
0.121361,0.137056
0.125641,0.137056
0.133793,0.137056
0.142052,0.137056
0.150250,0.137056
0.158321,0.137056
0.166420,0.137056
0.170742,0.137056
0.178772,0.137056
0.186802,0.137056
0.195011,0.137056
0.203270,0.137056
0.207581,0.137056
0.215641,0.137056
0.223721,0.137056
0.228069,0.137056
0.236153,0.125115
0.244320,0.125115
0.252590,0.125115
0.260811,0.125115
0.268883,0.125115
0.277000,0.125115
0.281281,0.125115
0.289322,0.125115
0.297352,0.039565
0.305573,0.039565
0.313850,0.039565
0.318081,0.104678
0.326160,0.104678
0.330471,0.104678
0.338551,0.160713
0.346592,0.224684
0.354820,0.224684
0.362991,0.267611
0.367359,0.338620
0.375393,0.338620
0.383492,0.338620
0.387821,0.402026
0.395840,0.482139
0.404072,0.482139
0.412281,0.482139
0.420342,0.482139
0.424702,0.580135
0.432720,0.580135
0.440811,0.659382
0.445103,0.659382
0.453293,0.659382
0.461510,0.659382
0.469582,0.739928
0.477699,0.739928
0.482113,0.739928
0.490021,0.809392
0.494301,0.809392
0.506241,0.809392
0.514523,0.953881
0.518772,0.953881
0.526840,1.019908
0.531162,1.019908
0.539223,1.019908
0.547253,1.100029
0.555481,1.100029
0.563683,1.100029
0.568020,1.168351
0.576042,1.250075
0.584160,1.250075
0.588440,1.250075
0.596500,1.283594
0.604733,1.283594
0.612911,1.432994
0.621059,1.460453
0.625301,1.460453
0.633350,1.460453
0.637672,1.541166
0.645741,1.609246
0.654041,1.609246
0.662140,1.609246
0.670219,1.690960
0.674530,1.760031
0.682560,1.760031
0.690712,1.901457
0.695030,1.901457
0.703201,1.901457
0.711380,2.050232
0.719460,2.050232
0.727520,2.132307
0.731842,2.132307
0.739872,2.226423
0.747940,2.308256
0.756161,2.308256
0.764381,2.308256
0.768711,2.458935
0.776730,2.484198
0.784870,2.484198
0.789162,2.634331
0.797192,2.634331
0.805420,2.634331
0.813641,2.742240
0.821781,2.742240
0.826031,2.892320
0.834080,2.892320
0.842220,2.892320
0.846462,2.975259
0.854691,2.975259
0.862881,3.067842
0.870991,3.150513
0.879070,3.150513
0.883320,3.150513
0.891380,3.233617
0.895710,3.325843
0.903942,3.325843
0.915951,3.325843
0.920193,3.408811
0.928242,3.408811
0.932602,3.408811
0.940620,3.559965
0.948669,3.617741
0.956852,3.617741
0.965080,3.617741
0.969441,3.700311
0.977470,3.767280
0.985561,3.767280
0.989910,3.767280
0.997982,3.850461
1.006092,3.850461
1.014351,3.850461
1.022442,3.917767
1.026741,4.025550
1.034809,4.025550
1.042973,4.025550
1.047211,4.059412
1.055370,4.209009
1.063622,4.209009
1.071682,4.209009
1.079750,4.209009
1.084091,4.209009
1.092140,4.209009
1.100243,4.359322
1.108330,4.359322
1.116611,4.359322
1.120941,4.359322
1.128983,4.443075
1.137112,4.443075
1.141392,4.510367
1.149441,4.567503
1.157562,4.650927
1.165890,4.650927
1.173950,4.717336
1.178242,4.717336
1.186279,4.801059
1.194420,4.801059
1.198700,4.801059
1.206802,4.801059
1.215111,4.801059
1.223141,4.951872
1.227470,4.975672
1.235561,4.975672
1.243603,4.975672
1.248032,4.975672
1.256062,5.059583
1.264301,5.059583
1.272350,5.126100
1.280430,5.126100
1.284740,5.126100
1.292801,5.210377
1.300880,5.210377
1.305252,5.234053
1.317303,5.234053
1.321590,5.267787
1.329613,5.417468
1.337780,5.417468
1.342030,5.417468
1.350090,5.417468
1.358231,5.417468
1.366470,5.417468
1.370930,5.501640
1.378891,5.567748
1.387001,5.567748
1.391300,5.567748
1.399342,5.567748
1.407459,5.652255
1.415710,5.652255
1.423801,5.652255
1.428112,5.676026
1.436192,5.676026
1.444271,5.741805
1.448582,5.741805
1.456692,5.826284
1.465031,5.826284
1.473022,5.826284
1.481171,5.859529
1.485439,5.859529
1.493481,5.859529
1.501572,5.859529
1.505951,6.009619
1.517982,6.009619
1.522251,6.009619
1.530281,6.009619
1.538471,6.009619
1.542732,6.009619
1.550781,6.009619
1.559052,6.009619
1.567169,6.009619
1.571510,6.094357
1.579552,6.160266
1.587662,6.160266
1.592052,6.160266
1.600033,6.160266
1.608120,6.160266
1.616402,6.160266
1.624512,6.160266
1.628792,6.245258
1.636871,6.245258
1.644981,6.245258
1.649281,6.245258
1.657391,6.245258
1.665661,6.245258
1.673691,6.245258
1.681820,6.311338
1.686100,6.311338
1.694153,6.311338
1.702263,6.311338
1.706600,6.418816
1.714901,6.418816
1.722912,6.418816
1.730961,6.418816
1.735340,6.418816
1.743370,6.418816
1.751411,6.418816
1.755821,6.418816
1.767860,6.418816
1.772152,6.418816
1.780201,6.418816
1.788342,6.418816
1.792629,6.536571
1.800671,6.602093
1.808781,6.602093
1.817062,6.602093
1.825191,6.602093
1.829441,6.602093
1.837521,6.602093
1.845661,6.602093
1.849892,6.602093
1.858002,6.602093
1.866310,6.602093
1.874340,6.602093
1.878662,6.602093
1.886829,6.602093
1.895031,6.602093
1.903271,6.602093
1.911312,6.687329
1.919441,6.687329
1.923733,6.687329
1.931820,6.687329
1.939873,6.710340
1.944191,6.710340
1.952263,6.710340
1.960300,6.775579
1.968540,6.775579
1.972862,6.808872
1.980972,6.808872
1.989033,6.808872
1.993370,6.808872
2.001431,6.808872
2.009472,6.808872
2.017719,6.808872
2.025860,6.775579
2.030132,6.775579
2.038261,6.775579
2.046482,6.775579
2.054722,6.775579
2.062710,6.752963
2.067101,6.687329
2.075130,6.687329
2.083233,6.687329
2.087551,6.687329
2.095612,6.687329
2.103840,6.687329
2.111820,6.710340
2.120071,6.710340
2.124302,6.710340
2.132362,6.710340
2.136723,6.710340
2.148651,6.710340
2.156960,6.710340
2.165112,6.710340
2.169460,6.710340
2.177502,6.710340
2.185772,6.710340
2.193920,6.710340
2.201969,6.710340
2.210102,6.710340
2.218410,6.710340
2.222710,6.775579
2.230751,6.808872
2.238892,6.808872
2.247131,6.808872
2.255360,6.808872
2.263432,6.808872
2.267761,6.808872
2.275852,6.808872
2.283951,6.893811
2.288250,6.893811
2.296402,6.893811
2.304649,6.893811
2.312752,6.870669
2.320831,6.870669
2.328873,6.870669
2.337151,6.870669
2.341412,6.870669
2.349480,6.870669
2.357712,6.870669
2.365940,6.870669
2.374012,6.870669
2.378342,6.936160
2.386562,6.936160
2.398552,6.936160
2.406773,6.936160
2.411053,6.968775
2.419163,6.968775
2.427250,6.968775
2.431553,6.968775
2.439610,6.903677
2.447861,6.903677
2.456032,6.870669
2.464100,6.870669
2.468479,6.870669
2.476460,6.870669
2.484592,6.936160
2.488861,6.936160
2.497040,6.936160
2.505291,6.936160
2.513309,6.936160
2.521461,6.936160
2.525692,6.936160
2.533772,6.936160
2.538113,6.936160
2.546162,6.936160
2.554260,6.936160
2.558552,7.021689
2.566822,7.021689
2.574841,7.044114
2.582882,7.044114
2.591000,7.044114
2.599232,7.044114
2.607471,7.044114
2.611759,7.044114
2.619862,7.044114
2.627953,7.044114
2.632290,7.044114
2.640289,7.044114
2.648491,7.044114
2.656731,7.044114
2.664810,7.067468
2.669109,7.067468
2.677132,7.067468
2.685291,7.067468
2.689560,7.067468
2.697742,7.067468
2.705952,7.067468
2.714031,7.067468
2.718300,7.067468
2.726372,7.067468
2.734440,7.034110
2.738762,7.034110
2.747002,7.034110
2.755161,7.034110
2.763191,7.067468
2.771339,7.152586
2.775620,7.152586
2.783680,7.152586
2.791790,7.152586
2.796051,7.152586
2.804119,7.152586
2.812172,7.152586
2.820461,7.152586
2.824741,7.152586
2.832790,7.152586
2.840950,7.152586
2.849110,7.152586
2.857330,7.176519
2.861671,7.176519
2.869751,7.176519
2.877800,7.176519
2.882130,7.176519
2.890240,7.176519
2.898430,7.176519
2.906582,7.176519
2.914650,7.176519
2.919022,7.176519
2.927021,7.176519
2.935131,7.176519
2.939400,7.176519
2.947681,7.176519
2.955799,7.176519
2.963821,7.176519
2.971981,7.176519
2.976280,7.176519
2.984291,7.176519
2.992359,7.176519
3.000561,7.176519
3.005039,7.176519
3.013081,7.176519
3.021172,7.176519
3.025482,7.176519
3.033543,7.261528
3.041592,7.261528
3.049782,7.261528
3.057991,7.261528
3.062302,7.286073
3.070450,7.286073
3.078480,7.286073
3.082771,7.286073
3.090832,7.286073
3.099030,7.286073
3.107250,7.286073
3.115311,7.286073
3.119690,7.286073
3.127682,7.286073
3.135860,7.350231
3.140091,7.350231
3.148281,7.350231
3.156532,7.350231
3.164631,7.350231
3.172672,7.350231
3.180832,7.350231
3.189091,7.350231
3.197300,7.326113
3.205471,7.326113
3.209801,7.176519
3.218033,7.176519
3.226021,7.176519
3.234112,7.091741
3.238472,7.091741
3.246490,6.992968
3.254601,6.884016
3.258961,6.819091
3.271000,6.819091
3.275242,6.734321
3.283279,6.669533
3.291431,6.550775
3.295742,6.550775
3.303802,6.550775
3.311882,6.442020
3.320129,6.442020
3.324482,6.376767
3.332520,6.376767
3.340611,6.376767
3.344952,6.292235
3.353031,6.258680
3.361111,6.193181
3.369392,6.193181
3.377491,6.108718
3.381771,6.084827
3.389893,6.084827
3.397961,6.084827
3.402290,5.934585
3.410381,5.934585
3.418640,5.934585
3.426670,5.850289
3.434811,5.784825
3.439102,5.727587
3.447220,5.727587
3.455261,5.642954
3.459641,5.642954
3.471680,5.642954
3.475922,5.492549
3.483982,5.492549
3.492149,5.492549
3.496403,5.384487
3.504520,5.318172
3.512550,5.234053
3.520851,5.234053
3.525181,5.084190
3.533241,5.050707
3.541309,4.876203
3.545670,4.876203
3.553730,4.876203
3.561771,4.725883
3.570061,4.725883
3.578171,4.609042
3.582420,4.542346
3.590511,4.458873
3.598640,4.458873
3.602901,4.283909
3.611012,4.251187
3.619320,4.251187
3.632603,4.100548
3.632732,4.100548
3.639732,4.100548
3.647781,3.950618
3.652111,3.950618
3.660233,3.801533
3.668591,3.801533
3.676582,3.684402
3.684631,3.684402
3.688980,3.684402
3.697002,3.535682
3.705082,3.535682
3.709461,3.388129
3.721500,3.388129
3.725761,3.359812
3.733810,3.211869
3.741982,3.211869
3.746231,3.211869
3.754292,3.094400
3.762409,3.028149
3.770672,3.028149
3.775032,2.947097
3.783051,2.881539
3.791210,2.881539
3.795471,2.801140
3.803520,2.801140
3.811672,2.736452
3.819912,2.736452
3.827999,2.657192
3.832302,2.617634
3.840370,2.617634
3.848461,2.473697
3.852760,2.473697
3.860863,2.395145
3.869152,2.395145
3.877190,2.296610
3.885330,2.296610
3.889610,2.296610
3.897659,2.217967
3.902073,2.154677
3.910122,2.154677
3.918362,2.154677
3.926430,2.077636
3.934471,2.077636
3.938850,2.077636
3.946892,2.040856
3.954960,1.900428
3.963051,1.900428
3.971371,1.900428
3.975670,1.900428
3.983730,1.900428
3.991833,1.824348
3.996162,1.824348
4.004230,1.785751
4.012321,1.785751
4.020622,1.785751
4.028702,1.785751
4.033020,1.785751
4.041050,1.785751
4.049183,1.785751
4.053471,1.785751
4.061550,1.785751
4.069851,1.785751
4.077862,1.785751
4.086010,1.785751
4.090282,1.785751
4.098351,1.785751
4.102810,1.829490
4.110802,1.829490
4.119102,1.829490
4.127090,1.905775
4.135181,1.968614
4.139500,1.968614
4.147530,1.968614
4.155609,1.968614
4.160030,1.968614
4.172043,1.968614
4.176311,2.046697
4.184353,2.046697
4.192501,2.046697
4.196861,2.145940
4.204842,2.224048
4.212952,2.224048
4.221260,2.224048
4.229362,2.224048
4.233620,2.183999
4.241699,2.183999
4.246040,2.183999
4.254112,2.263735
4.262211,2.263735
4.270470,2.263735
4.278580,2.361072
4.282860,2.361072
4.291000,2.361072
4.299030,2.361072
4.303352,2.440719
4.311470,2.440719
4.319752,2.440719
4.327782,2.440719
4.335880,2.440719
4.340202,2.440719
4.348251,2.440719
4.356312,2.440719
4.360680,2.440719
4.372723,2.440719
4.377022,2.440719
4.385040,2.440719
4.393162,2.440719
4.401421,2.440719
4.409622,2.440719
4.413933,2.440719
4.422043,2.440719
4.430122,2.440719
4.434429,2.506319
4.442501,2.586945
4.450691,2.586945
4.458893,2.586945
4.466972,2.586945
4.471302,2.586945
4.479351,2.586945
4.487431,2.586945
4.491772,2.586945
4.499832,2.586945
4.507992,2.586945
4.512211,2.624355
4.520420,2.624355
4.528461,2.624355
4.536552,2.624355
4.540882,2.657192
4.548981,2.657192
4.557011,2.657192
4.561340,2.657192
4.569599,2.657192
4.577660,2.657192
4.585770,2.657192
4.593842,2.617634
4.602100,2.617634
4.610291,2.617634
4.614559,2.617634
4.622730,2.617634
4.630802,2.617634
4.635220,2.617634
4.643112,2.650701
4.651230,2.650701
4.655510,2.650701
4.663551,2.650701
4.671822,2.650701
4.679939,2.650701
4.684151,2.650701
4.692291,2.729935
4.700542,2.729935
4.708660,2.729935
4.716702,2.729935
4.721123,2.729935
4.729160,2.729935
4.737240,2.729935
4.741550,2.729935
4.749790,2.729935
4.757942,2.729935
4.765980,2.729935
4.774120,2.729935
4.778461,2.729935
4.786510,2.729935
4.794540,2.729935
4.802773,2.729935
4.810970,2.729935
4.815281,2.729935
4.823341,2.729935
4.831451,2.729935
4.835732,2.729935
4.843792,2.729935
4.852039,2.729935
4.860142,2.697838
4.864521,2.697838
4.872581,2.697838
4.880611,2.697838
4.884953,2.697838
4.893002,2.697838
4.901260,2.697838
4.909382,2.697838
4.917431,2.697838
4.921822,2.697838
4.929932,2.697838
4.937962,2.697838
4.942272,2.697838
4.950451,2.697838
4.958652,2.697838
4.966682,2.697838
4.974831,2.697838
4.979160,2.697838
4.987190,2.697838
4.995281,2.763430
4.999573,2.763430
5.007622,2.763430
5.015640,2.763430
5.023979,2.763430
5.028202,2.844550
5.036263,2.844550
5.044422,2.844550
5.048660,2.844550
5.056732,2.844550
5.064831,2.844550
5.073112,2.844550
5.077442,2.844550
5.085480,2.844550
5.093582,2.844550
5.097900,2.844550
5.105980,2.910873
5.114071,2.910873
5.122322,2.910873
5.130451,2.910873
5.134712,2.910873
5.142872,2.910873
5.151112,2.910873
5.159290,2.910873
5.167339,2.910873
5.175491,2.910873
5.179760,2.910873
5.187840,2.844550
5.192142,2.844550
5.204060,2.844550
5.212341,2.844550
5.216621,2.844550
5.224670,2.844550
5.229031,2.844550
5.237072,2.844550
5.245102,2.844550
5.253342,2.844550
5.261551,2.844550
5.269730,2.844550
5.274052,2.844550
5.282150,2.844550
5.290401,2.844550
5.298580,2.844550
5.306602,2.844550
5.314713,2.844550
5.322971,2.844550
5.331131,2.844550
5.335411,2.844550
5.343502,2.844550
5.351810,2.844550
5.360012,2.844550
5.368050,2.844550
5.376141,2.844550
5.380501,2.844550
5.388653,2.844550
5.396721,2.844550
5.404812,2.844550
5.413082,2.844550
5.421280,2.844550
5.429413,2.844550
5.433670,2.844550
5.441933,2.844550
5.450130,2.844550
5.458241,2.844550
5.466282,2.844550
5.474491,2.844550
5.478840,2.844550
5.486931,2.844550
5.494961,2.844550
5.499290,2.844550
5.507351,2.763430
5.515411,2.697838
5.523651,2.697838
5.528030,2.697838
5.536060,2.697838
5.544121,2.697838
5.548443,2.660872
5.556561,2.660872
5.564602,2.660872
5.572849,2.660872
5.580959,2.660872
5.585251,2.558644
5.593292,2.558644
5.601421,2.477334
5.605690,2.477334
5.613831,2.507412
5.622131,2.507412
5.630131,2.507412
5.634441,2.470213
5.642521,2.470213
5.650581,2.404118
5.654949,2.404118
5.663040,2.404118
5.671303,2.404118
5.679352,2.404118
5.687420,2.404118
5.695541,2.404118
5.703793,2.404118
5.712051,2.404118
5.716331,2.404118
5.724422,2.404118
5.732533,2.404118
5.736813,2.404118
5.744862,2.404118
5.753101,2.404118
5.761292,2.404118
5.769371,2.404118
5.773682,2.404118
5.781731,2.404118
5.789860,2.404118
5.794090,2.507412
5.802151,2.507412
5.806492,2.507412
5.814552,2.507412
5.822769,2.507412
5.830822,2.507412
5.835152,2.507412
5.843243,2.507412
5.851280,2.507412
5.855671,2.507412
5.863731,2.587777
5.872040,2.587777
5.880051,2.625921
5.888229,2.625921
5.892460,2.625921
5.900520,2.691009
5.908630,2.691009
5.913071,2.691009
5.925041,2.691009
5.929291,2.691009
5.937332,2.691009
5.945450,2.691009
5.953739,2.691009
5.961891,2.691009
5.966240,2.691009
5.974350,2.691009
5.982380,2.691009
5.986721,2.691009
5.994762,2.691009
6.003071,2.691009
