time,angle
-0.496290,0.335135
-0.488191,0.335135
-0.483911,0.299362
-0.475671,0.222936
-0.467510,0.222936
-0.459491,0.222936
-0.451480,0.204630
-0.443151,0.204630
-0.438911,0.123541
-0.430861,0.138476
-0.422680,0.079129
-0.418441,0.079129
-0.410371,0.151951
-0.402301,0.151951
-0.393991,0.151951
-0.389670,0.151951
-0.381661,0.189746
-0.373510,0.189746
-0.369250,0.189746
-0.361180,0.189746
-0.353061,0.137056
-0.344800,0.137056
-0.336670,0.137056
-0.332400,0.137056
-0.324321,0.137056
-0.316200,0.137056
-0.311891,0.137056
-0.303850,0.137056
-0.295570,0.137056
-0.287491,0.120331
-0.283191,0.120331
-0.275081,0.120331
-0.267040,0.120331
-0.262680,0.154505
-0.254621,0.154505
-0.246330,0.154505
-0.238320,0.154505
-0.230201,0.123541
-0.225890,0.123541
-0.217851,0.155766
-0.209721,0.226419
-0.205390,0.207479
-0.193311,0.207479
-0.189051,0.286674
-0.180990,0.286674
-0.172851,0.286674
-0.168591,0.296075
-0.160541,0.296075
-0.152411,0.368505
-0.144131,0.368505
-0.139811,0.505130
-0.131661,0.505130
-0.123660,0.505130
-0.119340,0.546439
-0.111280,0.660864
-0.103180,0.726855
-0.094911,0.726855
-0.086821,0.772531
-0.082520,0.772531
-0.074460,0.772531
-0.066330,0.906118
-0.062060,0.950181
-0.053930,0.950181
-0.045660,0.950181
-0.037630,0.950181
-0.029511,1.061278
-0.025240,1.061278
-0.017190,1.084081
-0.012860,1.084081
-0.004690,1.153349
0.007370,1.153349
0.011630,1.193210
0.019660,1.295884
0.027829,1.295884
0.032129,1.295884
0.040139,1.444285
0.048240,1.491872
0.056540,1.491872
0.060869,1.567979
0.068919,1.723287
0.077020,1.723287
0.081360,1.879719
0.089419,2.018970
0.097500,2.178166
0.105760,2.178166
0.113870,2.337745
0.118150,2.569179
0.126280,2.569179
0.134370,2.721245
0.138640,2.878548
0.146770,3.040343
0.155040,3.040343
0.163079,3.200389
0.171249,3.362375
0.175520,3.362375
0.183610,3.441508
0.191690,3.524534
0.199740,3.524534
0.208070,3.524534
0.212330,3.526645
0.220389,3.526645
0.228519,3.526645
0.232810,3.526645
0.240850,3.530418
0.248960,3.530418
0.257270,3.530418
0.261560,3.528088
0.269680,3.528088
0.277720,3.528088
0.282029,3.366099
0.290110,3.370168
0.298269,3.370168
0.306480,3.370168
0.314580,3.208454
0.318860,3.208454
0.326940,3.046647
0.335079,3.046647
0.339560,3.051719
0.347500,3.051719
0.355700,3.051719
0.363730,2.890357
0.371880,2.897865
0.376180,2.897865
0.384430,2.897865
0.392340,2.897865
0.396669,2.814525
0.408899,2.814525
0.412980,2.735450
0.421080,2.745949
0.425380,2.664621
0.433439,2.664621
0.441489,2.652251
0.449599,2.663078
0.457959,2.663078
0.462210,2.584371
0.470280,2.517462
0.478399,2.517462
0.482679,2.501707
0.490789,2.515906
0.498850,2.532732
0.507090,2.532732
0.515249,2.532732
0.519509,2.552056
0.527570,2.495126
0.535729,2.495126
0.539980,2.520026
0.548090,2.520026
0.556359,2.520026
0.564409,2.472747
0.568820,2.428097
0.576810,2.428097
0.584880,2.461641
0.589220,2.461641
0.597330,2.355179
0.605590,2.355179
0.613640,2.395472
0.621750,2.483253
0.626030,2.483253
0.634090,2.399880
0.642170,2.450324
0.646549,2.387697
0.658600,2.387697
0.662849,2.441120
0.670899,2.439035
0.679090,2.439035
0.683340,2.501629
0.691360,2.563153
0.699510,2.576710
0.707760,2.576710
0.712100,2.593746
0.720160,2.660651
0.728250,2.660651
0.732599,2.714979
0.740609,2.786215
0.748730,2.858074
0.757000,2.858074
0.765100,2.894012
0.769380,2.967683
0.777460,2.967683
0.785549,3.085911
0.789840,3.237247
0.797979,3.313398
0.806230,3.313398
0.814280,3.362084
0.822419,3.516136
0.826679,3.516136
0.834729,3.593576
0.839060,3.650285
0.847250,3.806680
0.859280,3.806680
0.863500,3.864168
0.871570,3.943374
0.875930,3.943374
0.883949,4.180717
0.892070,4.260299
0.900120,4.339914
0.908449,4.339914
0.912760,4.498582
0.920799,4.578383
0.928900,4.578383
0.933209,4.737351
0.941270,4.817434
0.949390,4.976617
0.957669,4.976617
0.965790,5.056833
0.970140,5.296647
0.978149,5.296647
0.986270,5.376985
0.990540,5.527156
0.998660,5.607871
1.006909,5.607871
1.014970,5.849016
1.023100,5.929859
1.027380,5.929859
1.035450,6.098472
1.039760,6.179110
1.047890,6.259808
1.059959,6.259808
1.064199,6.340473
1.072269,6.436326
1.080460,6.436326
1.084680,6.524860
1.092720,6.605271
1.100849,6.685804
1.109139,6.685804
1.113460,6.793156
1.121530,6.873323
1.129610,6.873323
1.133940,6.953615
1.141970,7.033887
1.150080,7.114195
1.158350,7.114195
1.166500,7.194484
1.170739,7.274863
1.178809,7.274863
1.186950,7.274863
1.191210,7.355275
1.199329,7.435691
1.207570,7.435691
1.215630,7.516142
1.219959,7.516142
1.228020,7.516142
1.236099,7.596623
1.240419,7.677083
1.248529,7.660576
1.256849,7.660576
1.264870,7.813941
1.272949,7.813941
1.277320,7.813941
1.285310,7.813941
1.293360,7.894762
1.297810,7.894762
1.309879,7.894762
1.314159,7.894762
1.322180,7.894762
1.330290,7.975579
1.338670,7.975579
1.346780,7.975579
1.354850,7.975579
1.359170,7.975579
1.367290,7.975579
1.375360,8.055225
1.379620,8.055225
1.387759,8.055225
1.395860,8.055225
1.400080,8.055225
1.408509,8.055225
1.416340,8.055225
1.424470,8.049837
1.428720,8.115854
1.436899,8.115854
1.441150,8.115854
1.449240,8.115854
1.457510,8.115854
1.465560,8.115854
1.473599,8.115854
1.481730,8.115854
1.489980,8.115854
1.498250,8.115854
1.502480,8.036071
1.510600,8.036071
1.518700,8.036071
1.523029,8.036071
1.531030,8.036071
1.539240,8.036071
1.543429,8.113531
1.551459,8.101424
1.559700,8.101424
1.567869,8.101424
1.572080,8.021474
1.580150,8.021474
1.584459,8.021474
1.592520,8.102732
1.600639,8.102732
1.608920,8.102732
1.616990,8.011507
1.621320,8.010208
1.629319,8.010208
1.637489,8.010208
1.641740,8.010208
1.649859,8.091604
1.658130,8.091604
1.666180,8.091604
1.674310,8.011483
1.678579,8.011483
1.686660,8.011483
1.690989,8.001896
1.699110,8.001896
1.707339,8.001896
1.715409,8.001896
1.723510,8.002264
1.727819,8.002264
1.735860,8.002264
1.743910,8.002264
1.752020,8.082379
1.760360,8.082379
1.764720,8.082379
1.772690,8.082379
1.780849,8.082379
1.785089,8.082379
1.793139,7.992888
1.801290,7.992888
1.809580,7.992888
1.817690,7.992888
1.822089,7.994901
1.830009,7.994901
1.838170,7.994901
1.842410,8.075064
1.850539,8.075064
1.858809,8.075064
1.866879,8.075064
1.871190,8.075064
1.879339,8.075064
1.891299,8.075064
1.895760,8.075064
1.903800,8.075064
1.911910,8.075064
1.920079,8.075064
1.924290,8.075064
1.932349,8.075064
1.940550,8.075064
1.948770,7.994901
1.953110,7.994901
1.961149,7.994901
1.969299,7.994901
1.973539,7.994901
1.981569,7.994901
1.989719,7.994901
1.993950,8.076449
2.002020,8.076449
2.010280,8.076449
2.018359,8.076449
2.022630,8.076449
2.030669,8.076449
2.035000,8.076449
2.043070,8.076449
2.051180,8.076449
2.059469,8.076449
2.067539,8.076449
2.071830,8.076449
2.079969,8.076449
2.088030,8.158007
2.092310,8.155840
2.100430,8.155840
2.108689,8.155840
2.116719,8.163900
2.124849,8.244002
2.129140,8.244002
2.137179,8.244002
2.141520,8.244002
2.149650,8.244002
2.161719,8.244002
2.165990,8.244002
2.174029,8.324118
2.182240,8.324118
2.186470,8.333076
2.194520,8.333076
2.202630,8.333076
2.210919,8.333076
2.215240,8.333076
2.223300,8.333076
2.231390,8.333076
2.235700,8.333076
2.243759,8.333076
2.251869,8.333076
2.260139,8.333076
2.268260,8.333076
2.272540,8.333076
2.280649,8.345156
2.288990,8.345156
2.297100,8.345156
2.305180,8.345156
2.313299,8.426390
2.317570,8.426390
2.325620,8.426390
2.333770,8.426390
2.338070,8.426390
2.346089,8.426390
2.350389,8.426390
2.362420,8.426390
2.366659,8.507663
2.374740,8.507663
2.379089,8.507663
2.387190,8.507663
2.395140,8.495858
2.403250,8.507663
2.411570,8.507663
2.415870,8.507663
2.423900,8.588902
2.432030,8.588902
2.436310,8.588902
2.444369,8.588902
2.452490,8.588902
2.460750,8.588902
2.468900,8.588902
2.473149,8.588902
2.481259,8.588902
2.489389,8.588902
2.493609,8.588902
2.501790,8.670156
2.510039,8.670156
2.518080,8.670156
2.522409,8.670156
2.530499,8.670156
2.538540,8.750079
2.542890,8.750079
2.550980,8.750079
2.559270,8.750079
2.567320,8.750079
2.575379,8.749092
2.579800,8.749092
2.587780,8.749092
2.595810,8.749092
2.600229,8.738667
2.612269,8.738667
2.616529,8.738667
2.624590,8.820024
2.632750,8.820024
2.637000,8.820024
2.645060,8.820024
2.653250,8.900045
2.661429,8.900045
2.665830,8.900045
2.673800,8.900045
2.681890,8.900045
2.686230,8.900730
2.694289,8.900730
2.702410,8.891698
2.710690,8.891698
2.718770,8.891698
2.723069,8.891698
2.731239,8.891698
2.739460,8.891698
2.747669,8.891698
2.755719,8.891698
2.763809,8.891698
2.771919,8.891698
2.776330,8.891698
2.784340,8.891698
2.792500,8.891698
2.800770,8.891698
2.808990,8.891698
2.817019,8.891698
2.821409,8.891698
2.833320,8.891698
2.841630,8.891698
2.845890,8.891698
2.853970,8.891698
2.862160,8.891698
2.870279,8.891698
2.874570,8.891698
2.882629,8.891698
2.890759,8.891698
2.895040,8.891698
2.903120,8.891698
2.911389,8.891698
2.919430,8.891698
2.923719,8.891698
2.931780,8.891698
2.939899,8.891698
2.944160,8.971765
2.952290,8.890284
2.960560,8.890284
2.968599,8.890284
2.972930,8.890284
2.981000,8.890284
2.989070,8.890284
2.993370,8.890284
3.001539,8.890284
3.009800,8.890284
3.017839,8.890284
3.025889,8.890284
3.034060,8.890284
3.042299,8.890284
3.050509,8.808814
3.054810,8.808814
3.062929,8.808814
3.070980,8.808814
3.075319,8.808814
3.083349,8.808814
3.091559,8.808814
3.099830,8.808814
3.107830,8.808814
3.112189,8.808814
3.120290,8.808814
3.128329,8.808814
3.132669,8.808814
3.140850,8.808814
3.149059,8.808814
3.157169,8.727331
3.165279,8.727331
3.173380,8.727331
3.177620,8.727331
3.185650,8.647291
3.193810,8.565775
3.202080,8.565775
3.210320,8.565775
3.218430,8.404244
3.222730,8.331662
3.230809,8.331662
3.238899,8.331710
3.243230,8.250359
3.251400,8.250359
3.259569,8.250359
3.267630,8.168973
3.275780,8.168973
3.280020,8.168973
3.288150,8.087599
3.292410,8.087599
3.304359,8.087599
3.308820,8.006213
3.316830,8.006213
3.324940,7.924814
3.329320,7.924814
3.337390,8.004840
3.345369,7.923476
3.353590,7.923476
3.361799,7.923476
3.366130,7.842100
3.374390,7.842100
3.382380,7.842100
3.386600,7.760761
3.394600,7.679383
3.402829,7.679383
3.410999,7.679383
3.419140,7.598017
3.423400,7.516638
3.431439,7.516638
3.439590,7.435323
3.443840,7.353994
3.452040,7.353994
3.460210,7.353994
3.468289,7.272623
3.476500,7.191320
3.480680,7.191320
3.488790,7.108016
3.493050,7.026577
3.501329,7.026577
3.509459,6.945148
3.517509,6.863700
3.525620,6.863700
3.529880,6.863700
3.537960,6.702122
3.546020,6.620750
3.554250,6.620750
3.562469,6.539330
3.566790,6.457920
3.574850,6.377843
3.582959,6.377843
3.587279,6.296440
3.595260,6.215017
3.603479,6.215017
3.611660,6.053593
3.619800,6.053593
3.624140,5.892088
3.632130,5.892088
3.636459,5.810721
3.644500,5.649341
3.652770,5.649341
3.660870,5.640036
3.668950,5.558624
3.673320,5.397173
3.681330,5.397173
3.689460,5.317066
3.693720,5.235737
3.701950,5.235737
3.710159,5.235737
3.718189,5.074276
3.726299,4.993045
3.730639,4.993045
3.738620,4.912827
3.743010,4.831605
3.754880,4.831605
3.759330,4.751513
3.767380,4.670219
3.775479,4.508847
3.779770,4.508847
3.787849,4.508847
3.795919,4.347534
3.804120,4.347534
3.812349,4.357883
3.816640,4.284914
3.824690,4.124453
3.832800,4.124453
3.837070,4.124453
3.845160,4.043703
3.853379,4.043703
3.861540,4.043703
3.869659,3.883428
3.874000,3.883428
3.882010,3.883428
3.890140,3.802820
3.894389,3.802820
3.902610,3.802820
3.910789,3.722312
3.918830,3.722312
3.926990,3.641908
3.931240,3.641908
3.939290,3.641908
3.943620,3.641908
3.955569,3.641908
3.960020,3.561505
3.968090,3.561505
3.976180,3.561505
3.980490,3.561505
3.988529,3.481216
3.996599,3.481216
4.004780,3.481216
4.013010,3.470062
4.017309,3.389458
4.025359,3.389458
4.033509,3.389458
4.037749,3.389458
4.045810,3.308846
4.054060,3.308846
4.062200,3.308846
4.070330,3.308846
4.074619,3.228284
4.082660,3.228284
4.090899,3.228284
4.095059,3.228284
4.103300,3.228284
4.111460,3.228284
4.119530,3.147902
4.127669,3.147902
4.131960,3.147902
4.139999,3.147902
4.144340,3.147902
4.152530,3.147902
4.160689,3.067586
4.168739,2.987931
4.176840,2.987931
4.181129,2.987931
4.189170,2.987931
4.203320,2.987931
4.205440,2.987931
4.213710,2.907711
4.217919,2.893877
4.226060,2.893877
4.230330,2.893877
4.238390,2.893877
4.246460,2.893877
4.254749,2.893877
4.262870,2.893877
4.267179,2.813412
4.275290,2.813412
4.283350,2.813412
4.287620,2.827570
4.295690,2.827570
4.303920,2.827570
4.312099,2.827570
4.320180,2.827570
4.324550,2.747446
4.332550,2.747446
4.340690,2.747446
4.345010,2.747446
4.353169,2.747446
4.361380,2.826809
4.369420,2.826809
4.377460,2.826809
4.385730,2.826809
4.393920,2.826809
4.402110,2.746804
4.406320,2.746804
4.414579,2.746804
4.422600,2.746804
4.426920,2.746804
4.435010,2.746804
4.443319,2.746804
4.451440,2.746804
4.459490,2.746804
4.467629,2.746804
4.471930,2.746804
4.480010,2.746804
4.488040,2.746804
4.496240,2.746804
4.504519,2.746804
4.512690,2.746804
4.516950,2.746804
4.525089,2.746804
4.533299,2.746804
4.541389,2.746804
4.549439,2.746804
4.553869,2.746804
4.565929,2.746804
4.570149,2.746804
4.578250,2.587550
4.586370,2.587550
4.594660,2.587550
4.602790,2.587550
4.607160,2.587550
4.615339,2.587550
4.623320,2.587550
4.631530,2.587550
4.635739,2.587550
4.643980,2.587550
4.652209,2.587550
4.660299,2.587550
4.668280,2.587550
4.676410,2.587550
4.680860,2.587550
4.688930,2.587550
4.697010,2.587550
4.705319,2.587550
4.713449,2.587550
4.721539,2.587550
4.725860,2.587550
4.734119,2.587550
4.742370,2.587550
4.750370,2.587550
4.758389,2.587550
4.766660,2.587550
4.770960,2.587550
4.778979,2.587550
4.787200,2.587550
4.795380,2.587550
4.803539,2.507802
4.811629,2.507802
4.815949,2.507802
4.823999,2.507802
4.832150,2.507802
4.836400,2.507802
4.844620,2.507802
4.852880,2.507802
4.860960,2.507802
4.869020,2.586945
4.877170,2.586945
4.885449,2.604666
4.893610,2.604666
4.897949,2.604666
4.906039,2.623385
4.914320,2.623385
4.922350,2.623385
4.930409,2.623385
4.938519,2.623385
4.946770,2.623385
4.955040,2.623385
4.959350,2.623385
4.967429,2.623385
4.975559,2.623385
4.983729,2.623385
4.991840,2.623385
4.996180,2.623385
5.004419,2.623385
5.016470,2.623385
5.020781,2.623385
5.028799,2.623385
5.037039,2.623385
5.045290,2.623385
5.053431,2.623385
5.061460,2.623385
5.065880,2.623385
5.074009,2.623385
5.082069,2.623385
5.090099,2.623385
5.098270,2.604666
5.106529,2.604666
5.114740,2.604666
5.119061,2.604666
5.127131,2.604666
5.135370,2.604666
5.143669,2.604666
5.151690,2.604666
5.159719,2.604666
5.168009,2.604666
5.172319,2.604666
5.180330,2.604666
5.188450,2.604666
5.196690,2.604666
5.204920,2.604666
5.213049,2.604666
5.217350,2.604666
5.225460,2.604666
5.233660,2.604666
5.241690,2.604666
5.246059,2.586945
5.257999,2.586945
5.266310,2.586945
5.270529,2.586945
5.278620,2.586945
5.282930,2.586945
5.291010,2.586945
5.299059,2.586945
5.307289,2.586945
5.315519,2.586945
5.323639,2.586945
5.327890,2.586945
5.335949,2.586945
5.340549,2.587550
5.348339,2.573746
5.356529,2.573746
5.364750,2.561014
5.372799,2.561014
5.377180,2.561014
5.385290,2.561014
5.393280,2.561014
5.397579,2.561014
5.406040,2.561014
5.417850,2.561014
5.422070,2.561014
5.430109,2.561014
5.438271,2.561014
5.446529,2.561014
5.454729,2.561014
5.459000,2.561014
5.467150,2.561014
5.475210,2.561014
5.479540,2.561014
5.487619,2.561014
5.495819,2.561014
5.504049,2.561014
5.512129,2.561014
5.520250,2.641825
5.524490,2.641825
5.532549,2.641825
5.536869,2.641825
5.548790,2.641825
5.557089,2.641825
5.561359,2.641825
5.569399,2.641825
5.577520,2.641825
5.585789,2.641825
5.590029,2.641825
5.598139,2.641825
5.606421,2.641825
5.614569,2.641825
5.622620,2.641825
5.626959,2.641825
5.635170,2.641825
5.647240,2.641825
5.651449,2.641825
5.659489,2.641825
5.667700,2.641825
5.675859,2.641825
5.680080,2.641825
5.688320,2.641825
5.696470,2.641825
5.704649,2.641825
5.712679,2.641825
5.717070,2.641825
5.725121,2.641825
5.733259,2.641825
5.737549,2.641825
5.745739,2.641825
5.757730,2.641825
5.762100,2.641825
5.770149,2.641825
5.778290,2.641825
5.786560,2.722539
5.794710,2.722539
5.802780,2.722539
5.807190,2.722539
5.819250,2.722539
5.823479,2.722539
5.831530,2.722539
5.839670,2.722539
5.847900,2.722539
5.856169,2.722539
5.864260,2.722539
5.868540,2.722539
5.876650,2.722539
5.884790,2.722539
5.892879,2.722539
5.897329,2.722539
5.909239,2.722539
5.917521,2.722539
5.921799,2.722539
5.929831,2.641825
5.938040,2.641825
5.946289,2.641825
5.954439,2.641825
5.958689,2.641825
5.966919,2.641825
5.974960,2.641825
5.982979,2.641825
5.987391,2.641825
5.999319,2.641825
6.007629,2.641825
