time,angle
-0.496658,0.034264
-0.488388,0.034264
-0.480362,0.062557
-0.476021,0.062557
-0.467781,0.062557
-0.459770,0.096913
-0.451691,0.096913
-0.443611,0.096913
-0.435371,0.096913
-0.427101,0.096913
-0.422798,0.096913
-0.414726,0.096913
-0.406639,0.096913
-0.402275,0.096913
-0.394188,0.096913
-0.386017,0.096913
-0.377739,0.096913
-0.369545,0.096913
-0.361496,0.096913
-0.353432,0.096913
-0.345192,0.096913
-0.336960,0.096913
-0.328766,0.096913
-0.324501,0.096913
-0.316307,0.096913
-0.308235,0.096913
-0.300125,0.096913
-0.295815,0.096913
-0.287575,0.096913
-0.275612,0.096913
-0.271225,0.096913
-0.263176,0.096913
-0.255081,0.096913
-0.246841,0.096913
-0.238686,0.096913
-0.234360,0.096913
-0.226227,0.096913
-0.214157,0.096913
-0.209885,0.096913
-0.201881,0.096913
-0.193710,0.096913
-0.185425,0.096913
-0.177231,0.076617
-0.172936,0.076617
-0.164825,0.076617
-0.156776,0.076617
-0.152435,0.076617
-0.144371,0.076617
-0.136169,0.076617
-0.127937,0.076617
-0.119820,0.076617
-0.111778,0.076617
-0.103645,0.076617
-0.095375,0.076617
-0.087151,0.076617
-0.082878,0.076617
-0.074791,0.000000
-0.066521,0.000000
-0.058441,0.000000
-0.050385,0.000000
-0.045967,0.000000
-0.034012,0.000000
-0.025742,0.000000
-0.021378,0.000000
-0.013397,0.000000
-0.005272,0.000000
0.002953,0.000000
0.007256,0.000000
0.015366,0.000000
0.023628,0.000000
0.033485,0.000000
0.039894,0.000000
0.047935,0.000000
0.056175,0.000000
0.064369,0.000000
0.072639,0.000000
0.077072,0.000000
0.085022,0.000000
0.093071,0.000000
0.097404,0.000000
0.105492,0.000000
0.113792,0.000000
0.121994,0.000000
0.130089,0.000000
0.138145,0.000000
0.146233,0.000000
0.154594,0.000000
0.162705,0.000000
0.170898,0.000000
0.175156,0.000000
0.183418,0.000000
0.191460,0.000000
0.199585,0.000000
0.207611,0.000000
0.215874,0.000000
0.224129,0.000000
0.228439,0.098912
0.236511,0.098912
0.244598,0.098912
0.248940,0.098912
0.256981,0.098912
0.265068,0.098912
0.273285,0.098912
0.277634,0.098912
0.285706,0.098912
0.293770,0.098912
0.301933,0.188712
0.306145,0.188712
0.314240,0.188712
0.318581,0.188712
0.326645,0.188712
0.334885,0.188712
0.342911,0.188712
0.351051,0.279065
0.355331,0.279065
0.363388,0.279065
0.367729,0.348866
0.375870,0.348866
0.384064,0.348866
0.392113,0.439240
0.400230,0.439240
0.404518,0.439240
0.412605,0.449370
0.420685,0.449370
0.425064,0.538140
0.437103,0.538140
0.441361,0.538140
0.449425,0.538140
0.457581,0.538140
0.461830,0.627138
0.469894,0.697455
0.478012,0.697455
0.486260,0.697455
0.490639,0.786836
0.498695,0.786836
0.506744,0.786836
0.514916,0.786836
0.519135,0.876034
0.527229,0.876034
0.535492,0.876034
0.543594,0.965706
0.547882,0.965706
0.555962,0.965706
0.564049,1.036654
0.568375,1.126049
0.576485,1.126049
0.584732,1.126049
0.592850,1.215792
0.600914,1.215792
0.605179,1.316855
0.613236,1.316855
0.621346,1.387339
0.625778,1.476445
0.633942,1.476445
0.641983,1.476445
0.650063,1.565856
0.654404,1.565856
0.662445,1.636499
0.670479,1.725897
0.678612,1.815315
0.686943,1.815315
0.691238,1.886059
0.699303,1.975461
0.707413,1.975461
0.711708,1.975461
0.719765,2.065165
0.727875,2.135700
0.736145,2.135700
0.744255,2.225280
0.748543,2.225280
0.756615,2.225280
0.764755,2.326751
0.768990,2.397351
0.777084,2.486639
0.785355,2.486639
0.793419,2.486639
0.797760,2.646562
0.805824,2.646562
0.813904,2.646562
0.818222,2.736022
0.826355,2.806585
0.834641,2.806585
0.842682,2.807353
0.850716,2.912016
0.858849,2.982422
0.867111,2.982422
0.875320,3.071222
0.879654,3.141615
0.887711,3.230527
0.895813,3.230527
0.900101,3.230527
0.908135,3.389862
0.916306,3.389862
0.920540,3.389862
0.928558,3.549279
0.936821,3.549279
0.944962,3.549279
0.949165,3.638250
0.957253,3.638250
0.961662,3.797771
0.969635,3.797771
0.977760,3.972812
0.986015,3.972812
0.994110,3.972812
0.998428,4.131664
1.006485,4.131664
1.014595,4.131664
1.018883,4.220811
1.027008,4.291355
1.035278,4.291355
1.043320,4.380566
1.051430,4.380566
1.055725,4.380566
1.063782,4.451091
1.071884,4.540319
1.076309,4.610869
1.088326,4.610869
1.092628,4.610869
1.100632,4.700113
1.108810,4.770605
1.113129,4.770605
1.121140,4.770605
1.129211,4.841165
1.137581,4.841165
1.141792,4.841165
1.149841,4.855872
1.157928,4.855872
1.162231,5.015479
1.170425,5.015479
1.178429,5.015479
1.186668,5.015479
1.194801,5.085654
1.199059,5.085654
1.207138,5.085654
1.215279,5.085654
1.219528,5.155979
1.227684,5.155979
1.235924,5.155979
1.243988,5.173392
1.252098,5.173392
1.256439,5.173392
1.264481,5.243702
1.268791,5.243702
1.276901,5.243702
1.285149,5.243702
1.293213,5.332375
1.301292,5.332375
1.305634,5.332375
1.313675,5.332375
1.321709,5.332375
1.326118,5.332375
1.338165,5.332375
1.342445,5.332375
1.350471,5.351048
1.358681,5.351048
1.366875,5.351048
1.375038,5.353610
1.383141,5.353610
1.387535,5.353610
1.395569,5.353610
1.403671,5.441830
1.407928,5.441830
1.416145,5.441830
1.424309,5.441830
1.432373,5.441830
1.440529,5.441830
1.444855,5.441830
1.452843,5.441830
1.457191,5.441830
1.469131,5.441830
1.473549,5.441830
1.481613,5.441830
1.489754,5.511960
1.494019,5.511960
1.502090,5.511960
1.510132,5.532933
1.518318,5.532933
1.526566,5.532933
1.530869,5.532933
1.538933,5.532933
1.547035,5.532933
1.551315,5.532933
1.559364,5.532933
1.567604,5.532933
1.575844,5.532933
1.583961,5.532933
1.592041,5.620996
1.596413,5.620996
1.608398,5.620996
1.616653,5.620996
1.620934,5.620996
1.629005,5.620996
1.637268,5.620996
1.645363,5.620996
1.649658,5.691095
1.657791,5.691095
1.666084,5.691095
1.674225,5.691095
1.682304,5.691095
1.690384,5.691095
1.694679,5.691095
1.702728,5.691095
1.710854,5.691095
1.715141,5.691095
1.723244,5.602976
1.731270,5.602976
1.739555,5.602976
1.743835,5.602976
1.751869,5.672987
1.760002,5.672987
1.764282,5.672987
1.772324,5.672987
1.780418,5.672987
1.788712,5.672987
1.793045,5.584933
1.801125,5.584933
1.809181,5.584933
1.813492,5.584933
1.821602,5.584933
1.829651,5.584933
1.837914,5.584933
1.846031,5.584933
1.850334,5.584933
1.858559,5.584933
1.866730,5.584933
1.874924,5.584933
1.882980,5.584933
1.891045,5.584933
1.899193,5.584933
1.903633,5.496936
1.911652,5.496936
1.919785,5.496936
1.928009,5.496936
1.936234,5.496936
1.944321,5.426937
1.948631,5.426937
1.956863,5.426937
1.965012,5.426937
1.973091,5.426937
1.981133,5.426937
1.989395,5.426937
1.993698,5.426937
2.001770,5.426937
2.009895,5.426937
2.018135,5.426937
2.026329,5.356940
2.034424,5.356940
2.038811,5.356940
2.046822,5.356940
2.054932,5.356940
2.059219,5.356940
2.067459,5.356940
2.079399,5.356940
2.087685,5.356940
2.091888,5.356940
2.100014,5.356940
2.108238,5.356940
2.116539,5.356940
2.124580,5.356940
2.128891,5.356940
2.140930,5.356940
2.145164,5.356940
2.153229,5.356940
2.161324,5.356940
2.169571,5.356940
2.177834,5.356940
2.182121,5.356940
2.190193,5.356940
2.198303,5.356940
2.206451,5.356940
2.210762,5.356940
2.218895,5.356940
2.227135,5.356940
2.235321,5.356940
2.243385,5.356940
2.251465,5.356940
2.259689,5.356940
2.267929,5.356940
2.276085,5.356940
2.280365,5.356940
2.288559,5.356940
2.296593,5.444890
2.304695,5.444890
2.309059,5.444890
2.317291,5.444890
2.325455,5.444890
2.333519,5.449386
2.341599,5.449386
2.345955,5.449386
2.354004,5.449386
2.362045,5.431520
2.370255,5.431520
2.378555,5.431520
2.382813,5.431520
2.390869,5.431520
2.398964,5.431520
2.403252,5.431520
2.411308,5.431520
2.419441,5.431520
2.423691,5.431520
2.431740,5.431520
2.439949,5.431520
2.448090,5.431520
2.452362,5.431520
2.460472,5.501355
2.468689,5.501355
2.476990,5.501355
2.484955,5.501355
2.493141,5.589037
2.497375,5.589037
2.505455,5.519173
2.509773,5.519173
2.517868,5.519173
2.526031,5.519173
2.534081,5.519173
2.542305,5.519173
2.546616,5.519173
2.554619,5.519173
2.562775,5.606927
2.567108,5.606927
2.575081,5.606927
2.583122,5.606927
2.591522,5.606927
2.595695,5.606927
2.603752,5.606927
2.611870,5.606927
2.620125,5.606927
2.628311,5.606927
2.632652,5.606927
2.640732,5.606927
2.648804,5.606927
2.653152,5.606927
2.661171,5.606927
2.669403,5.606927
2.677635,5.606927
2.685684,5.606927
2.693764,5.606927
2.698158,5.606927
2.706352,5.606927
2.714409,5.606927
2.722488,5.606927
2.730705,5.606927
2.738945,5.519173
2.747070,5.519173
2.751305,5.519173
2.759529,5.519173
2.767784,5.519173
2.775879,5.589037
2.783936,5.589037
2.792145,5.589037
2.796425,5.589037
2.804459,5.589037
2.812569,5.589037
2.820808,5.589037
2.829041,5.589037
2.837189,5.589037
2.841499,5.589037
2.849655,5.589037
2.857803,5.589037
2.865875,5.589037
2.870209,5.589037
2.882133,5.589037
2.890442,5.589037
2.894730,5.589037
2.902962,5.589037
2.911049,5.589037
2.919273,5.589037
2.927399,5.589037
2.935471,5.589037
2.943680,5.589037
2.947899,5.589037
2.955978,5.589037
2.960304,5.589037
2.972229,5.589037
2.980598,5.589037
2.984840,5.589037
2.992882,5.589037
3.001053,5.589037
3.009239,5.589037
3.013565,5.589037
3.021629,5.589037
3.029839,5.589037
3.038078,5.589037
3.046120,5.589037
3.054276,5.589037
3.058533,5.589037
3.066620,5.589037
3.074745,5.589037
3.082825,5.589037
3.091125,5.525171
3.095390,5.525171
3.103439,5.525171
3.107765,5.525171
3.115898,5.437867
3.123871,5.437867
3.132103,5.437867
3.140335,5.437867
3.148476,5.350534
3.152748,5.350534
3.160843,5.350534
3.168953,5.350534
3.173210,5.350534
3.181351,5.193767
3.189644,5.193767
3.197670,5.193767
3.205803,5.106684
3.210091,5.106684
3.218140,4.994222
3.226212,4.837399
3.230629,4.837399
3.242668,4.837399
3.246933,4.750235
3.255005,4.776637
3.263145,4.699946
3.267433,4.699946
3.275513,4.613884
3.283585,4.528008
3.291840,4.528008
3.296165,4.528008
3.304222,4.373496
3.312302,4.373496
3.316635,4.287930
3.324669,4.202582
3.332855,4.171994
3.341042,4.171994
3.349174,4.086339
3.353500,4.017564
3.361595,4.017564
3.369659,3.932136
3.373932,3.863560
3.382050,3.778594
3.390335,3.778594
3.398392,3.710088
3.406555,3.710088
3.410812,3.710088
3.418854,3.557214
3.426933,3.557214
3.431358,3.489081
3.443375,3.489081
3.447609,3.337184
3.455666,3.337184
3.463844,3.269382
3.468079,3.269382
3.476135,3.201735
3.484215,3.201735
3.492554,3.201735
3.496841,3.051205
3.504875,3.051205
3.513008,3.051205
3.517288,2.984194
3.525345,3.004852
3.533470,2.938449
3.541702,2.938449
3.549850,2.857389
3.554115,2.857389
3.562172,2.857389
3.570313,2.791550
3.574631,2.711372
3.582695,2.711372
3.590950,2.711372
3.599014,2.566969
3.603333,2.566969
3.611404,2.566969
3.619514,2.488685
3.623795,2.424628
3.631935,2.347771
3.640175,2.347771
3.648224,2.347771
3.656319,2.271675
3.660645,2.271675
3.668724,2.209480
3.676765,2.135334
3.681152,2.135334
3.693199,2.135334
3.697502,2.062414
3.705582,2.002521
3.713692,2.002521
3.717972,1.875132
3.726028,1.875132
3.734154,1.745964
3.742409,1.745964
3.750549,1.678181
3.754822,1.678181
3.762871,1.558716
3.771019,1.558716
3.775314,1.558716
3.783401,1.497502
3.791634,1.497502
3.799782,1.497502
3.804085,1.391423
3.812119,1.391423
3.820198,1.391423
3.824509,1.339545
3.832634,1.339545
3.840881,1.339545
3.848930,1.291952
3.857025,1.291952
3.861359,1.213214
3.869423,1.213214
3.877525,1.213214
3.885582,1.179520
3.893890,1.179520
3.898170,1.179520
3.906212,1.217883
3.914360,1.217883
3.918633,1.305962
3.926682,1.271955
3.934799,1.271955
3.943085,1.271955
3.951225,1.271955
3.955505,1.271955
3.963562,1.271955
3.967873,1.265013
3.975914,1.257877
3.984085,1.257877
3.992294,1.257877
4.000389,1.257877
4.004684,1.257877
4.012764,1.257877
4.020882,1.262226
4.025185,1.262226
4.033279,1.263775
4.041573,1.263775
4.049583,1.263775
4.057755,1.263775
4.061989,1.263775
4.070091,1.263775
4.078239,1.263775
4.082504,1.263775
4.094582,1.263775
4.098824,1.269646
4.106865,1.269646
4.115059,1.269646
4.123299,1.269646
4.131485,1.338960
4.135765,1.338960
4.143875,1.338960
4.151955,1.338960
4.156265,1.338960
4.164330,1.338960
4.172508,1.338960
4.180725,1.338960
4.188805,1.338960
4.193130,1.338960
4.201172,1.338960
4.209274,1.338960
4.213554,1.338960
4.221779,1.338960
4.229965,1.338960
4.237999,1.338960
4.246201,1.338960
4.250404,1.338960
4.258453,1.338960
4.266548,1.338960
4.274704,1.338960
4.282990,1.338960
4.287239,1.338960
4.295311,1.338960
4.303459,1.338960
4.307701,1.338960
4.315735,1.338960
4.323929,1.338960
4.332161,1.338960
4.336441,1.338960
4.344604,1.338960
4.352631,1.338960
4.356918,1.338960
4.364975,1.338960
4.373192,1.338960
4.381393,1.338960
4.389488,1.338960
4.393784,1.338960
4.401855,1.338960
4.409966,1.338960
4.414223,1.338960
4.422523,1.338960
4.430618,1.338960
4.438652,1.338960
4.446815,1.338960
4.451073,1.338960
4.459145,1.338960
4.467178,1.338960
4.475395,1.338960
4.483665,1.338960
4.487915,1.338960
4.495979,1.338960
4.500320,1.338960
4.508362,1.338960
4.516411,1.338960
4.524612,1.338960
4.532845,1.338960
4.537155,1.338960
4.545212,1.338960
4.553322,1.338960
4.557701,1.338960
4.565628,1.338960
4.573845,1.338960
4.581993,1.269646
4.590141,1.269646
4.594421,1.269646
4.602478,1.269646
4.610634,1.269646
4.614853,1.269646
4.623085,1.269646
4.631271,1.269646
4.639282,1.269646
4.643661,1.269646
4.651718,1.269646
4.659790,1.269646
4.664108,1.269646
4.672325,1.269646
4.680504,1.269646
4.688599,1.269646
4.696663,1.269646
4.700958,1.269646
4.709023,1.269646
4.717049,1.180680
4.725266,1.180680
4.733559,1.180680
4.737770,1.180680
4.745865,1.180680
4.754005,1.180680
4.758255,1.180680
4.766335,1.180680
4.774582,1.180680
4.782715,1.180680
4.790855,1.180680
4.795105,1.180680
4.803169,1.180680
4.811325,1.180680
4.815605,1.180680
4.823830,1.180680
4.831909,1.180680
4.839958,1.180680
4.844345,1.180680
4.852409,1.180680
4.860550,1.180680
4.864792,1.180680
4.872993,1.180680
4.881165,1.180680
4.889214,1.180680
4.897369,1.174032
4.901672,1.174032
4.909676,1.180680
4.917770,1.180680
4.925972,1.180680
4.934273,1.180680
4.938469,1.111355
4.946571,1.111355
4.954674,1.111355
4.958969,1.111355
4.966972,1.111355
4.975174,1.111355
4.983376,1.111355
4.987671,1.111355
4.995773,1.111355
5.003868,1.111355
5.008171,1.111355
5.016174,1.022973
5.024368,1.022973
5.028572,1.022973
5.036674,1.022973
5.044868,1.022973
5.052971,1.022973
5.057373,1.022973
5.065475,1.022973
5.073669,1.022973
5.081871,1.022973
5.089874,1.022973
5.097969,1.022973
5.102371,1.022973
5.110573,1.022973
5.118568,1.022973
5.126671,1.022973
5.134972,1.022973
5.143074,0.953676
5.147469,0.953676
5.155472,0.953676
5.163773,0.953676
5.171974,0.865924
5.179970,0.865924
5.188072,0.865924
5.196373,0.865924
5.200668,0.865924
5.208672,0.865924
5.216774,0.865924
5.230370,0.865924
5.233269,0.865924
5.241371,0.865924
5.245674,0.865924
5.253769,0.865924
5.261871,0.865924
5.266075,0.865924
5.274368,0.865924
5.282570,0.855694
5.290672,0.878042
5.298676,0.878042
5.306770,0.878042
5.311272,0.878042
5.319275,0.878042
5.327370,0.878042
5.335670,0.878042
5.343872,0.878042
5.351974,0.878042
5.356171,0.878042
5.364471,0.878042
5.372673,0.878042
5.380775,0.878042
5.388771,0.878042
5.397072,0.878042
5.401276,0.878042
5.409470,0.878042
5.417473,0.878042
5.425774,0.878042
5.433975,0.878042
5.442070,0.878042
5.446373,0.878042
5.454475,0.878042
5.462570,0.878042
5.466774,0.878042
5.475075,0.878042
5.483269,0.878042
5.491470,0.878042
5.499474,0.878042
5.507568,0.878042
5.515869,0.878042
5.524071,0.878042
5.532173,0.878042
5.536469,0.878042
5.544670,0.878042
5.552773,0.878042
5.560768,0.878042
5.565170,0.878042
5.577072,0.878042
5.585472,0.878042
5.589668,0.878042
5.597771,0.878042
5.605873,0.878042
5.614075,0.878042
5.618370,0.878042
5.626472,0.878042
5.634773,0.878042
5.642975,0.878042
5.650970,0.878042
5.659073,0.878042
5.667274,0.878042
5.675575,0.878042
5.679871,0.964895
5.687874,0.964895
5.696075,0.964895
5.704170,1.033819
5.708473,1.033819
5.716576,1.033819
5.724869,1.033819
5.733070,1.033819
5.741074,1.033819
5.749275,1.033819
5.753571,1.033819
5.761574,1.033819
5.769569,1.033819
5.777771,1.033819
5.786171,1.033819
5.790474,1.033819
5.798569,1.033819
5.806572,1.033819
5.810875,1.033819
5.818970,1.033819
5.827072,1.033819
5.835373,1.033819
5.843575,1.033819
5.851669,1.033819
5.855972,1.033819
5.864174,1.033819
5.876274,1.033819
5.880470,1.033819
5.888573,1.033819
5.896774,1.033819
5.904869,1.033819
5.909172,1.014714
5.917274,1.014714
5.925575,1.014714
5.933670,1.014714
5.941772,1.014714
5.949974,1.014714
5.954170,1.014714
5.962273,1.014714
5.966774,1.014714
5.974770,1.014714
5.986771,1.014714
5.991173,1.014714
5.999168,1.014714
6.007271,1.014714
