time,angle
-0.493141,0.098912
-0.485085,0.098912
-0.476990,0.098912
-0.472694,0.098912
-0.464630,0.092787
-0.456612,0.092787
-0.452141,0.092787
-0.440125,0.092787
-0.435844,0.092787
-0.427811,0.092787
-0.419678,0.092787
-0.411385,0.092787
-0.403206,0.145370
-0.395126,0.145370
-0.390785,0.096913
-0.382752,0.096913
-0.374611,0.096913
-0.370361,0.096913
-0.362305,0.096913
-0.357971,0.096913
-0.349907,0.096913
-0.341675,0.096913
-0.333618,0.153233
-0.329269,0.153233
-0.321159,0.153233
-0.313156,0.100871
-0.308800,0.100871
-0.300690,0.100871
-0.292450,0.100871
-0.284317,0.131221
-0.276299,0.131221
-0.272011,0.131221
-0.263931,0.149353
-0.255837,0.149353
-0.251480,0.149353
-0.239441,0.149353
-0.235169,0.226419
-0.227127,0.226419
-0.218971,0.226419
-0.214706,0.154505
-0.206581,0.154505
-0.198517,0.154505
-0.190201,0.154505
-0.182106,0.154505
-0.177841,0.308377
-0.169800,0.308377
-0.161629,0.308377
-0.157394,0.308377
-0.149284,0.308377
-0.141022,0.308377
-0.132935,0.308377
-0.128632,0.308377
-0.120560,0.308377
-0.112465,0.301965
-0.108147,0.301965
-0.100052,0.301965
-0.091805,0.301965
-0.083748,0.301965
-0.075615,0.386137
-0.071327,0.386137
-0.063248,0.386137
-0.055191,0.472298
-0.050835,0.472298
-0.038765,0.472298
-0.034508,0.472298
-0.026466,0.472298
-0.018341,0.472298
-0.010078,0.472298
-0.001884,0.472298
0.002441,0.472298
0.010559,0.472298
0.018608,0.472298
0.026764,0.472298
0.030998,0.472298
0.039223,0.472298
0.047485,0.472298
0.055611,0.472298
0.063644,0.472298
0.071762,0.472298
0.080002,0.463516
0.088219,0.463516
0.092468,0.463516
0.100609,0.386137
0.108872,0.386137
0.116921,0.386137
0.125023,0.386137
0.129395,0.386137
0.141335,0.386137
0.149651,0.386137
0.153870,0.386137
0.161972,0.463516
0.170136,0.463516
0.174385,0.463516
0.182411,0.463516
0.190628,0.463516
0.198898,0.463516
0.207001,0.463516
0.211289,0.463516
0.219322,0.463516
0.227455,0.472298
0.231712,0.556023
0.239845,0.556023
0.260315,0.556023
0.260544,0.556023
0.260658,0.548226
0.268524,0.548226
0.276634,0.548226
0.280899,0.628696
0.288963,0.628696
0.297104,0.628696
0.301369,0.628696
0.309586,0.628696
0.317642,0.643462
0.325798,0.643462
0.330071,0.643462
0.338104,0.643462
0.346199,0.665585
0.350525,0.665585
0.358795,0.665585
0.366821,0.699695
0.374908,0.699695
0.379234,0.699695
0.387299,0.699695
0.395371,0.776069
0.399803,0.743095
0.411789,0.743095
0.416061,0.791053
0.424118,0.791053
0.432282,0.791053
0.436539,0.791053
0.444618,0.839301
0.452835,0.897221
0.460983,0.897221
0.469185,0.897221
0.473373,0.897221
0.481445,0.897221
0.489601,0.897221
0.493835,0.953676
0.501968,1.068628
0.510201,1.068628
0.518295,1.068628
0.522583,1.068628
0.530655,1.068628
0.538773,1.068628
0.543045,1.068628
0.551163,1.068628
0.559433,1.068628
0.567505,1.068628
0.575600,1.194685
0.579880,1.194685
0.587929,1.246312
0.596008,1.246312
0.600395,1.246312
0.612473,1.246312
0.616715,1.375012
0.624779,1.375012
0.632965,1.375012
0.637199,1.375012
0.645302,1.375012
0.653343,1.444420
0.661621,1.444420
0.665962,1.509995
0.674034,1.509995
0.682098,1.509995
0.686462,1.582143
0.694473,1.649838
0.702583,1.649838
0.710861,1.649838
0.718941,1.761587
0.723244,1.829811
0.731316,1.829811
0.739441,1.829811
0.743774,1.903926
0.751808,1.973677
0.760094,1.973677
0.768143,1.973677
0.776291,2.049086
0.780571,2.049086
0.788643,2.049086
0.796753,2.049086
0.801094,2.120249
0.813164,2.120249
0.817360,2.120249
0.825432,2.196776
0.829781,2.196776
0.837845,2.196776
0.845902,2.268916
0.854042,2.300272
0.862320,2.300272
0.866615,2.300272
0.874649,2.376770
0.882790,2.376770
0.887116,2.376770
0.895111,2.376770
0.903259,2.448885
0.911491,2.448885
0.919632,2.448885
0.923889,2.525922
0.932015,2.525922
0.936272,2.525922
0.944328,2.525922
0.952454,2.599023
0.960732,2.599023
0.968819,2.599023
0.973114,2.676714
0.981194,2.676714
0.989288,2.676714
0.993599,2.676714
1.001755,2.750508
1.010056,2.750508
1.018074,2.828747
1.026169,2.828747
1.030449,2.828747
1.038521,2.828747
1.046585,2.903197
1.050964,2.903197
1.063011,2.903197
1.067299,2.903197
1.075302,2.903197
1.083443,2.981700
1.091705,2.981700
1.099884,2.981700
1.108009,2.981700
1.112350,2.981700
1.120392,2.981700
1.128532,3.056846
1.132843,3.056846
1.140823,3.056846
1.149025,3.056846
1.153252,3.135752
1.161469,3.135752
1.169533,3.135752
1.177658,3.135752
1.181923,3.135752
1.190002,3.135752
1.194321,3.135752
1.202415,3.211320
1.210678,3.211320
1.218689,3.211320
1.226822,3.290452
1.231133,3.290452
1.239189,3.290452
1.247253,3.290452
1.251625,3.366565
1.263672,3.366565
1.267944,3.445942
1.275978,3.468595
1.284149,3.468595
1.288429,3.468595
1.296440,3.544587
1.304573,3.623636
1.312859,3.623636
1.317192,3.623636
1.325233,3.623636
1.333328,3.623636
1.337631,3.700046
1.345695,3.779320
1.353828,3.779320
1.362083,3.779320
1.370209,3.779320
1.374489,3.856052
1.382545,3.856052
1.390671,3.935471
1.394936,3.935471
1.403084,3.935471
1.411385,3.935471
1.419365,3.992284
1.427490,4.072224
1.431839,4.072224
1.439835,4.072224
1.447952,4.149967
1.452423,4.229988
1.464401,4.229988
1.468704,4.229988
1.476692,4.229988
1.484863,4.308026
1.489120,4.308026
1.497139,4.290898
1.505249,4.290898
1.513550,4.290898
1.517845,4.290898
1.525970,4.290898
1.534019,4.290898
1.538269,4.290898
1.546318,4.275305
1.554459,4.275305
1.562691,4.275305
1.570869,4.275305
1.575089,4.355996
1.583168,4.355996
1.587502,4.355996
1.595535,4.355996
1.603668,4.355996
1.611938,4.355996
1.620049,4.434824
1.624329,4.449462
1.632385,4.449462
1.640495,4.449462
1.644760,4.529867
1.652908,4.546010
1.661179,4.546010
1.669235,4.546010
1.677368,4.546010
1.681641,4.546010
1.689705,4.546010
1.697784,4.562998
1.702194,4.562998
1.714249,4.562998
1.718491,4.582018
1.726540,4.660015
1.734695,4.660015
1.738945,4.660015
1.746979,4.679270
1.755135,4.700738
1.763382,4.700738
1.767731,4.700738
1.775841,4.779548
1.783875,4.779548
1.788223,4.779548
1.796242,4.779548
1.804375,4.800896
1.812630,4.800896
1.820724,4.878211
1.825020,4.878211
1.833099,4.878211
1.841179,4.878211
1.845505,4.956696
1.853622,4.956696
1.861855,4.956696
1.869972,5.034310
1.878029,5.034310
1.882309,5.034310
1.890381,5.112895
1.898468,5.135227
1.902885,5.135227
1.914909,5.135227
1.919159,5.212783
1.927269,5.212783
1.935394,5.291095
1.939651,5.291095
1.947708,5.291095
1.955818,5.291095
1.964081,5.291095
1.968414,5.291095
1.976479,5.291095
1.984550,5.291095
1.988914,5.368961
1.996933,5.368961
2.005051,5.368961
2.013283,5.368961
2.021408,5.368961
2.025749,5.390343
2.033798,5.390343
2.041893,5.468412
2.046143,5.468412
2.054283,5.468412
2.062523,5.468412
2.070595,5.468412
2.074905,5.468412
2.082985,5.468412
2.091042,5.546270
2.095375,5.546270
2.103500,5.624342
2.111778,5.624342
2.119850,5.624342
2.127884,5.624342
2.132263,5.624342
2.140289,5.624342
2.148338,5.702518
2.156464,5.702518
2.164795,5.702518
2.169075,5.702518
2.177132,5.759766
2.185234,5.759766
2.189560,5.759766
2.197624,5.759766
2.205688,5.838417
2.213951,5.838417
2.222099,5.838417
2.226318,5.838417
2.234421,5.838417
2.242561,5.857957
2.246819,5.857957
2.254921,5.857957
2.263161,5.857957
2.271255,5.857957
2.275574,5.857957
2.283646,5.857957
2.291779,5.838417
2.296021,5.916920
2.304153,5.916920
2.312431,5.916920
2.320473,5.995838
2.328560,5.995838
2.332870,5.995838
2.340919,5.995838
2.348999,5.995838
2.353378,5.995838
2.365471,5.995838
2.369789,5.995838
2.377815,5.995838
2.385895,5.995838
2.394135,5.995838
2.402328,5.995838
2.406769,5.995838
2.414764,5.995838
2.422829,5.995838
2.427155,5.995838
2.435188,5.995838
2.443520,5.995838
2.451691,5.995838
2.459671,5.995838
2.464005,5.976812
2.472069,5.976812
2.480141,5.976812
2.484428,5.976812
2.492653,5.976812
2.504761,6.055633
2.508919,6.055633
2.517014,6.134978
2.521355,6.134978
2.529373,6.134978
2.537422,6.134978
2.545624,6.134978
2.553864,6.134978
2.558144,6.134978
2.566216,6.134978
2.574326,6.134978
2.578613,6.134978
2.586662,6.134978
2.594795,6.134978
2.599075,6.134978
2.607101,6.134978
2.615341,6.134978
2.623482,6.213723
2.627708,6.213723
2.635834,6.213723
2.644073,6.213723
2.652184,6.213723
2.660255,6.197295
2.664665,6.277104
2.672699,6.277104
2.680824,6.277104
2.685089,6.277104
2.693130,6.277104
2.701279,6.277104
2.705544,6.277104
2.713799,6.277104
2.721825,6.277104
2.729935,6.277104
2.734215,6.277104
2.742271,6.356009
2.746613,6.340937
2.754730,6.340937
2.766823,6.340937
2.771065,6.340937
2.779129,6.340937
2.783455,6.340937
2.791542,6.261750
2.799568,6.326728
2.807663,6.326728
2.816002,6.326728
2.820320,6.247362
2.828308,6.247362
2.836464,6.247362
2.840698,6.247362
2.848785,6.247362
2.856895,6.247362
2.865189,6.247362
2.869469,6.233884
2.877533,6.233884
2.885658,6.313388
2.893906,6.313388
2.902054,6.313388
2.910103,6.313388
2.914513,6.393901
2.922653,6.393901
2.930664,6.473326
2.935005,6.473326
2.943100,6.473326
2.951118,6.473326
2.955673,6.473326
2.963684,6.473326
2.971725,6.473326
2.979805,6.473326
2.984131,6.473326
2.992172,6.473326
3.000275,6.473326
3.004623,6.553977
3.016663,6.553977
3.020935,6.486339
3.028969,6.486339
3.037155,6.486339
3.041382,6.566831
3.049438,6.553558
3.057571,6.566264
3.065842,6.566264
3.073990,6.566264
3.078239,6.566264
3.086342,6.566264
3.090645,6.566264
3.098679,6.579897
3.106789,6.565785
3.115044,6.565785
3.123161,6.565785
3.127449,6.565785
3.135513,6.565785
3.143654,6.579301
3.147919,6.579301
3.156105,6.565278
3.164322,6.565278
3.172348,6.565278
3.180473,6.565278
3.184830,6.565278
3.192825,6.485402
3.200935,6.485402
3.205315,6.404932
3.217354,6.404932
3.221649,6.325551
3.229675,6.245258
3.237854,6.245258
3.242119,6.165229
3.250145,6.085117
3.258438,6.005638
3.266533,6.005638
3.270859,5.846100
3.278885,5.766398
3.287041,5.766398
3.291306,5.686789
3.299355,5.607207
3.307465,5.527582
3.315689,5.527582
3.323830,5.448236
3.328110,5.368596
3.336235,5.368596
3.344322,5.209737
3.348572,5.209737
3.356705,5.130799
3.365005,5.130799
3.373070,5.051173
3.377396,4.972363
3.385422,4.972363
3.393494,4.892768
3.397903,4.892768
3.406075,4.753780
3.414200,4.753780
3.422249,4.753780
3.430374,4.675836
3.434685,4.675836
3.442749,4.596573
3.450829,4.596573
3.458893,4.439723
3.467255,4.439723
3.471512,4.461771
3.479553,4.384767
3.487694,4.384767
3.491989,4.306116
3.500092,4.229526
3.508141,4.151005
3.516403,4.151005
3.524529,4.074772
3.528831,4.022679
3.536919,4.022679
3.545013,3.947345
3.549271,3.869789
3.557373,3.746170
3.565643,3.746170
3.573692,3.672372
3.578049,3.596136
3.586105,3.556608
3.594170,3.556608
3.598503,3.481609
3.606606,3.335483
3.614861,3.335483
3.622925,3.264468
3.631073,3.190894
3.635323,3.190894
3.643379,3.161245
3.651428,3.089335
3.655899,2.950483
3.667900,2.950483
3.672119,2.842278
3.680168,2.817306
3.688362,2.817306
3.692589,2.684090
3.700645,2.620549
3.708763,2.554126
3.717049,2.554126
3.721382,2.496224
3.729439,2.432043
3.737541,2.432043
3.741859,2.372731
3.749908,2.313507
3.758072,2.199537
3.766312,2.199537
3.774384,2.145757
3.778709,2.105614
3.786880,1.993116
3.794861,1.993116
3.799210,1.946821
3.807289,1.930670
3.815544,1.930670
3.823601,1.890309
3.831711,1.785641
3.836052,1.719194
3.844185,1.719194
3.852173,1.798092
3.856575,1.672925
3.868599,1.672925
3.872864,1.672925
3.880928,1.634465
3.889084,1.641871
3.893349,1.641871
3.901405,1.641871
3.909500,1.618946
3.917786,1.618946
3.925911,1.542435
3.930168,1.542435
3.938255,1.542435
3.946388,1.542435
3.950653,1.465536
3.958801,1.544717
3.966995,1.544717
3.975082,1.544717
3.979385,1.467805
3.987473,1.467805
3.995544,1.467805
3.999870,1.467805
4.007950,1.467805
4.016205,1.467805
4.024269,1.467805
4.032402,1.467805
4.036690,1.552426
4.044815,1.552426
4.052864,1.475650
4.057228,1.475650
4.069260,1.475650
4.073502,1.475650
4.081543,1.475650
4.089699,1.475650
4.097923,1.475650
4.106140,1.389312
4.110443,1.389312
4.118515,1.466337
4.126625,1.466337
4.130928,1.466337
4.138985,1.466337
4.147095,1.466337
4.151375,1.466337
4.159424,1.381260
4.167641,1.381260
4.175774,1.381260
4.180023,1.381260
4.188095,1.381260
4.196259,1.381260
4.200470,1.381260
4.208595,1.384656
4.216835,1.384656
4.224915,1.384656
4.229225,1.384656
4.237289,1.384656
4.245399,1.384656
4.249672,1.384656
4.257835,1.384656
4.266090,1.384656
4.274109,1.384656
4.282188,1.384656
4.290298,1.384656
4.298561,1.384656
4.306808,1.376861
4.311089,1.373304
4.319199,1.296488
4.327293,1.296488
4.331573,1.296488
4.339615,1.296488
4.347771,1.296488
4.352036,1.221573
4.360085,1.228123
4.368332,1.228123
4.376495,1.228123
4.380722,1.228123
4.388885,1.151651
4.396935,1.151651
4.401192,1.151651
4.409355,1.151651
4.417511,1.151651
4.425598,1.151651
4.429932,1.151651
4.438065,1.235747
4.446365,1.235747
4.454491,1.235747
4.462509,1.235747
4.470673,1.235747
4.474983,1.235747
4.483009,1.235747
4.491074,1.235747
4.499260,1.235747
4.507523,1.312241
4.511841,1.312241
4.519844,1.312241
4.527985,1.312241
4.532242,1.228123
4.540276,1.221573
4.544609,1.221573
4.552689,1.221573
4.560768,1.219489
4.568985,1.219489
4.573296,1.219489
4.581345,1.296488
4.589485,1.296488
4.593719,1.296488
4.601875,1.296488
4.609901,1.296488
4.618141,1.296488
4.626274,1.211439
4.630539,1.148247
4.638596,1.148247
4.642921,1.148247
4.650963,1.148247
4.659103,1.148247
4.667381,1.148247
4.675468,1.148247
4.679855,1.064408
4.687828,1.064408
4.695915,1.064408
4.700249,0.988734
4.708389,0.988734
4.716614,0.988734
4.724670,0.988734
4.732780,0.988734
4.737068,0.988734
4.745132,0.988734
4.753189,0.988734
4.757759,0.988734
4.769630,0.988734
4.773895,0.988734
4.781960,0.988734
4.790115,0.988734
4.798363,0.988734
4.806503,0.988734
4.810860,0.900703
4.818985,0.900703
4.827019,0.900703
4.835175,0.900703
4.839401,0.900703
4.847473,0.900703
4.851891,0.900703
4.859848,0.900703
4.868080,0.900703
4.876152,0.900703
4.880463,0.900703
4.888611,0.824245
4.896858,0.824245
4.904968,0.824245
4.913002,0.824245
4.921204,0.824245
4.925453,0.824245
4.933556,0.824245
4.941650,0.824245
4.945953,0.824245
4.953949,0.824245
4.962051,0.837901
4.970352,0.837901
4.974548,0.921324
4.982651,0.846035
4.990852,0.846035
4.995049,0.846035
5.003151,0.846035
5.011253,0.846035
5.019554,0.846035
5.027649,0.846035
5.031853,0.793276
5.039955,0.793276
5.044250,0.793276
5.052353,0.824720
5.060455,0.824720
5.068748,0.824720
5.076851,0.859801
5.081154,0.794015
5.089149,0.794015
5.097252,0.842094
5.101654,0.911716
5.109749,0.911716
5.117950,0.911716
5.126053,0.956953
5.134155,0.956953
5.138451,0.956953
5.146454,0.956953
5.154549,0.956953
5.158951,0.956953
5.171051,0.956953
5.175255,0.890654
5.183250,0.890654
5.187752,0.890654
5.195648,0.890654
5.203751,0.949563
5.211853,0.949563
5.220154,0.949563
5.224449,0.949563
5.232552,0.949563
5.240654,0.949563
5.244949,0.834625
5.253052,0.834625
5.261154,0.834625
5.269348,0.834625
5.277550,0.834625
5.281754,0.826852
5.289848,0.826852
5.298050,0.826852
5.302254,0.826852
5.310349,0.826852
5.318649,0.826852
5.326653,0.739928
5.330956,0.665585
5.339050,0.665585
5.347153,0.732219
5.351448,0.732219
5.359550,0.732219
5.367851,0.732219
5.375954,0.732219
5.383949,0.657599
5.388351,0.657599
5.396355,0.657599
5.404449,0.657599
5.408951,0.621181
5.420853,0.621181
5.425156,0.590829
5.433151,0.590829
5.441353,0.590829
5.445648,0.590829
5.453751,0.590829
5.461754,0.590829
5.470055,0.590829
5.488052,0.590829
5.488251,0.590829
5.490555,0.590829
5.498650,0.509757
5.502853,0.439240
5.511055,0.439240
5.519348,0.439240
5.527351,0.518133
5.531654,0.518133
5.539848,0.518133
5.548050,0.518133
5.556252,0.518133
5.564255,0.518133
5.572449,0.496140
5.576752,0.496140
5.584854,0.496140
5.592751,0.496140
5.601051,0.496140
5.609352,0.496140
5.613548,0.496140
5.621651,0.496140
5.629753,0.496140
5.637955,0.496140
5.642151,0.496140
5.650352,0.421044
5.658554,0.421044
5.666855,0.496140
5.674850,0.496140
5.682953,0.486985
5.691154,0.486985
5.699348,0.486985
5.703751,0.410216
5.711754,0.410216
5.719955,0.410216
5.728050,0.410216
5.732353,0.410216
5.740456,0.410216
5.748749,0.410216
5.756950,0.410216
5.764954,0.410216
5.773155,0.410216
5.777451,0.410216
5.785454,0.410216
5.793449,0.410216
5.801750,0.410216
5.809952,0.410216
5.814255,0.325057
5.822350,0.325057
5.830452,0.325057
5.838654,0.325057
5.846748,0.325057
5.851051,0.325057
5.859253,0.325057
5.867455,0.325057
5.875549,0.325057
5.883553,0.325057
5.891853,0.325057
5.900055,0.325057
5.904350,0.239848
5.912354,0.239848
5.920654,0.239848
5.928749,0.239848
5.933052,0.239848
5.941154,0.239848
5.949348,0.239848
5.957649,0.239848
5.965652,0.239848
5.973755,0.250229
5.978050,0.250229
5.986153,0.356083
5.994255,0.356083
5.998451,0.356083
6.006554,0.356083
