time,angle
-0.492302,0.000000
-0.484001,0.000000
-0.479698,0.000000
-0.471703,0.000000
-0.463501,0.000000
-0.455200,0.000000
-0.447098,0.000000
-0.442802,0.000000
-0.434601,0.000000
-0.422699,0.000000
-0.414398,0.000000
-0.410103,0.000000
-0.402000,0.000000
-0.393898,0.000000
-0.389603,0.000000
-0.381599,0.000000
-0.373299,0.000000
-0.365105,0.000000
-0.357002,0.000000
-0.348900,0.000000
-0.344498,0.000000
-0.332504,0.000000
-0.324303,0.000000
-0.319901,0.000000
-0.311897,0.000000
-0.303604,0.000000
-0.295601,0.000000
-0.291298,0.000000
-0.283104,0.000000
-0.274902,0.000000
-0.266701,0.000000
-0.258598,0.000000
-0.250603,0.000000
-0.242401,0.000000
-0.237999,0.000000
-0.229904,0.000000
-0.221802,0.000000
-0.213501,0.000000
-0.205299,0.000000
-0.197304,0.000000
-0.193001,0.000000
-0.184799,0.000000
-0.172798,0.000000
-0.168404,0.000000
-0.160301,0.000000
-0.152199,0.000000
-0.143997,0.000000
-0.139801,0.000000
-0.131599,0.000000
-0.123398,0.000000
-0.115204,0.000000
-0.107101,0.000000
-0.099098,0.000000
-0.094704,0.000000
-0.086502,0.000000
-0.078400,0.000000
-0.070297,0.000000
-0.062103,0.000000
-0.053902,0.000000
-0.045799,0.000000
-0.041504,0.000000
-0.033302,0.000000
-0.024902,0.000000
-0.016899,0.000000
-0.008804,0.000000
-0.000603,0.000000
0.003700,0.000000
0.011696,0.000000
0.019798,0.000000
0.028000,0.000000
0.036201,0.000000
0.044395,0.000000
0.048798,0.000000
0.056900,0.000000
0.065201,0.000000
0.073196,0.000000
0.081200,0.000000
0.089401,0.000000
0.097603,0.000000
0.105797,0.000000
0.110100,0.000000
0.118202,0.000000
0.126396,0.000000
0.134697,0.000000
0.142700,0.000000
0.150803,0.000000
0.155197,0.000000
0.163300,0.000000
0.171303,0.000000
0.179497,0.000000
0.187798,0.000000
0.195999,0.000000
0.204102,0.000000
0.208397,0.000000
0.216599,0.000000
0.228600,0.000000
0.233002,0.000000
0.240997,0.000000
0.249199,0.000000
0.257401,0.000000
0.261597,0.000000
0.269699,0.000000
0.278000,0.000000
0.286202,0.000000
0.294197,0.000000
0.302399,0.000000
0.306603,0.000000
0.314697,0.074019
0.319000,0.074019
0.327103,0.074019
0.335396,0.160713
0.343498,0.160713
0.351502,0.160713
0.355896,0.160713
0.363998,0.160713
0.372002,0.160713
0.380096,0.160713
0.388397,0.247872
0.396599,0.323247
0.400902,0.323247
0.408997,0.323247
0.417099,0.323247
0.421402,0.323247
0.429398,0.323247
0.437698,0.323247
0.445900,0.409261
0.453896,0.409261
0.458298,0.409261
0.466301,0.409261
0.474396,0.409261
0.478699,0.496140
0.486900,0.496140
0.495102,0.496140
0.503197,0.496140
0.511299,0.496140
0.515602,0.496140
0.523598,0.582827
0.531700,0.582827
0.539902,0.582827
0.548096,0.589503
0.552399,0.675796
0.560501,0.675796
0.568596,0.675796
0.572899,0.675796
0.580902,0.761562
0.589096,0.761562
0.597298,0.761562
0.601601,0.922173
0.609695,0.922173
0.617798,0.922173
0.622200,1.008525
0.630196,1.008525
0.638298,1.008525
0.646500,1.104113
0.650803,1.189761
0.658798,1.189761
0.666901,1.189761
0.671196,1.349732
0.679298,1.349732
0.687500,1.349732
0.695602,1.447938
0.699898,1.533401
0.708000,1.533401
0.715996,1.607178
0.720299,1.707315
0.728500,1.707315
0.736702,1.792532
0.744698,1.877740
0.749100,1.951439
0.757095,1.951439
0.765198,2.036920
0.769501,2.136433
0.777596,2.136433
0.785698,2.209834
0.790001,2.295161
0.798203,2.295161
0.806198,2.397024
0.814301,2.397024
0.818596,2.555276
0.826698,2.555276
0.834801,2.640268
0.839096,2.725485
0.851196,2.725485
0.855499,2.813621
0.863503,2.898608
0.867897,2.898608
0.875900,2.983603
0.883896,3.159759
0.892098,3.159759
0.900398,3.159759
0.904701,3.244617
0.912796,3.329608
0.920898,3.329608
0.925102,3.402890
0.933197,3.488014
0.941299,3.587578
0.949600,3.587578
0.957802,3.607281
0.961998,3.691835
0.970001,3.691835
0.978203,3.849343
0.982399,3.849343
0.990601,3.934127
0.998901,3.934127
1.006897,4.018880
1.011200,4.038906
1.019302,4.038906
1.032997,4.140045
1.033096,4.224336
1.039803,4.224336
1.048096,4.224336
1.056099,4.308708
1.064201,4.308708
1.068596,4.308708
1.076500,4.393201
1.084602,4.571833
1.088997,4.571833
1.101097,4.571833
1.105400,4.656188
1.113396,4.673070
1.121498,4.673070
1.125801,4.757117
1.133797,4.757117
1.141998,4.841286
1.150200,4.841286
1.158401,4.948507
1.162598,4.948507
1.170700,4.948507
1.174995,5.032520
1.183098,5.032520
1.191200,5.116612
1.199501,5.116612
1.207596,5.116612
1.211899,5.200779
1.220001,5.200779
1.227997,5.217780
1.232300,5.301713
1.240402,5.301713
1.248695,5.301713
1.256699,5.385651
1.264900,5.481871
1.269196,5.481871
1.277199,5.565776
1.285301,5.649723
1.289803,5.649723
1.297897,5.649723
1.306000,5.733640
1.313995,5.733640
1.318398,5.733640
1.326401,5.817733
1.334496,5.901861
1.342598,5.901861
1.350899,5.901861
1.355202,6.009749
1.363197,6.082056
1.371399,6.082056
1.375603,6.182630
1.383698,6.182630
1.391899,6.266476
1.400101,6.266476
1.408195,6.266476
1.412498,6.350423
1.420502,6.350423
1.428696,6.350423
1.432999,6.350423
1.441101,6.362052
1.449303,6.362052
1.457397,6.362052
1.461700,6.446006
1.469803,6.446006
1.477898,6.446006
1.482201,6.446006
1.490402,6.529997
1.502396,6.529997
1.506699,6.457647
1.514702,6.457647
1.523102,6.457647
1.527100,6.541609
1.535202,6.541609
1.543297,6.469296
1.551598,6.469296
1.555901,6.469296
1.563995,6.553259
1.572098,6.553259
1.576401,6.553259
1.584496,6.577841
1.592598,6.661648
1.600800,6.661648
1.608902,6.661648
1.613197,6.661648
1.621300,6.661648
1.629402,6.589457
1.633698,6.589457
1.641800,6.589457
1.650101,6.589457
1.658096,6.589457
1.666199,6.589457
1.670601,6.606458
1.682503,6.606458
1.690796,6.689997
1.695099,6.689997
1.703201,6.689997
1.711296,6.689997
1.715500,6.689997
1.723602,6.689997
1.727997,6.689997
1.736000,6.689997
1.743996,6.761961
1.752296,6.761961
1.756599,6.788101
1.764702,6.788101
1.772797,6.788101
1.777100,6.788101
1.785103,6.871525
1.793198,6.871525
1.801498,6.871525
1.809601,6.871525
1.813896,6.871525
1.821999,6.871525
1.830299,6.871525
1.838402,6.871525
1.846497,6.799706
1.854698,6.799706
1.858902,6.799706
1.866997,6.799706
1.871300,6.883161
1.879402,6.883161
1.887497,6.883161
1.891800,6.883161
1.900002,6.883161
1.907997,6.910123
1.916100,6.910123
1.920403,6.928690
1.928497,6.928690
1.936501,6.928690
1.944702,6.857410
1.952995,6.857410
1.957298,6.857410
1.965302,6.857410
1.973495,6.857410
1.981697,6.857410
1.989899,6.857410
1.998100,6.940288
2.002296,6.940288
2.010399,6.940288
2.018501,6.940288
2.022797,6.940288
2.030800,6.940288
2.035202,6.940288
2.043297,6.969197
2.051399,6.969197
2.059601,6.969197
2.063797,6.969197
2.071899,7.060109
2.079903,7.060109
2.084297,7.060109
2.092400,7.060109
2.100601,7.060109
2.108696,7.142596
2.116798,7.142596
2.121101,7.142596
2.129196,7.142596
2.137199,7.142596
2.141602,7.172800
2.153603,7.172800
2.157898,7.172800
2.166000,7.172800
2.174103,7.172800
2.178398,7.172800
2.186401,7.255121
2.194496,7.255121
2.202797,7.255121
2.207199,7.275780
2.215202,7.275780
2.223297,7.275780
2.227600,7.275780
2.235703,7.275780
2.243797,7.307503
2.252098,7.307503
2.260101,7.389394
2.264496,7.389394
2.272499,7.389394
2.280602,7.319066
2.284897,7.319066
2.292999,7.319066
2.301300,7.319066
2.309296,7.319066
2.317497,7.400936
2.321800,7.400936
2.329903,7.400936
2.337898,7.400936
2.342300,7.400936
2.354301,7.400936
2.358597,7.400936
2.366600,7.400936
2.374802,7.400936
2.379097,7.400936
2.387100,7.400936
2.395203,7.400936
2.403496,7.400936
2.407799,7.330665
2.415901,7.330665
2.423996,7.330665
2.432297,7.330665
2.440498,7.330665
2.448502,7.330665
2.452896,7.330665
2.460999,7.330665
2.469200,7.330665
2.477196,7.330665
2.485298,7.330665
2.493599,7.330665
2.501801,7.330665
2.506096,7.330665
2.514198,7.330665
2.522400,7.330665
2.530701,7.330665
2.538795,7.330665
2.546799,7.330665
2.555000,7.330665
2.559296,7.330665
2.567398,7.330665
2.575500,7.330665
2.583702,7.330665
2.592003,7.330665
2.600098,7.330665
2.604301,7.330665
2.612396,7.330665
2.620598,7.330665
2.624901,7.330665
2.632996,7.330665
2.641296,7.330665
2.649498,7.330665
2.657501,7.330665
2.665596,7.330665
2.673798,7.330665
2.681999,7.330665
2.690201,7.330665
2.694397,7.330665
2.702698,7.330665
2.710701,7.330665
2.718796,7.330665
2.723198,7.330665
2.731400,7.330665
2.743401,7.330665
2.747696,7.330665
2.755699,7.330665
2.763802,7.330665
2.768196,7.330665
2.776299,7.330665
2.784401,7.330665
2.792702,7.330665
2.800896,7.330665
2.808998,7.330665
2.813301,7.330665
2.825195,7.330665
2.833496,7.330665
2.837799,7.330665
2.845901,7.330665
2.854095,7.330665
2.862198,7.330665
2.866501,7.248899
2.874596,7.248899
2.882797,7.248899
2.891098,7.248899
2.899101,7.248899
2.907303,7.248899
2.911499,7.248899
2.919601,7.248899
2.927597,7.248899
2.935799,7.248899
2.944099,7.248899
2.952301,7.248899
2.956696,7.248899
2.964699,7.248899
2.973099,7.248899
2.981201,7.248899
2.989197,7.248899
2.997299,7.248899
3.005600,7.248899
3.009895,7.248899
3.017998,7.248899
3.026001,7.248899
3.034302,7.248899
3.042496,7.248899
3.050697,7.248899
3.054901,7.248899
3.063103,7.248899
3.071198,7.248899
3.079201,7.248899
3.083603,7.248899
3.095596,7.248899
3.103897,7.248899
3.108101,7.248899
3.116196,7.248899
3.124397,7.248899
3.132599,7.248899
3.140701,7.248899
3.145096,7.248899
3.153297,7.248899
3.161301,7.248899
3.169395,7.248899
3.177498,7.248899
3.185699,7.248899
3.194000,7.178815
3.198296,7.178815
3.206398,7.178815
3.214500,7.178815
3.218796,7.201516
3.226799,7.085349
3.234901,7.085349
3.239296,7.085349
3.247299,7.085349
3.255501,6.935708
3.263596,6.935708
3.267899,6.855350
3.276001,6.786570
3.284096,6.786570
3.288300,6.706452
3.296402,6.638026
3.304703,6.638026
3.312798,6.558195
3.317101,6.490087
3.325096,6.490087
3.333199,6.410593
3.337502,6.342792
3.345596,6.263659
3.353996,6.263659
3.362000,6.196219
3.370102,6.117473
3.374397,6.038906
3.382401,6.038906
3.390495,6.038906
3.394897,5.893951
3.406998,5.893951
3.411201,5.893951
3.419296,5.816015
3.427399,5.816015
3.431702,5.738287
3.439796,5.738287
3.447800,5.660847
3.456100,5.660847
3.460396,5.583670
3.468498,5.583670
3.476601,5.583670
3.480896,5.506731
3.488998,5.430113
3.497101,5.430113
3.505302,5.430113
3.513397,5.388670
3.517700,5.313195
3.525803,5.313195
3.533897,5.238057
3.538200,5.226597
3.546303,5.226597
3.554497,5.226597
3.562599,5.151797
3.566902,5.077364
3.574997,5.077364
3.583099,5.003315
3.587402,4.991907
3.595497,4.991907
3.603798,4.991907
3.611900,4.918287
3.620003,4.845047
3.624298,4.772206
3.632301,4.772206
3.640396,4.772206
3.648499,4.699905
3.656799,4.699905
3.661102,4.688596
3.669098,4.688596
3.677299,4.688596
3.681496,4.616728
3.689598,4.545450
3.697701,4.474615
3.706001,4.474615
3.714096,4.474615
3.718399,4.404377
3.726402,4.404377
3.730797,4.276725
3.738800,4.276725
3.747002,4.208311
3.755196,4.208311
3.763298,4.140518
3.767601,4.140518
3.775696,4.140518
3.783798,4.073474
3.788101,4.016491
3.796196,3.949230
3.804398,3.949230
3.812500,3.949230
3.820702,3.882722
3.824898,3.882722
3.833000,3.882722
3.840996,3.817057
3.845398,3.817057
3.857498,3.817057
3.861702,3.817057
3.869797,3.752228
3.877899,3.752228
3.886200,3.752228
3.894302,3.698988
3.898598,3.635935
3.906700,3.635935
3.914803,3.635935
3.919098,3.635935
3.927200,3.573798
3.935402,3.573798
3.943596,3.573798
3.951599,3.573798
3.956001,3.512682
3.964096,3.512682
3.972099,3.512682
3.976402,3.512682
3.984695,3.512682
3.992798,3.398630
4.000900,3.398630
4.009003,3.398630
4.013298,3.398630
4.021301,3.338768
4.029396,3.338768
4.037598,3.338768
4.045998,3.338768
4.050102,3.338768
4.058197,3.338768
4.066299,3.338768
4.070602,3.338768
4.078598,3.336187
4.086899,3.336187
4.095001,3.336187
4.099297,3.383619
4.107399,3.383619
4.115501,3.383619
4.119797,3.383619
4.127899,3.383619
4.136002,3.383619
4.140297,3.325960
4.148300,3.325960
4.156502,3.325960
4.164696,3.325960
4.168900,3.325960
4.177101,3.325960
4.185303,3.325960
4.193398,3.325960
4.201500,3.373304
4.209702,3.373304
4.213997,3.373304
4.222000,3.373304
4.226295,3.325960
4.238297,3.325960
4.246597,3.393615
4.250900,3.393615
4.258896,3.393615
4.266998,3.393615
4.271301,3.393615
4.279396,3.393615
4.287598,3.393615
4.295799,3.393615
4.303902,3.393615
4.312096,3.393615
4.316299,3.393615
4.324402,3.393615
4.328796,3.393615
4.336800,3.450144
4.345100,3.450144
4.353203,3.450144
4.361298,3.403638
4.369400,3.403638
4.377602,3.403638
4.385902,3.403638
4.390198,3.403638
4.398201,3.403638
4.406502,3.403638
4.414497,3.403638
4.418800,3.403638
4.427002,3.403638
4.435196,3.403638
4.443398,3.403638
4.451401,3.403638
4.459496,3.403638
4.463898,3.403638
4.472000,3.450144
4.479996,3.450144
4.488197,3.450144
4.496399,3.450144
4.500702,3.450144
4.508797,3.450144
4.516899,3.450144
4.521202,3.450144
4.529198,3.450144
4.537399,3.450144
4.545700,3.450144
4.553802,3.450144
4.558098,3.507885
4.566299,3.507885
4.574501,3.507885
4.582497,3.507885
4.590500,3.507885
4.598701,3.507885
4.607002,3.507885
4.611298,3.507885
4.619301,3.507885
4.627502,3.507885
4.635696,3.507885
4.643799,3.507885
4.648102,3.507885
4.656403,3.507885
4.664398,3.507885
4.672501,3.507885
4.676903,3.507885
4.688896,3.507885
4.693298,3.507885
4.701302,3.507885
4.709496,3.507885
4.717598,3.507885
4.721802,3.450144
4.729897,3.450144
4.738098,3.450144
4.746300,3.450144
4.754402,3.450144
4.758698,3.450144
4.766800,3.450144
4.775101,3.450144
4.783096,3.450144
4.787498,3.450144
4.799400,3.450144
4.807701,3.450144
4.811996,3.450144
4.820000,3.450144
4.828201,3.450144
4.836403,3.450144
4.844597,3.450144
4.848801,3.450144
4.857002,3.450144
4.865097,3.450144
4.873199,3.450144
4.877602,3.450144
4.889496,3.450144
4.897797,3.450144
4.902000,3.450144
4.910103,3.450144
4.918198,3.450144
4.922600,3.450144
4.930595,3.450144
4.938797,3.450144
4.947098,3.450144
4.955200,3.450144
4.963303,3.450144
4.967697,3.450144
4.979599,3.450144
4.987900,3.450144
4.992203,3.450144
5.000298,3.450144
5.008499,3.450144
5.016602,3.450144
5.020897,3.383619
5.028999,3.383619
5.037201,3.383619
5.045403,3.383619
5.053398,3.383619
5.061699,3.383619
5.065903,3.383619
5.073898,3.383619
5.078300,3.383619
5.086403,3.383619
5.098495,3.383619
5.102798,3.383619
5.110901,3.383619
5.118896,3.383619
5.123299,3.383619
5.131302,3.383619
5.139496,3.383619
5.147697,3.383619
5.155899,3.383619
5.160202,3.383619
5.168297,3.383619
5.176598,3.383619
5.184700,3.383619
5.192802,3.383619
5.200897,3.383619
5.209099,3.383619
5.217201,3.383619
5.221497,3.383619
5.229599,3.383619
5.237900,3.383619
5.246002,3.383619
5.254097,3.383619
5.262299,3.383619
5.266502,3.383619
5.274597,3.442304
5.278900,3.442304
5.287201,3.442304
5.299202,3.393788
5.303398,3.393788
5.311501,3.393788
5.315796,3.393788
5.323898,3.442304
5.331902,3.442304
5.340096,3.442304
5.348297,3.442304
5.356499,3.442304
5.360802,3.442304
5.368896,3.442304
5.377098,3.442304
5.385201,3.442304
5.389496,3.442304
5.397697,3.442304
5.409798,3.442304
5.414001,3.442304
5.421997,3.442304
5.430199,3.442304
5.438499,3.442304
5.446701,3.442304
5.454796,3.442304
5.459099,3.442304
5.467201,3.442304
5.475296,3.442304
5.479599,3.442304
5.487900,3.442304
5.496101,3.442304
5.504097,3.442304
5.512199,3.442304
5.516502,3.442304
5.524498,3.442304
5.532600,3.442304
5.540802,3.442304
5.548996,3.442304
5.557198,3.442304
5.561501,3.442304
5.569595,3.442304
5.577896,3.442304
5.586098,3.442304
5.594101,3.442304
5.602196,3.442304
5.610497,3.442304
5.614799,3.442304
5.622803,3.442304
5.630997,3.442304
5.639198,3.442304
5.647400,3.442304
5.655396,3.442304
5.659798,3.442304
5.667900,3.442304
5.676003,3.442304
5.680298,3.442304
5.688499,3.442304
5.700500,3.442304
5.704903,3.442304
5.712997,3.442304
5.721001,3.442304
5.729301,3.442304
5.737396,3.442304
5.741798,3.442304
5.749901,3.442304
5.758202,3.442304
5.766197,3.388187
5.774200,3.388187
5.782402,3.338768
5.790596,3.338768
5.798897,3.338768
5.803101,3.338768
5.811195,3.280143
5.819298,3.280143
5.823601,3.280143
5.831696,3.280143
5.839897,3.280143
5.848099,3.280143
5.856201,3.280143
5.860497,3.280143
5.868599,3.280143
5.876701,3.280143
5.880997,3.280143
5.889198,3.280143
5.901199,3.280143
5.909401,3.280143
5.913696,3.280143
5.921799,3.280143
5.930000,3.280143
5.938202,3.280143
5.946297,3.280143
5.950600,3.280143
5.958801,3.280143
5.966896,3.280143
5.974899,3.280143
5.979301,3.280143
5.991302,3.280143
5.999702,3.280143
6.003899,3.280143
