time,angle
-0.494711,0.034264
-0.486441,0.034264
-0.478191,0.034264
-0.473921,0.034264
-0.465780,0.034264
-0.457722,0.034264
-0.453350,0.034264
-0.445320,0.034264
-0.437080,0.034264
-0.428881,0.034264
-0.420792,0.034264
-0.416481,0.034264
-0.408470,0.034264
-0.400372,0.048457
-0.395931,0.048457
-0.387840,0.048457
-0.375860,0.048457
-0.367601,0.048457
-0.363380,0.048457
-0.355261,0.048457
-0.346960,0.048457
-0.338810,0.048457
-0.330740,0.048457
-0.322691,0.048457
-0.314371,0.048457
-0.310091,0.048457
-0.302080,0.048457
-0.293982,0.048457
-0.285702,0.048457
-0.277500,0.048457
-0.273201,0.048457
-0.265051,0.048457
-0.257000,0.048457
-0.248861,0.076617
-0.244551,0.076617
-0.236401,0.076617
-0.228121,0.076617
-0.219961,0.076617
-0.211891,0.076617
-0.203821,0.076617
-0.195581,0.076617
-0.187382,0.076617
-0.179220,0.076617
-0.174992,0.076617
-0.166731,0.076617
-0.158720,0.076617
-0.150610,0.076617
-0.146200,0.076617
-0.134241,0.076617
-0.129810,0.076617
-0.121740,0.076617
-0.113661,0.076617
-0.105501,0.076617
-0.101252,0.076617
-0.093250,0.076617
-0.085032,0.076617
-0.076801,0.076617
-0.072481,0.076617
-0.064381,0.076617
-0.056292,0.076617
-0.052040,0.076617
-0.043982,0.076617
-0.035782,0.076617
-0.027561,0.076617
-0.019451,0.076617
-0.015141,0.076617
-0.007080,0.076617
0.001009,0.076617
0.005320,0.076617
0.013510,0.076617
0.021809,0.076617
0.029860,0.076617
0.037930,0.076617
0.046040,0.076617
0.054329,0.076617
0.062460,0.076617
0.070660,0.076617
0.074900,0.076617
0.083220,0.076617
0.091200,0.076617
0.099249,0.076617
0.103659,0.076617
0.115608,0.076617
0.123930,0.076617
0.128140,0.076617
0.136240,0.076617
0.144388,0.076617
0.148748,0.076617
0.156729,0.076617
0.164869,0.076617
0.173090,0.076617
0.181200,0.076617
0.185490,0.076617
0.193520,0.076617
0.201698,0.076617
0.205898,0.076617
0.214109,0.076617
0.222319,0.076617
0.230379,0.076617
0.238539,0.076617
0.242788,0.076617
0.250849,0.048457
0.255230,0.048457
0.263310,0.048457
0.271479,0.048457
0.279530,0.048457
0.287739,0.117034
0.292000,0.117034
0.300030,0.117034
0.308159,0.117034
0.312429,0.117034
0.320469,0.117034
0.324820,0.196832
0.336899,0.196832
0.341099,0.196832
0.349159,0.196832
0.357340,0.196832
0.361559,0.280463
0.369619,0.280463
0.377739,0.280463
0.386019,0.280463
0.390329,0.364232
0.398418,0.364232
0.406488,0.364232
0.410799,0.524887
0.418839,0.524887
0.426960,0.524887
0.435219,0.524887
0.443329,0.609093
0.447640,0.609093
0.455669,0.609093
0.463810,0.692951
0.468050,0.769994
0.476170,0.854550
0.484419,0.854550
0.492479,0.854550
0.496849,0.938786
0.504879,0.938786
0.513020,1.015871
0.517288,1.100385
0.525429,1.177527
0.533690,1.177527
0.541729,1.262226
0.549809,1.346393
0.554119,1.346393
0.562170,1.439535
0.570250,1.523285
0.574638,1.683653
0.586710,1.683653
0.590960,1.683653
0.599020,1.843981
0.607149,1.843981
0.611408,1.928032
0.619438,2.004767
0.627588,2.088722
0.635859,2.088722
0.644030,2.262005
0.648369,2.345852
0.656359,2.345852
0.664499,2.422447
0.668789,2.514661
0.676868,2.674447
0.685099,2.674447
0.693169,2.758183
0.697498,2.918194
0.705580,2.918194
0.713718,3.016945
0.717979,3.176874
0.726139,3.260447
0.734348,3.260447
0.742390,3.420622
0.750488,3.504367
0.754829,3.504367
0.762859,3.664579
0.770948,3.748365
0.775318,3.847053
0.787390,3.847053
0.791639,4.007119
0.799740,4.090841
0.807850,4.090841
0.812159,4.334857
0.820160,4.418585
0.828280,4.578939
0.836538,4.578939
0.840859,4.662746
0.848940,4.852118
0.857039,5.011922
0.865189,5.011922
0.869438,5.095392
0.877539,5.178881
0.885778,5.178881
0.893869,5.422385
0.898209,5.505949
0.906269,5.505949
0.914358,5.589493
0.918669,5.673021
0.926769,5.772954
0.935040,5.772954
0.943089,5.856418
0.951189,6.016335
0.955500,6.099854
0.963530,6.099854
0.971689,6.183296
0.976040,6.262281
0.988089,6.262281
0.992378,6.262281
1.000389,6.345944
1.008539,6.345944
1.012810,6.429620
1.020868,6.429620
1.028950,6.513279
1.037209,6.513279
1.041550,6.596923
1.049608,6.596923
1.057709,6.596923
1.062010,6.603786
1.070080,6.603786
1.078320,6.603786
1.086458,6.603786
1.094559,6.687417
1.098860,6.687417
1.106918,6.687417
1.115080,6.687417
1.119389,6.694275
1.127430,6.694275
1.135689,6.694275
1.143749,6.694275
1.151869,6.777894
1.156170,6.777894
1.164219,6.777894
1.172319,6.777894
1.176680,6.777894
1.188768,6.777894
1.192980,6.777894
1.201069,6.775319
1.209229,6.775319
1.213480,6.859012
1.221529,6.782117
1.229609,6.859012
1.237919,6.859012
1.242260,6.859012
1.250278,6.845129
1.258410,6.845129
1.262709,6.845129
1.270760,6.845129
1.278858,6.845129
1.287119,6.845129
1.295238,6.845129
1.299490,6.844670
1.307619,6.844670
1.315868,6.844670
1.324009,6.844670
1.332048,6.844670
1.336458,6.844670
1.344509,6.844670
1.352558,6.844670
1.356939,6.844670
1.368849,6.844670
1.377150,6.844670
1.381399,6.844670
1.389460,6.844670
1.393789,6.844670
1.401859,6.844670
1.409908,6.844670
1.418089,6.844670
1.426310,6.844670
1.430670,6.844670
1.438728,6.844670
1.446789,6.844670
1.451069,6.844670
1.459120,6.844670
1.467350,6.844670
1.475519,6.844670
1.483599,6.844670
1.487928,6.844670
1.495958,6.844670
1.504108,6.844670
1.508348,6.844670
1.516569,6.844670
1.524750,6.832539
1.532780,6.832539
1.537140,6.832539
1.545210,6.832539
1.553280,6.832539
1.557579,6.928521
1.565828,6.928521
1.573969,6.928521
1.582020,6.928521
1.590149,6.928521
1.594439,6.928521
1.602480,6.928521
1.610619,7.089445
1.614880,7.089445
1.622969,7.089445
1.627239,7.089445
1.639269,7.089445
1.643539,7.089445
1.651579,7.089445
1.655958,7.089445
1.663979,7.173265
1.672020,7.173265
1.680149,7.173265
1.688459,7.173265
1.692770,7.173265
1.700829,7.173265
1.708920,7.173265
1.713200,7.173265
1.721249,7.257095
1.729389,7.257095
1.737669,7.257095
1.745770,7.257095
1.750050,7.179962
1.758179,7.179962
1.766249,7.179962
1.770529,7.179962
1.778688,7.179962
1.786900,7.179962
1.794949,7.179962
1.803040,7.179962
1.807409,7.263770
1.819380,7.263770
1.823839,7.263770
1.831919,7.340882
1.840010,7.340882
1.848148,7.340882
1.852388,7.340882
1.860430,7.340882
1.868719,7.340882
1.876869,7.340882
1.881180,7.340882
1.889269,7.340882
1.897308,7.340882
1.901680,7.340882
1.909809,7.340882
1.917799,7.340882
1.922089,7.424653
1.930109,7.424653
1.938339,7.424653
1.946459,7.424653
1.950760,7.501769
1.958899,7.501769
1.967119,7.501769
1.975279,7.501769
1.983318,7.501769
1.991539,7.501769
1.995749,7.501769
2.003790,7.501769
2.008148,7.501769
2.020079,7.501769
2.024618,7.501769
2.032610,7.501769
2.040709,7.501769
2.045050,7.501769
2.053129,7.585506
2.061110,7.585506
2.069349,7.585506
2.077688,7.585506
2.081940,7.508409
2.089949,7.508409
2.098009,7.508409
2.102320,7.509795
2.110378,7.509795
2.118568,7.509795
2.126869,7.508409
2.134890,7.508409
2.139179,7.509795
2.147348,7.509795
2.155369,7.509795
2.159658,7.509795
2.167849,7.509795
2.176079,7.509795
2.184090,7.509795
2.192200,7.509795
2.196468,7.509795
2.204519,7.509795
2.212589,7.509795
2.220779,7.509795
2.229078,7.509795
2.233349,7.587032
2.241388,7.587032
2.249529,7.587032
2.257740,7.587032
2.262058,7.587032
2.270140,7.587032
2.278358,7.587032
2.286598,7.587032
2.294609,7.587032
2.298960,7.587032
2.310869,7.587032
2.319170,7.587032
2.323420,7.587032
2.331469,7.587032
2.339720,7.587032
2.347830,7.587032
2.352058,7.587032
2.360199,7.587032
2.368448,7.587032
2.376629,7.587032
2.384699,7.587032
2.389099,7.587032
2.397099,7.587032
2.405169,7.587032
2.409510,7.587032
2.417728,7.587032
2.425949,7.587032
2.433989,7.587032
2.441999,7.587032
2.446400,7.587032
2.454519,7.587032
2.462568,7.587032
2.470709,7.587032
2.478989,7.587032
2.487160,7.587032
2.495270,7.587032
2.499578,7.587032
2.507799,7.587032
2.516008,7.587032
2.524038,7.587032
2.532108,7.587032
2.540359,7.587032
2.544689,7.587032
2.552778,7.587032
2.560848,7.587032
2.569090,7.587032
2.577309,7.587032
2.585350,7.587032
2.589788,7.587032
2.597778,7.587032
2.605879,7.587032
2.610199,7.587032
2.618399,7.587032
2.630400,7.587032
2.634789,7.587032
2.642859,7.587032
2.650980,7.587032
2.659220,7.587032
2.667439,7.587032
2.675499,7.587032
2.679829,7.587032
2.691898,7.587032
2.696119,7.587032
2.704159,7.587032
2.712290,7.587032
2.720539,7.587032
2.728760,7.587032
2.733080,7.587032
2.741159,7.664290
2.749260,7.664290
2.757429,7.664290
2.761759,7.664290
2.769859,7.664290
2.778139,7.664290
2.786308,7.580460
2.794359,7.580460
2.802429,7.580460
2.810719,7.580460
2.818909,7.580460
2.827028,7.580460
2.831289,7.580460
2.839510,7.580460
2.847540,7.580460
2.855690,7.664290
2.860020,7.664290
2.868259,7.664290
2.876459,7.664290
2.884489,7.664290
2.892590,7.664290
2.896969,7.664290
2.904980,7.664290
2.913019,7.664290
2.921219,7.664290
2.929449,7.664290
2.933828,7.664290
2.941818,7.664290
2.949909,7.664290
2.954260,7.580460
2.962278,7.580460
2.970480,7.580460
2.978760,7.580460
2.986809,7.580460
2.994940,7.580460
2.999239,7.580460
3.007408,7.580460
3.015450,7.580460
3.023529,7.580460
3.031830,7.580460
3.040020,7.664290
3.044338,7.664290
3.052368,7.664290
3.060579,7.664290
3.068840,7.664290
3.077028,7.664290
3.084999,7.664290
3.093260,7.664290
3.097500,7.664290
3.105539,7.664290
3.113680,7.664290
3.121908,7.664290
3.130150,7.664290
3.134489,7.664290
3.142679,7.664290
3.150660,7.664290
3.158838,7.664290
3.166969,7.664290
3.171268,7.664290
3.179520,7.664290
3.191620,7.664290
3.195820,7.580460
3.203859,7.503232
3.212040,7.503232
3.216269,7.419365
3.224319,7.324184
3.232510,7.324184
3.240719,7.324184
3.245079,7.324184
3.253099,7.240341
3.261189,7.240341
3.265530,7.240341
3.273520,7.156481
3.281799,7.156481
3.289909,7.072518
3.298069,7.072518
3.302340,6.988647
3.310369,6.988647
3.314669,6.988647
3.322748,6.904671
3.330910,6.904671
3.339048,6.902994
3.347170,6.819148
3.351479,6.819148
3.359499,6.819148
3.367699,6.735253
3.371948,6.651396
3.380150,6.651396
3.388319,6.651396
3.396358,6.567488
3.404539,6.484766
3.408810,6.484766
3.416849,6.397397
3.421179,6.313419
3.429369,6.313419
3.437469,6.229353
3.445509,6.229353
3.449848,6.229353
3.457918,6.145354
3.465979,5.975041
3.470299,5.894849
3.478458,5.894849
3.486439,5.894849
3.494678,5.804072
3.498899,5.804072
3.506939,5.642607
3.511290,5.558553
3.523230,5.558553
3.527649,5.480441
3.535910,5.398880
3.543810,5.314855
3.548130,5.314855
3.556179,5.230870
3.564289,5.066896
3.568560,5.066896
3.576609,5.076592
3.584679,4.915379
3.592958,4.915379
3.597260,4.831524
3.605289,4.748296
3.613419,4.748296
3.617760,4.670973
3.625729,4.600279
3.633860,4.439591
3.642118,4.439591
3.646559,4.360400
3.654509,4.277229
3.662590,4.277229
3.666920,4.200205
3.674978,4.134033
3.683088,4.059556
3.691448,4.059556
3.699450,3.900635
3.703758,3.900635
3.711769,3.900635
3.719919,3.839665
3.724150,3.695228
3.732319,3.695228
3.740499,3.695228
3.748619,3.614005
3.752930,3.639864
3.760939,3.639864
3.769129,3.502578
3.773310,3.422911
3.781519,3.422911
3.789679,3.422911
3.797739,3.343456
3.802069,3.397939
3.810120,3.397939
3.818209,3.247572
3.822510,3.247572
3.830648,3.247572
3.838709,3.170397
3.843039,3.197023
3.851068,3.197023
3.859169,3.160812
3.863459,3.086101
3.871500,3.086101
3.879749,3.086101
3.883909,2.976114
3.892099,2.976114
3.900148,3.022002
3.904490,2.951013
3.912560,2.951013
3.920630,2.951013
3.924950,2.880588
3.933039,2.854579
3.941290,2.854579
3.949329,2.786777
3.957529,2.840280
3.961760,2.840280
3.969780,2.774740
3.977900,2.713176
3.982229,2.649519
3.990490,2.649519
3.998539,2.697113
4.006609,2.638489
4.010939,2.638489
4.018999,2.578533
4.027020,2.578533
4.035179,2.529871
4.043499,2.529871
4.047810,2.529871
4.055889,2.475595
4.063969,2.475595
4.068258,2.424547
4.076309,2.424547
4.084518,2.385975
4.092739,2.385975
4.100828,2.385975
4.105080,2.297206
4.113150,2.297206
4.121349,2.297206
4.125679,2.255680
4.133759,2.216643
4.142069,2.216643
4.149979,2.258108
4.154379,2.224664
4.162378,2.224664
4.170460,2.194191
4.174789,2.194191
4.182919,2.212401
4.191269,2.212401
4.199228,2.212401
4.207279,2.171597
4.211639,2.171597
4.219740,2.171597
4.227730,2.156584
4.232149,2.142197
4.244160,2.142197
4.248419,2.142197
4.256479,2.133317
4.264700,2.133317
4.269039,2.133317
4.276970,2.122279
4.285080,2.122279
4.293339,2.122279
4.301498,2.122279
4.305750,2.123109
4.313808,2.123109
4.318119,2.123109
4.326170,2.123109
4.334309,2.127345
4.342579,2.127345
4.350698,2.127345
4.354969,2.141375
4.363079,2.141375
4.371119,2.141375
4.375460,2.141375
4.383549,2.155222
4.391819,2.155222
4.399910,2.155222
4.407969,2.172227
4.412258,2.172227
4.420309,2.172227
4.424629,2.172227
4.432810,2.192406
4.444889,2.192406
4.449110,2.192406
4.457140,2.371576
4.461470,2.371576
4.469549,2.354846
4.477598,2.354846
4.485729,2.354846
4.494009,2.354846
4.498329,2.376852
4.506369,2.376852
4.514479,2.376852
4.518799,2.376852
4.526838,2.376852
4.534979,2.401674
4.543249,2.401674
4.551350,2.401674
4.555630,2.382117
4.563759,2.382117
4.571810,2.406884
4.576069,2.479782
4.584209,2.562084
4.592499,2.562084
4.600529,2.562084
4.608700,2.588156
4.612989,2.588156
4.620998,2.588156
4.625319,2.588156
4.633530,2.588156
4.654139,2.588156
4.654280,2.588156
4.657839,2.616662
4.662169,2.616662
4.670219,2.616662
4.678259,2.616662
4.686399,2.616662
4.694710,2.616662
4.699009,2.616662
4.707048,2.647598
4.715170,2.647598
4.719479,2.647598
4.727480,2.647598
4.735640,2.647598
4.743938,2.647598
4.752039,2.647598
4.756289,2.647598
4.764359,2.647598
4.768728,2.674813
4.776829,2.674813
4.784960,2.710289
4.793150,2.710289
4.801189,2.710289
4.805569,2.710289
4.813570,2.710289
4.821699,2.710289
4.825979,2.741383
4.834120,2.741383
4.842388,2.741383
4.850430,2.741383
4.858500,2.741383
4.862848,2.741383
4.870859,2.741383
4.878908,2.741383
4.883369,2.774529
4.895409,2.774529
4.899679,2.774529
4.907749,2.774529
4.915909,2.774529
4.920149,2.774529
4.928200,2.774529
4.936310,2.774529
4.944578,2.774529
4.952709,2.809304
4.956980,2.809304
4.965118,2.768172
4.973379,2.768172
4.981560,2.768172
4.989599,2.768172
4.997780,2.768172
5.002039,2.768172
5.010090,2.768172
5.014410,2.768172
5.026350,2.768172
5.034590,2.768172
5.039000,2.768172
5.047079,2.768172
5.055199,2.768172
5.063509,2.768172
5.071640,2.768172
5.079739,2.768172
5.087809,2.768172
5.096100,2.768172
5.100368,2.768172
5.108419,2.809304
5.116529,2.809304
5.124840,2.809304
5.133018,2.809304
5.141079,2.809304
5.145538,2.774529
5.153460,2.774529
5.161579,2.774529
5.165918,2.774529
5.173899,2.774529
5.178219,2.774529
5.186270,2.774529
5.194500,2.774529
5.202589,2.774529
5.206879,2.774529
5.215010,2.774529
5.223289,2.774529
5.231428,2.774529
5.239449,2.774529
5.247599,2.774529
5.251928,2.774529
5.259958,2.774529
5.268028,2.774529
5.276230,2.774529
5.284498,2.774529
5.288790,2.774529
5.296869,2.774529
5.304958,2.774529
5.309238,2.774529
5.317289,2.774529
5.325499,2.774529
5.333750,2.774529
5.341839,2.774529
5.346239,2.774529
5.354309,2.774529
5.362549,2.774529
5.370609,2.774529
5.378698,2.774529
5.386829,2.774529
5.395079,2.774529
5.399509,2.774529
5.407469,2.774529
5.415640,2.774529
5.423969,2.774529
5.431978,2.774529
5.440020,2.774529
5.444489,2.774529
5.452549,2.774529
5.460569,2.774529
5.464970,2.774529
5.476910,2.774529
5.485180,2.774529
5.489460,2.774529
5.497519,2.774529
5.505610,2.774529
5.509958,2.774529
5.518000,2.774529
5.526178,2.774529
5.534449,2.774529
5.542620,2.774529
5.550690,2.774529
5.555059,2.774529
5.567009,2.774529
5.575279,2.774529
5.579569,2.774529
5.587608,2.774529
5.595829,2.774529
5.603949,2.774529
5.608290,2.774529
5.616348,2.774529
5.624619,2.774529
5.632870,2.774529
5.640820,2.774529
5.648989,2.774529
5.653269,2.774529
5.661320,2.774529
5.665680,2.774529
5.677568,2.774529
5.685879,2.774529
5.690229,2.774529
5.698210,2.774529
5.706308,2.774529
5.710600,2.774529
5.718729,2.774529
5.726830,2.774529
5.735100,2.774529
5.743229,2.774529
5.747549,2.774529
5.755690,2.774529
5.763960,2.774529
5.772139,2.774529
5.780190,2.774529
5.788269,2.774529
5.796518,2.774529
5.804680,2.774529
5.808899,2.774529
5.817030,2.919133
5.825258,2.919133
5.833479,2.919133
5.841530,2.919133
5.849689,2.919133
5.853998,2.919133
5.862129,2.919133
5.870169,2.919133
5.878300,2.919133
5.886580,2.919133
5.894749,2.919133
5.899210,2.919133
5.907188,2.919133
5.915419,2.919133
5.923698,2.919133
5.931648,2.919133
5.939678,2.919133
5.947989,2.919133
5.952299,2.919133
5.960320,2.919133
5.968430,2.919133
5.976728,2.919133
5.984869,2.919133
5.989208,2.919133
5.997309,2.919133
6.005339,2.919133
6.009680,2.852384
