time,angle
-0.492561,0.065611
-0.484409,0.065611
-0.476299,0.065611
-0.468350,0.065611
-0.460129,0.065611
-0.451870,0.065611
-0.447578,0.065611
-0.439529,0.065611
-0.431290,0.065611
-0.423210,0.065611
-0.418900,0.065611
-0.410759,0.065611
-0.402531,0.065611
-0.394329,0.019782
-0.386219,0.019782
-0.378189,0.019782
-0.370079,0.019782
-0.365639,0.019782
-0.357601,0.019782
-0.349468,0.019782
-0.341221,0.019782
-0.333000,0.019782
-0.324921,0.019782
-0.320599,0.019782
-0.312370,0.019782
-0.300388,0.019782
-0.296059,0.019782
-0.287979,0.019782
-0.279831,0.019782
-0.271690,0.019782
-0.267422,0.019782
-0.259331,0.019782
-0.251000,0.019782
-0.242851,0.019782
-0.234791,0.019782
-0.226662,0.019782
-0.222401,0.019782
-0.214310,0.019782
-0.206261,0.065611
-0.201801,0.065611
-0.189831,0.065611
-0.181580,0.065611
-0.177300,0.065611
-0.169231,0.065611
-0.160980,0.065611
-0.152790,0.065611
-0.144661,0.065611
-0.140259,0.065611
-0.128288,0.065611
-0.124119,0.065611
-0.116051,0.065611
-0.107948,0.065611
-0.099689,0.065611
-0.091469,0.065611
-0.087158,0.065611
-0.079071,0.065611
-0.070980,0.065611
-0.066669,0.065611
-0.058651,0.065611
-0.050419,0.065611
-0.042191,0.065611
-0.034130,0.065611
-0.029800,0.065611
-0.021751,0.065611
-0.013660,0.065611
-0.009319,0.065611
-0.001141,0.065611
0.010849,0.065611
0.015259,0.065611
0.023281,0.065611
0.031380,0.065611
0.039650,0.065611
0.047852,0.065611
0.055962,0.065611
0.060261,0.065611
0.068539,0.065611
0.076561,0.065611
0.084591,0.065611
0.092720,0.065611
0.100990,0.065611
0.109219,0.065611
0.113529,0.065611
0.121609,0.065611
0.129761,0.065611
0.137981,0.065611
0.142201,0.065611
0.150322,0.065611
0.158581,0.065611
0.166821,0.065611
0.174839,0.065611
0.182880,0.065611
0.191109,0.065611
0.199360,0.065611
0.207520,0.065611
0.211849,0.065611
0.220039,0.065611
0.228050,0.065611
0.236172,0.065611
0.240490,0.065611
0.248810,0.065611
0.260761,0.065611
0.265011,0.088469
0.273071,0.088469
0.281231,0.088469
0.285469,0.088469
0.293522,0.068528
0.301621,0.068528
0.306061,0.146710
0.314098,0.230700
0.322269,0.230700
0.330380,0.230700
0.334641,0.230700
0.342762,0.230700
0.350861,0.230700
0.355160,0.312787
0.363152,0.312787
0.371368,0.312787
0.379532,0.312787
0.383789,0.397129
0.391850,0.397129
0.400028,0.397129
0.404282,0.480105
0.412350,0.480105
0.420639,0.480105
0.428749,0.563712
0.433048,0.642244
0.441059,0.725777
0.449188,0.725777
0.453449,0.725777
0.461620,0.808909
0.469830,0.808909
0.477879,0.808909
0.486000,0.892629
0.490280,0.892629
0.498402,0.892629
0.502770,0.975785
0.510929,0.975785
0.519051,0.975785
0.527180,1.137976
0.535179,1.221252
0.539532,1.221252
0.547569,1.222373
0.555630,1.384232
0.563721,1.467671
0.572052,1.467671
0.576340,1.551038
0.584381,1.629548
0.592529,1.629548
0.596802,1.713036
0.604839,1.874924
0.612961,1.958547
0.621212,1.958547
0.629360,2.120434
0.633610,2.203892
0.641670,2.203892
0.646019,2.365875
0.654060,2.449445
0.662182,2.611420
0.670460,2.611420
0.678520,2.773399
0.682850,2.940381
0.690929,2.940381
0.699001,3.102298
0.703430,3.185859
0.711441,3.347845
0.719688,3.347845
0.727779,3.509782
0.735851,3.593195
0.740170,3.593195
0.748230,3.838696
0.756279,3.922163
0.760658,4.084085
0.772732,4.084085
0.776989,4.167580
0.785030,4.329477
0.793190,4.329477
0.797440,4.491349
0.805512,4.658249
0.813622,4.824058
0.821899,4.824058
0.826302,4.907840
0.834282,5.069564
0.842350,5.069564
0.846699,5.152862
0.854820,5.314633
0.862862,5.397900
0.871132,5.397900
0.879231,5.481227
0.883511,5.559610
0.891590,5.649479
0.899750,5.649479
0.903999,5.811194
0.912109,5.894549
0.920399,5.894549
0.928410,5.979043
0.936531,5.979043
0.940849,5.979043
0.948891,6.062201
0.957001,6.223686
0.961361,6.232374
0.973400,6.232374
0.977661,6.315499
0.985748,6.315499
0.993889,6.398623
0.998161,6.398623
1.006191,6.398623
1.014301,6.481772
1.022591,6.481772
1.026939,6.481772
1.034950,6.564919
1.043049,6.564919
1.047379,6.564919
1.055439,6.564919
1.063530,6.648004
1.071789,6.648004
1.079899,6.648004
1.084179,6.648004
1.092281,6.648004
1.100391,6.731146
1.104649,6.731146
1.112789,6.731146
1.121040,6.731146
1.129070,6.731146
1.137211,6.814286
1.141491,6.814286
1.149551,6.814286
1.153889,6.814286
1.161991,6.814286
1.170261,6.814286
1.178299,6.814286
1.186371,6.814286
1.190701,6.814286
1.198811,6.814286
1.206779,6.892615
1.211208,6.892615
1.223251,6.892615
1.227531,6.975724
1.235569,6.975724
1.243729,6.975724
1.247971,6.975724
1.256012,7.054077
1.264149,7.054077
1.272469,7.054077
1.280579,7.054077
1.284832,7.054077
1.292919,7.054077
1.301071,7.054077
1.305290,7.132399
1.313431,7.215532
1.321732,7.215532
1.329750,7.215532
1.334080,7.215532
1.342121,7.215532
1.350220,7.215532
1.354580,7.215532
1.362652,7.376930
1.370911,7.376930
1.378960,7.376930
1.387081,7.376930
1.391380,7.376930
1.399422,7.376930
1.407490,7.460036
1.411900,7.460036
1.423981,7.460036
1.428211,7.460036
1.436260,7.460036
1.444420,7.460036
1.448662,7.543167
1.456791,7.543167
1.465031,7.621459
1.473110,7.621459
1.477459,7.704541
1.485489,7.704541
1.493568,7.704541
1.497959,7.704541
1.506062,7.704541
1.514069,7.787648
1.522491,7.787648
1.530430,7.787648
1.534740,7.787648
1.542801,7.787648
1.550900,7.787648
1.555210,7.870681
1.563309,7.870681
1.571590,7.870681
1.579632,7.870681
1.587761,7.870681
1.592091,7.953766
1.600101,7.953766
1.608189,8.032113
1.612579,8.032113
1.624611,8.032113
1.628860,8.115129
1.636921,8.115129
1.641258,8.115129
1.649330,8.115129
1.657379,8.203007
1.665520,8.286170
1.673771,8.286170
1.678101,8.286170
1.686150,8.286170
1.694260,8.286170
1.698589,8.364570
1.706619,8.447734
1.714741,8.447734
1.723019,8.447734
1.731121,8.447734
1.735390,8.447734
1.743469,8.447734
1.751579,8.600397
1.755859,8.600397
1.763981,8.600397
1.772221,8.600397
1.780281,8.600397
1.784649,8.761880
1.792709,8.761880
1.800770,8.761880
1.805099,8.761880
1.813221,8.844979
1.821499,8.844979
1.829521,8.923326
1.837608,8.923326
1.841942,8.923326
1.850010,8.923326
1.858040,9.015413
1.866161,9.015413
1.874470,9.015413
1.878811,9.015413
1.886829,9.098526
1.894951,9.098526
1.899239,9.098526
1.907269,9.098526
1.915390,9.181598
1.923660,9.181598
1.931808,9.181598
1.936039,9.181598
1.944118,9.181598
1.952259,9.264674
1.956539,9.264674
1.964630,9.264674
1.972900,9.264674
1.980980,9.264674
1.985291,9.347713
1.993370,9.347713
2.001461,9.347713
2.005821,9.347713
2.013889,9.347713
2.022160,9.347713
2.030170,9.430777
2.038280,9.430777
2.042610,9.430777
2.050652,9.430777
2.058788,9.430777
2.063099,9.430777
2.075161,9.430777
2.079430,9.430777
2.087509,9.430777
2.095619,9.430777
2.103870,9.430777
2.112049,9.430777
2.120178,9.430777
2.124512,9.430777
2.132549,9.430777
2.140720,9.430777
2.144970,9.433006
2.153172,9.433006
2.161320,9.511448
2.169361,9.511448
2.173698,9.502991
2.181782,9.502991
2.189861,9.502991
2.194160,9.502991
2.202209,9.502991
2.210320,9.502991
2.214611,9.502991
2.222889,9.502991
2.230911,9.502991
2.238960,9.419890
2.243359,9.419890
2.255299,9.419890
2.259720,9.419890
2.267799,9.419890
2.275902,9.419890
2.284039,9.419890
2.288280,9.419890
2.296341,9.419890
2.311901,9.419890
2.312752,9.419890
2.317081,9.419890
2.325199,9.419890
2.333210,9.419890
2.337559,9.419890
2.345619,9.419890
2.353760,9.419890
2.358002,9.341487
2.366032,9.341487
2.374271,9.341487
2.382351,9.341487
2.386681,9.336752
2.394779,9.336752
2.403000,9.336752
2.411140,9.336752
2.419201,9.336752
2.427410,9.336752
2.431671,9.336752
2.439770,9.336752
2.447762,9.336752
2.456001,9.336752
2.464359,9.336752
2.468559,9.336752
2.476601,9.336752
2.484741,9.336752
2.488991,9.336752
2.497040,9.336752
2.505329,9.336752
2.513451,9.336752
2.521591,9.336752
2.525902,9.336752
2.533920,9.336752
2.542080,9.336752
2.546341,9.336752
2.554520,9.336752
2.562721,9.336752
2.570759,9.336752
2.575119,9.336752
2.583141,9.336752
2.591251,9.258350
2.595581,9.258350
2.603722,9.261852
2.615711,9.261852
2.620171,9.254848
2.628189,9.254848
2.636299,9.254848
2.644520,9.254848
2.652771,9.254848
2.660789,9.254848
2.665150,9.254848
2.673382,9.254848
2.681419,9.254848
2.689468,9.254848
2.693859,9.254848
2.705841,9.254848
2.714088,9.254848
2.718330,9.254848
2.726452,9.333258
2.734570,9.333258
2.738831,9.333258
2.746891,9.333258
2.755119,9.333258
2.763309,9.416426
2.771400,9.416426
2.775711,9.416426
2.783749,9.416426
2.791901,9.416426
2.796139,9.416426
2.804352,9.416426
2.812569,9.416426
2.820690,9.416426
2.828720,9.416426
2.833099,9.416426
2.841240,9.416426
2.849300,9.416426
2.857391,9.416426
2.865650,9.416426
2.873840,9.416426
2.878170,9.416426
2.886261,9.416426
2.894459,9.416426
2.902740,9.416426
2.910820,9.416426
2.918861,9.416426
2.927078,9.416426
2.931400,9.416426
2.939430,9.416426
2.947521,9.416426
2.955780,9.416426
2.964001,9.416426
2.972111,9.416426
2.976410,9.416426
2.984451,9.416426
2.992599,9.416426
2.996910,9.416426
3.005070,9.416426
3.013309,9.416426
3.021469,9.416426
3.029480,9.416426
3.037609,9.416426
3.045860,9.416426
3.054050,9.416426
3.058331,9.416426
3.066452,9.423541
3.074680,9.423541
3.082748,9.423541
3.087070,9.506735
3.095200,9.506735
3.103531,9.506735
3.111622,9.585152
3.119659,9.585152
3.127762,9.585152
3.132099,9.585152
3.140152,9.581357
3.148220,9.502991
3.156540,9.502991
3.164631,9.502991
3.172810,9.585152
3.177071,9.506735
3.185120,9.506735
3.193279,9.506735
3.197540,9.416426
3.205681,9.416426
3.214031,9.416426
3.222061,9.254848
3.230129,9.254848
3.234489,9.254848
3.242538,9.171661
3.250610,9.171661
3.254959,9.088499
3.263168,9.088499
3.271221,9.088499
3.279320,9.005296
3.283600,9.005296
3.291759,8.922092
3.299740,8.922092
3.307880,8.922092
3.316151,8.838824
3.320461,8.755601
3.328491,8.677133
3.336639,8.677133
3.340870,8.593863
3.348961,8.504706
3.353279,8.504706
3.361320,8.504706
3.369350,8.421472
3.377628,8.421472
3.381920,8.338235
3.389980,8.338235
3.398109,8.259873
3.402439,8.259873
3.410469,8.172385
3.418530,8.010723
3.426788,8.010723
3.434952,7.927439
3.439178,7.844102
3.447311,7.844102
3.451591,7.764906
3.459751,7.681581
3.467781,7.519927
3.476021,7.519927
3.484100,7.436615
3.488602,7.352339
3.496490,7.352339
3.504620,7.190829
3.508961,7.107574
3.517021,6.940994
3.525311,6.940994
3.533310,6.788303
3.541431,6.704960
3.545731,6.704960
3.553829,6.540350
3.561859,6.379072
3.566261,6.295880
3.578300,6.295880
3.582569,6.212713
3.590611,6.129511
3.598789,6.129511
3.603008,5.968246
3.611080,5.889160
3.619179,5.889160
3.627460,5.889160
3.631821,5.818441
3.639832,5.735520
3.647949,5.735520
3.652241,5.735520
3.660290,5.652532
3.668400,5.652532
3.676670,5.652532
3.684769,5.652532
3.689060,5.569613
3.697121,5.569613
3.705261,5.569613
3.709541,5.569613
3.717628,5.491871
3.725910,5.491871
3.733971,5.408888
3.738289,5.408888
3.746349,5.408888
3.754452,5.408888
3.758751,5.408888
3.766880,5.248371
3.775131,5.248371
3.783169,5.248371
3.791271,5.248371
3.795570,5.248371
3.803619,5.170702
3.811741,5.087811
3.816101,5.096084
3.828152,5.096084
3.832401,4.936100
3.840450,4.936100
3.848598,4.936100
3.852859,4.869771
3.860901,4.792686
3.869049,4.710396
3.877319,4.710396
3.885460,4.645785
3.889702,4.563857
3.897770,4.563857
3.902191,4.487204
3.910141,4.405400
3.918270,4.328934
3.926552,4.328934
3.934650,4.268199
3.938931,4.192131
3.947090,4.192131
3.955132,4.110946
3.959419,4.053281
3.967560,3.972664
3.975849,3.972664
3.983829,3.817211
3.991951,3.817211
3.996231,3.817211
4.004280,3.662228
4.012352,3.662228
4.016811,3.507773
4.025009,3.507773
4.033039,3.507773
4.041130,3.354213
4.045448,3.354213
4.053520,3.354213
4.061550,3.201307
4.069721,3.122614
4.078011,3.122614
4.082260,3.049473
4.090309,2.971243
4.098461,2.971243
4.102692,2.932047
4.110760,2.855265
4.118919,2.886901
4.127140,2.886901
4.131458,2.741669
4.139488,2.741669
4.147610,2.741669
4.151859,2.741669
4.159920,2.598421
4.168129,2.598421
4.176311,2.598421
4.180611,2.524992
4.188690,2.524992
4.196739,2.524992
4.201061,2.457502
4.209122,2.430916
4.217289,2.430916
4.225422,2.473459
4.229710,2.404769
4.237770,2.404769
4.245899,2.404769
4.250130,2.404769
4.258209,2.404769
4.262531,2.275377
4.270592,2.275377
4.278770,2.209657
4.286869,2.209657
4.291172,2.264513
4.299210,2.264513
4.307331,2.264513
4.311600,2.254378
4.319672,2.254378
4.327911,2.254378
4.336010,2.140643
4.340290,2.140643
4.348351,2.140643
4.356491,2.203448
4.360790,2.148219
4.368889,2.207973
4.377140,2.207973
4.385189,2.156130
4.393330,2.156130
4.397579,2.156130
4.405651,2.110720
4.409969,2.062984
4.418098,2.062984
4.430260,2.062984
4.434422,2.017612
4.442501,2.017612
4.446850,2.017612
4.454899,2.017612
4.463020,1.938459
4.471062,1.938459
4.479370,1.938459
4.483631,1.938459
4.491680,1.900840
4.499840,1.900840
4.504169,1.900840
4.512150,1.900840
4.520309,1.866240
4.528580,1.866240
4.536720,1.866240
4.540939,1.838347
4.549000,1.838347
4.553341,1.838347
4.561371,1.810133
4.569519,1.810133
4.577789,1.810133
4.585869,1.810133
4.590160,1.785202
4.598209,1.785202
4.606331,1.785202
4.610611,1.785202
4.618820,1.785202
4.627029,1.785202
4.635151,1.846420
4.643188,1.846420
4.647491,1.846420
4.655560,1.846420
4.663620,1.846420
4.668018,1.846420
4.680061,1.846420
4.684311,1.846420
4.692360,1.863827
4.700520,1.863827
4.704792,1.843662
4.712898,1.843662
4.721008,1.843662
4.729229,1.843662
4.737400,1.843662
4.741619,1.843662
4.749771,1.843662
4.758018,1.843662
4.766201,1.863827
4.774220,1.863827
4.782452,1.863827
4.786671,1.863827
4.794739,1.863827
4.799080,1.884191
4.807281,1.884191
4.819302,1.884191
4.823608,1.863827
4.831650,1.863827
4.839779,1.863827
4.848011,1.863827
4.852341,1.863827
4.860401,1.863827
4.868591,1.863827
4.876801,1.863827
4.884869,1.863827
4.889210,1.863827
4.897221,1.863827
4.905312,1.863827
4.909630,1.863827
4.917831,1.863827
4.926029,1.887511
4.934071,1.866869
4.942181,1.866869
4.946480,1.866869
4.954510,1.866869
4.962540,1.866869
4.970749,1.866869
4.979031,1.866869
4.983292,1.941687
4.991348,1.941687
4.999569,1.941687
5.007801,1.941687
5.015900,1.941687
5.020229,1.941687
5.028419,1.941687
5.036480,1.941687
5.044529,1.941687
5.048908,1.941687
5.060860,1.941687
5.069130,1.964633
5.073391,1.964633
5.081470,1.964633
5.089611,1.964633
5.093868,1.964633
5.101910,1.964633
5.110149,1.964633
5.118340,1.964633
5.126480,1.964633
5.130821,1.964633
5.138828,1.964633
5.146999,1.964633
5.155109,1.987413
5.159451,1.987413
5.167702,1.987413
5.175911,1.987413
5.183941,1.987413
5.192009,1.987413
5.200211,1.987413
5.208420,1.987413
5.212811,1.987413
5.220829,1.987413
5.229050,1.987413
5.237091,1.987413
5.245201,1.987413
5.249569,1.987413
5.261520,1.987413
5.269829,1.987413
5.274109,1.987413
5.282162,1.987413
5.290310,1.987413
5.294529,1.987413
5.302570,1.987413
5.310791,1.987413
5.319012,1.987413
5.323349,1.987413
5.331390,1.987413
5.339470,1.987413
5.343819,1.987413
5.351822,2.013145
5.359951,2.013145
5.364220,2.013145
5.372250,2.013145
5.380459,2.013145
5.388618,2.013145
5.392849,2.013145
5.400982,2.013145
5.409260,2.013145
5.417412,2.013145
5.425468,2.013145
5.433739,2.013145
5.437889,2.013145
5.446049,2.013145
5.450298,2.041527
5.462269,2.041527
5.470570,2.041527
5.474819,2.041527
5.482830,2.041527
5.487190,2.041527
5.495220,2.041527
5.503361,2.041527
5.511478,2.041527
5.519779,2.041527
5.524090,2.041527
5.532089,2.041527
5.540180,2.041527
5.548351,2.041527
5.552742,2.041527
5.560791,2.076223
5.569031,2.076223
5.577240,2.076223
5.585281,2.076223
5.593342,2.076223
5.601551,2.076223
5.609798,2.076223
5.614120,2.076223
5.622181,2.076223
5.630402,2.076223
5.638458,2.076223
5.642818,2.076223
5.650902,2.076223
5.659149,2.076223
5.667320,2.076223
5.675381,2.076223
5.683498,2.076223
5.687820,2.076223
5.695839,2.076223
5.703899,2.076223
5.712101,2.076223
5.720371,2.006426
5.728561,2.006426
5.732819,2.006426
5.740940,2.006426
5.749180,2.006426
5.757359,2.006426
5.765381,2.006426
5.773491,2.006426
5.781799,2.006426
5.786129,2.006426
5.794151,2.006426
5.802280,1.930670
5.810570,1.930670
5.818760,1.930670
5.826778,1.930670
5.831192,1.930670
5.839199,1.930670
5.847321,1.930670
5.851639,1.930670
5.859840,1.930670
5.871849,1.930670
5.876190,1.930670
5.884201,1.930670
5.892311,1.930670
5.900589,1.930670
5.904881,1.930670
5.912922,1.930670
5.921150,1.930670
5.929359,1.930670
5.937450,1.930670
5.941811,1.930670
5.949951,1.930670
5.958179,1.930670
5.966228,1.930670
5.974258,1.930670
5.982502,1.930670
5.986851,1.930670
5.994869,1.930670
6.002991,1.930670
