time,angle
-0.498291,0.220287
-0.486366,0.220287
-0.478119,0.220287
-0.473755,0.187672
-0.465691,0.187672
-0.457550,0.187672
-0.449280,0.187672
-0.441124,0.187672
-0.433121,0.187672
-0.424980,0.110143
-0.416649,0.110143
-0.412285,0.110143
-0.404289,0.110143
-0.396149,0.110143
-0.391876,0.110143
-0.383804,0.110143
-0.375687,0.110143
-0.367424,0.110143
-0.359314,0.055953
-0.355034,0.055953
-0.346985,0.055953
-0.338844,0.055953
-0.334587,0.081565
-0.326454,0.081565
-0.318176,0.081565
-0.310104,0.081565
-0.302017,0.081565
-0.297684,0.081565
-0.289650,0.081565
-0.281548,0.154505
-0.277214,0.150658
-0.268944,0.150658
-0.260895,0.252564
-0.252838,0.252564
-0.248489,0.252564
-0.240425,0.252564
-0.232384,0.252564
-0.227989,0.252564
-0.215981,0.252564
-0.211655,0.252564
-0.203621,0.252564
-0.195496,0.252564
-0.191208,0.324455
-0.183144,0.324455
-0.174995,0.324455
-0.166779,0.324455
-0.158661,0.362617
-0.154305,0.437007
-0.146256,0.437007
-0.138016,0.437007
-0.129814,0.437007
-0.121780,0.437007
-0.113594,0.437007
-0.109314,0.437007
-0.101280,0.437007
-0.096924,0.437007
-0.085014,0.437007
-0.076698,0.437007
-0.072456,0.437007
-0.064354,0.437007
-0.056320,0.437007
-0.051880,0.475190
-0.043808,0.475190
-0.035721,0.475190
-0.027451,0.475190
-0.019264,0.475190
-0.011169,0.475190
-0.006836,0.475190
0.001366,0.475190
0.013390,0.475190
0.017670,0.475190
0.025734,0.475190
0.033966,0.475190
0.042053,0.475190
0.046333,0.475190
0.054451,0.475190
0.062675,0.475190
0.070839,0.475190
0.078896,0.475190
0.083282,0.475190
0.091339,0.475190
0.099426,0.475190
0.103745,0.475190
0.111961,0.475190
0.120132,0.475190
0.128182,0.475190
0.136276,0.475190
0.140595,0.475190
0.148666,0.408304
0.156761,0.408304
0.161034,0.408304
0.169113,0.408304
0.177162,0.408304
0.185410,0.408304
0.189735,0.408304
0.197762,0.423362
0.205856,0.423362
0.214134,0.423362
0.222290,0.423362
0.230431,0.423362
0.234726,0.423362
0.242783,0.423362
0.247101,0.423362
0.255180,0.423362
0.263374,0.423362
0.271606,0.423362
0.279671,0.492180
0.287827,0.529711
0.292053,0.529711
0.300110,0.529711
0.304451,0.584168
0.312500,0.584168
0.320633,0.584168
0.324890,0.648611
0.333092,0.713267
0.341126,0.713267
0.349213,0.713267
0.353546,0.812529
0.361641,0.812529
0.369713,0.875587
0.374031,0.938369
0.382286,0.938369
0.390350,1.005999
0.398377,1.164997
0.402763,1.231147
0.410790,1.231147
0.418823,1.296941
0.426933,1.457502
0.435341,1.457502
0.439606,1.457502
0.447640,1.589547
0.455734,1.589547
0.459999,1.684350
0.468086,1.814560
0.476250,1.976650
0.484512,1.976650
0.492600,2.040376
0.496849,2.203715
0.504936,2.203715
0.513092,2.377758
0.517326,2.559026
0.525436,2.605041
0.533691,2.605041
0.541771,2.832619
0.546082,2.950284
0.554161,2.950284
0.562210,3.124181
0.566567,3.351761
0.574661,3.351761
0.582916,3.351761
0.590973,3.579546
0.599091,3.691145
0.603386,3.691145
0.611435,3.870447
0.619484,4.035656
0.623932,4.147418
0.635963,4.147418
0.640236,4.326173
0.648285,4.437781
0.656426,4.604237
0.660706,4.604237
0.668732,4.665896
0.676865,4.832781
0.685089,4.832781
0.689476,4.894089
0.697479,5.061364
0.705620,5.061364
0.709930,5.122429
0.717949,5.350864
0.726090,5.350864
0.734360,5.350864
0.742455,5.402182
0.746773,5.579316
0.754829,5.579316
0.762924,5.579316
0.767242,5.691302
0.775330,5.807887
0.783569,5.807887
0.791657,5.807887
0.799759,5.919835
0.804054,5.919835
0.812103,6.036438
0.820175,6.036438
0.824554,6.096833
0.832802,6.096833
0.840866,6.210441
0.848900,6.210441
0.853256,6.210441
0.861290,6.265068
0.869339,6.325210
0.877472,6.377105
0.885803,6.377105
0.890106,6.439067
0.898163,6.439067
0.906273,6.439067
0.910576,6.499446
0.918655,6.605865
0.926720,6.605865
0.935013,6.605865
0.943100,6.727882
0.947380,6.727882
0.955444,6.727882
0.963593,6.779804
0.967850,6.779804
0.975952,6.956350
0.984230,6.956350
0.992325,6.956350
0.996590,6.956350
1.004669,6.956350
1.012764,6.956350
1.017044,7.016575
1.025200,7.068301
1.033463,7.068301
1.041496,7.131051
1.049606,7.131051
1.053925,7.131051
1.061966,7.191430
1.070045,7.191430
1.074409,7.191430
1.086510,7.191430
1.090759,7.255095
1.098816,7.255095
1.106926,7.255095
1.111206,7.255095
1.119270,7.255095
1.127365,7.255095
1.135643,7.255095
1.139977,7.255095
1.148026,7.255095
1.156166,7.316090
1.164421,7.316090
1.172592,7.316090
1.180634,7.316090
1.185043,7.316090
1.193069,7.316090
1.201164,7.316090
1.205482,7.316090
1.213699,7.316090
1.225716,7.316090
1.229965,7.316090
1.238029,7.316090
1.246155,7.316090
1.254456,7.316090
1.258690,7.316090
1.266769,7.316090
1.274986,7.316090
1.283226,7.316090
1.291283,7.316090
1.295601,7.316090
1.303856,7.316090
1.315765,7.316090
1.320183,7.316090
1.328239,7.316090
1.336433,7.316090
1.344521,7.316090
1.348831,7.316090
1.356895,7.316090
1.365089,7.316090
1.373329,7.380573
1.381416,7.380573
1.389610,7.380573
1.393791,7.380573
1.401886,7.380573
1.406219,7.380573
1.414253,7.380573
1.422356,7.380573
1.426682,7.432603
1.434883,7.432603
1.443016,7.432603
1.450996,7.493760
1.455345,7.493760
1.463364,7.493760
1.471451,7.544078
1.475822,7.608496
1.488014,7.608496
1.492126,7.608496
1.500175,7.608496
1.508484,7.608496
1.512566,7.608496
1.520653,7.721487
1.528709,7.721487
1.537033,7.721487
1.541313,7.786287
1.549355,7.836491
1.557503,7.836491
1.561760,7.836491
1.569832,7.836491
1.577942,7.836491
1.586220,7.836491
1.594330,7.888667
1.598579,7.888667
1.606659,7.888667
1.614799,7.888667
1.619095,7.953051
1.627182,7.953051
1.635475,7.953051
1.643509,7.953051
1.647820,7.953051
1.655960,7.953051
1.664200,7.953051
1.672409,7.953051
1.680420,7.953051
1.688560,7.953051
1.692886,7.953051
1.700920,7.953051
1.708954,7.953051
1.717155,7.953051
1.725410,7.953051
1.729752,7.953051
1.737831,7.953051
1.745911,7.953051
1.754105,7.953051
1.758400,7.953051
1.766510,7.953051
1.774773,7.953051
1.782974,7.953051
1.791031,7.953051
1.799095,7.953051
1.807289,7.953051
1.815514,7.953051
1.819893,8.014031
1.827919,8.014031
1.836166,8.014031
1.844200,8.014031
1.848526,8.014031
1.856606,8.014031
1.864670,8.014031
1.868965,8.014031
1.877075,8.065771
1.885323,8.065771
1.893394,8.181149
1.901505,8.181149
1.905815,8.181149
1.913872,8.181149
1.921951,8.181149
1.926300,8.181149
1.938416,8.181149
1.942680,8.241811
1.950676,8.241811
1.955040,8.241811
1.963089,8.241811
1.971146,8.306951
1.979256,8.306951
1.987564,8.306951
1.991859,8.306951
1.999924,8.306951
2.008026,8.306951
2.012329,8.306951
2.020363,8.306951
2.028496,8.368137
2.036766,8.368137
2.044876,8.368137
2.049133,8.368137
2.057205,8.368137
2.065361,8.368137
2.069672,8.433961
2.077736,8.433961
2.086014,8.433961
2.094040,8.433961
2.098396,8.433961
2.106430,8.433961
2.114510,8.433961
2.118813,8.433961
2.126953,8.433961
2.135231,8.433961
2.143280,8.433961
2.151352,8.495626
2.155701,8.495626
2.163750,8.495626
2.171806,8.495626
2.176262,8.562152
2.188263,8.562152
2.192535,8.562152
2.200562,8.562152
2.208710,8.562152
2.212975,8.562152
2.221046,8.562152
2.229164,8.624252
2.237442,8.624252
2.245613,8.624252
2.249825,8.691427
2.257896,8.691427
2.262215,8.691427
2.270279,8.691427
2.278412,8.753963
2.286659,8.753963
2.294716,8.821783
2.299026,8.821783
2.307083,8.821783
2.315186,8.821783
2.319496,8.884691
2.327660,8.953132
2.335876,8.953132
2.343910,8.953132
2.352013,8.905982
2.356323,8.905982
2.364365,8.969618
2.372452,8.969618
2.376862,9.039029
2.388916,9.039029
2.393166,9.103038
2.401215,9.103038
2.409416,9.103038
2.413666,9.103038
2.421700,9.167119
2.429779,9.167119
2.438141,9.167119
2.442581,9.212409
2.450462,9.212409
2.458549,9.212409
2.462845,9.276292
2.470909,9.230800
2.479065,9.275846
2.487350,9.275846
2.495422,9.275846
2.499710,9.339909
2.507813,9.339909
2.515884,9.339909
2.520164,9.410267
2.528275,9.455256
2.536552,9.455256
2.544640,9.519319
2.558670,9.564724
2.558846,9.564724
2.565086,9.564724
2.573174,9.564724
2.577530,9.564724
2.589600,9.564724
2.593880,9.699007
2.601891,9.699007
2.610062,9.699007
2.614311,9.699007
2.622375,9.744147
2.630470,9.744147
2.638763,9.744147
2.643089,9.744147
2.651154,9.744147
2.659256,9.744147
2.663582,9.814599
2.671669,9.814599
2.679726,9.814599
2.687996,9.814599
2.696114,9.923589
2.700401,9.923589
2.708496,9.923589
2.716652,9.923589
2.720871,9.923589
2.728966,9.923589
2.737206,9.923589
2.745255,9.923589
2.749649,9.969143
2.757683,9.969143
2.765739,10.039500
2.770050,10.039500
2.778175,10.039500
2.786461,10.039500
2.794479,10.084910
2.802605,10.148350
2.806900,10.148350
2.814949,10.148350
2.823044,10.148350
2.831146,10.148350
2.839470,10.148350
2.843773,10.264560
2.851860,10.264560
2.859924,10.264560
2.864235,10.264560
2.872314,10.373250
2.880409,10.373250
2.888649,10.373250
2.896805,10.443690
2.901039,10.489760
2.909126,10.535490
2.917274,10.535490
2.921524,10.598320
2.929649,10.668630
2.937881,10.668630
2.945953,10.668630
2.950279,10.714100
2.958366,10.714100
2.966431,10.831020
2.970772,10.831020
2.978874,10.939340
2.987129,10.939340
2.995140,11.009560
3.003242,11.009560
3.007576,11.009560
3.015640,11.009560
3.023682,11.125370
3.028076,11.172490
3.040146,11.172490
3.044403,11.172490
3.052460,11.172490
3.060600,11.172490
3.064850,11.218510
3.072906,11.288460
3.081001,11.288460
3.089325,11.288460
3.093613,11.288460
3.101669,11.288460
3.109764,11.288460
3.114082,11.288460
3.122162,11.288460
3.130249,11.334490
3.138512,11.334490
3.146645,11.334490
3.150902,11.334490
3.158974,11.334490
3.167114,11.272620
3.171394,11.272620
3.179489,11.272620
3.187790,11.272620
3.195831,11.224720
3.203949,11.155030
3.208275,11.155030
3.216324,11.046620
3.224403,10.999070
3.228775,10.999070
3.240860,10.999070
3.245079,10.819580
3.253143,10.773570
3.261292,10.594030
3.265556,10.594030
3.273636,10.531470
3.281731,10.368620
3.289993,10.368620
3.294312,10.305760
3.302391,10.259100
3.310486,10.259100
3.314796,10.033920
3.322876,10.033920
3.330971,9.808887
3.339211,9.808887
3.347305,9.745257
3.351585,9.699595
3.359650,9.474838
3.367790,9.474838
3.372055,9.410727
3.380173,9.250260
3.388435,9.250260
3.396484,9.070862
3.400871,8.917115
3.408905,8.917115
3.416946,8.737679
3.421295,8.693122
3.429436,8.513685
3.437836,8.513685
3.445740,8.361024
3.453796,8.289985
3.458160,8.289985
3.466209,8.137766
3.474350,7.958331
3.478806,7.807005
3.490669,7.807005
3.494980,7.735429
3.503151,7.584730
3.511162,7.584730
3.515419,7.477218
3.523476,7.405256
3.531624,7.255609
3.539864,7.255609
3.547997,7.183405
3.552254,7.076151
3.560333,7.076151
3.568504,7.034472
3.572723,6.855064
3.580826,6.855064
3.589104,6.855064
3.597221,6.748286
3.601509,6.707475
3.609566,6.707475
3.617630,6.707475
3.621971,6.601261
3.630074,6.528135
3.638344,6.528135
3.646370,6.528135
3.654495,6.528135
3.658821,6.528135
3.666870,6.528135
3.674911,6.421930
3.679306,6.421930
3.691353,6.421930
3.695671,6.421930
3.703659,6.421930
3.711800,6.421930
3.720039,6.421930
3.728256,6.421930
3.732559,6.421930
3.740654,6.382053
3.748711,6.382053
3.753082,6.382053
3.761101,6.382053
3.769310,6.382053
3.777512,6.382053
3.785530,6.382053
3.789925,6.308573
3.797981,6.308573
3.806023,6.308573
3.810371,6.308573
3.818405,6.308573
3.826500,6.308573
3.830856,6.308573
3.839020,6.308573
3.847061,6.308573
3.855186,6.268947
3.859474,6.268947
3.867523,6.268947
3.875610,6.195333
3.879974,6.195333
3.892036,6.195333
3.896286,6.125703
3.904320,6.050807
3.908699,6.050807
3.916733,6.050807
3.924789,5.976780
3.932930,5.976780
3.941216,5.976780
3.945511,5.906708
3.953560,5.833480
3.961662,5.833480
3.965996,5.759085
3.973999,5.759085
3.982132,5.721219
3.990395,5.721219
3.998543,5.617125
4.002800,5.617125
4.010880,5.617125
4.015160,5.542311
4.023239,5.505308
4.031372,5.505308
4.039665,5.505308
4.047699,5.401855
4.052025,5.326602
4.060089,5.326602
4.068176,5.290540
4.072502,5.290540
4.080673,5.260230
4.088943,5.260230
4.096954,5.187765
4.105034,5.112052
4.109375,5.112052
4.117416,5.077055
4.125496,5.077055
4.133591,5.077055
4.141899,5.077055
4.146194,5.048069
4.154251,5.048069
4.162376,4.975081
4.166702,4.975081
4.174713,4.975081
4.182816,4.864941
4.191063,4.864941
4.199234,4.864941
4.203461,4.864941
4.211533,4.864941
4.215874,4.864941
4.223946,4.864941
4.232040,4.837440
4.240295,4.837440
4.248383,4.763865
4.252716,4.763865
4.260742,4.763865
4.268860,4.731848
4.273140,4.654547
4.281265,4.654547
4.289536,4.654547
4.297646,4.628593
4.305679,4.554448
4.310036,4.554448
4.318016,4.554448
4.322365,4.523852
4.330505,4.445983
4.342606,4.445983
4.346809,4.445983
4.354881,4.445983
4.359215,4.445983
4.367294,4.347039
4.375336,4.318062
4.383430,4.318062
4.391762,4.318062
4.396072,4.239470
4.404121,4.239470
4.412216,4.239470
4.416504,4.239470
4.424576,4.190402
4.432724,4.190402
4.441132,4.190402
4.449066,4.035559
4.453354,4.035559
4.461380,4.035559
4.465691,4.009171
4.473831,4.009171
4.481979,3.929794
4.490204,3.929794
4.498245,3.834460
4.502632,3.810228
4.510666,3.810228
4.518776,3.810228
4.523056,3.730142
4.531204,3.730142
4.539436,3.730142
4.547485,3.614817
4.555573,3.614817
4.559914,3.614817
4.567963,3.614817
4.576004,3.534021
4.580383,3.534021
4.592422,3.534021
4.596764,3.534021
4.604759,3.436099
4.612885,3.436099
4.617149,3.423598
4.625244,3.423598
4.633362,3.342167
4.641640,3.342167
4.649734,3.342167
4.654022,3.342167
4.662094,3.342167
4.670235,3.342167
4.674461,3.246547
4.682632,3.246547
4.690849,3.246547
4.698936,3.246547
4.703239,3.237308
4.711319,3.237308
4.719406,3.237308
4.723701,3.155232
4.731850,3.155232
4.740089,3.155232
4.748131,3.155232
4.756226,3.155232
4.760544,3.155232
4.768631,3.062541
4.776642,3.062541
4.781052,3.062541
4.793106,3.062541
4.797394,3.062541
4.805405,3.062541
4.813591,3.062541
4.817810,2.974272
4.825882,2.974272
4.834000,2.963458
4.842270,2.963458
4.846603,2.963458
4.854691,2.963458
4.862755,2.963458
4.867096,2.963458
4.875175,2.885001
4.883255,2.802118
4.891510,2.802118
4.899620,2.802118
4.903915,2.802118
4.912003,2.802118
4.920090,2.793092
4.924370,2.793092
4.932503,2.793092
4.940765,2.793092
4.948799,2.793582
4.956909,2.793582
4.961205,2.793582
4.969261,2.631952
4.977356,2.631952
4.981720,2.631952
4.993790,2.631952
4.998062,2.631952
5.006111,2.631952
5.014244,2.631952
5.022476,2.631952
5.030685,2.631952
5.034973,2.631952
5.043106,2.553360
5.051186,2.553360
5.055496,2.553360
5.063530,2.553360
5.071663,2.553360
5.079865,2.553360
5.084160,2.553360
5.092293,2.553360
5.100342,2.553360
5.108459,2.391547
5.112755,2.391547
5.120796,2.391547
5.128929,2.394573
5.133224,2.399065
5.141449,2.399065
5.149506,2.399065
5.157616,2.399065
5.161896,2.399065
5.169960,2.320518
5.178040,2.320518
5.182396,2.320518
5.190689,2.320518
5.198715,2.320518
5.206749,2.403629
5.211105,2.403629
5.219170,2.403629
5.227173,2.403629
5.231621,2.403629
5.243652,2.403629
5.247955,2.403629
5.255989,2.410459
5.264153,2.410459
5.272369,2.410459
5.280640,2.331709
5.288696,2.331709
5.292999,2.331709
5.301056,2.331709
5.309174,2.331709
5.313446,2.331709
5.321693,2.331709
5.329880,2.331709
5.337975,2.331709
5.346046,2.248989
5.350365,2.248989
5.358414,2.248989
5.366470,2.248989
5.374649,2.248989
5.382874,2.248989
5.391106,2.249511
5.395386,2.170695
5.403450,2.170695
5.411621,2.170695
5.415825,2.170695
5.423943,2.170695
5.432190,2.170695
5.440514,2.166544
5.448433,2.166544
5.452782,2.166544
5.460815,2.166544
5.468895,2.166544
5.473236,2.083375
5.481529,2.083375
5.493484,2.083375
5.497734,2.083375
5.505852,2.004767
5.510315,2.004767
5.518166,2.011589
5.526222,2.011589
5.534431,2.011589
5.542709,2.011589
5.550835,2.014020
5.555130,2.014020
5.563179,2.014020
5.571304,2.014020
5.575569,1.930872
5.583694,1.930872
5.591995,1.930872
5.600044,1.930872
5.608116,1.852980
5.612534,1.852980
5.624481,1.852980
5.632721,1.852980
5.640923,1.852980
5.645172,1.852980
5.653320,1.852980
5.661575,1.852980
5.669746,1.852980
5.677803,1.852980
5.685944,1.852980
5.694176,1.852980
5.698524,1.852980
5.706573,1.852980
5.714684,1.852980
5.722954,1.852980
5.731133,1.852980
5.739189,1.852980
5.743561,1.852980
5.751663,1.852980
5.759689,1.852980
5.764000,1.852980
5.772209,1.852980
5.780449,1.852980
5.788551,1.769899
5.796631,1.769899
5.804665,1.769899
5.812943,1.769899
5.817230,1.769899
5.825302,1.692117
5.833519,1.692117
5.841766,1.707085
5.849823,1.707085
5.854134,1.707085
5.862190,1.707085
5.870270,1.707085
5.874626,1.707085
5.882759,1.707085
5.894852,1.707085
5.899117,1.642348
5.907143,1.665774
5.911461,1.665774
5.919510,1.665774
5.927589,1.665774
5.935715,1.665774
5.944031,1.665774
5.948349,1.665774
5.956406,1.510384
5.964516,1.510384
5.968811,1.510384
5.976906,1.539514
5.985016,1.565481
5.993286,1.565481
6.001373,1.565481
6.005684,1.565481
