time,angle
-0.497299,0.118694
-0.489204,0.118694
-0.484901,0.167859
-0.476700,0.167859
-0.468506,0.167859
-0.460403,0.167859
-0.452400,0.167859
-0.444099,0.167859
-0.439804,0.167859
-0.431801,0.167859
-0.423706,0.167859
-0.415505,0.167859
-0.407204,0.167859
-0.402901,0.167859
-0.385407,0.118694
-0.385300,0.118694
-0.382500,0.118694
-0.374405,0.118694
-0.366303,0.118694
-0.362000,0.118694
-0.353905,0.118694
-0.345703,0.118694
-0.337601,0.118694
-0.333305,0.118694
-0.325203,0.118694
-0.317001,0.118694
-0.308800,0.118694
-0.300705,0.055953
-0.292603,0.055953
-0.288300,0.055953
-0.280304,0.055953
-0.275902,0.034264
-0.267700,0.034264
-0.255699,0.034264
-0.251503,0.034264
-0.243401,0.034264
-0.239105,0.034264
-0.230904,0.034264
-0.223000,0.034264
-0.214806,0.034264
-0.206604,0.034264
-0.202202,0.034264
-0.194206,0.115350
-0.186104,0.115350
-0.181801,0.115350
-0.173706,0.115350
-0.165604,0.115350
-0.161400,0.115350
-0.153206,0.131221
-0.145104,0.131221
-0.136902,0.208420
-0.132706,0.208420
-0.124603,0.208420
-0.120300,0.208420
-0.112206,0.244694
-0.104103,0.244694
-0.095901,0.244694
-0.087700,0.244694
-0.083504,0.301316
-0.075401,0.301316
-0.067307,0.363156
-0.063004,0.363156
-0.054802,0.363156
-0.046600,0.363156
-0.038605,0.363156
-0.030403,0.363156
-0.026199,0.363156
-0.018105,0.363156
-0.013702,0.363156
-0.005699,0.420579
0.002701,0.420579
0.010696,0.420579
0.018700,0.420579
0.026794,0.420579
0.035095,0.420579
0.043297,0.480920
0.047699,0.480920
0.055695,0.480920
0.063797,0.480920
0.068100,0.480920
0.076195,0.480920
0.084396,0.480920
0.092598,0.480920
0.100594,0.480920
0.104996,0.480920
0.113098,0.480920
0.121094,0.480920
0.125397,0.480920
0.133598,0.480920
0.141800,0.420579
0.149994,0.420579
0.157997,0.420579
0.166100,0.420579
0.174294,0.420579
0.182495,0.363156
0.186798,0.363156
0.195000,0.363156
0.203194,0.363156
0.211197,0.363156
0.215599,0.363156
0.223801,0.363156
0.235695,0.363156
0.240196,0.420579
0.248200,0.480920
0.256294,0.480920
0.264496,0.480920
0.268700,0.530080
0.276794,0.530080
0.284897,0.530080
0.289200,0.530080
0.297295,0.530080
0.305496,0.530080
0.313599,0.589171
0.317894,0.657599
0.325897,0.657599
0.334099,0.657599
0.338295,0.702487
0.346397,0.765150
0.354698,0.765150
0.362801,0.765150
0.367096,0.835094
0.375198,0.835094
0.383301,0.835094
0.387497,0.835094
0.395699,0.947294
0.403900,0.947294
0.411995,0.947294
0.420097,1.018180
0.424400,1.018180
0.432396,1.124658
0.440498,1.196158
0.444901,1.241593
0.457001,1.241593
0.461197,1.379275
0.469299,1.379275
0.477394,1.379275
0.481697,1.452526
0.489700,1.601445
0.497894,1.672691
0.506096,1.672691
0.510399,1.741025
0.518494,1.856040
0.526596,1.856040
0.530899,1.924781
0.538994,1.997824
0.547096,2.078107
0.555397,2.078107
0.563400,2.217438
0.567696,2.261486
0.575798,2.261486
0.583901,2.261486
0.588196,2.401266
0.596298,2.444806
0.604599,2.444806
0.612595,2.515984
0.620796,2.584902
0.625099,2.584902
0.633194,2.657339
0.641197,2.699579
0.645599,2.841176
0.653801,2.841176
0.661896,2.841176
0.669899,2.883373
0.674294,2.883373
0.682297,3.025109
0.690399,3.061134
0.698494,3.104947
0.706894,3.104947
0.711098,3.175765
0.719200,3.245039
0.727295,3.245039
0.731598,3.245039
0.739594,3.316824
0.747795,3.429083
0.755997,3.429083
0.764099,3.429083
0.768395,3.500845
0.776398,3.500845
0.784599,3.500845
0.788895,3.537067
0.796997,3.606846
0.805298,3.606846
0.813294,3.606846
0.817596,3.606846
0.825699,3.606846
0.833794,3.678605
0.838097,3.720997
0.846199,3.720997
0.854500,3.720997
0.862495,3.790959
0.870598,3.790959
0.874901,3.790959
0.882996,3.790959
0.891098,3.898476
0.895401,3.968669
0.907494,3.968669
0.911797,3.968669
0.919800,3.968669
0.927994,3.968669
0.932198,4.146285
0.940300,4.146285
0.948395,4.146285
0.956696,4.146285
0.960999,4.217097
0.968994,4.323818
0.977097,4.323818
0.981499,4.323818
0.989494,4.394806
0.997597,4.508064
1.005898,4.508064
1.014000,4.614352
1.018295,4.614352
1.026398,4.614352
1.034500,4.756828
1.038696,4.828563
1.046898,4.900490
1.055199,4.900490
1.063194,5.118832
1.071297,5.118832
1.075600,5.118832
1.083595,5.262576
1.091698,5.334579
1.096100,5.480798
1.108200,5.480798
1.112495,5.624621
1.120499,5.696431
1.124794,5.696431
1.132896,5.842746
1.140900,5.986644
1.148994,5.986644
1.157394,5.986644
1.161697,6.171426
1.169701,6.316183
1.177895,6.316183
1.182198,6.348570
1.190201,6.493349
1.198296,6.604618
1.206497,6.604618
1.214699,6.678202
1.218895,6.823749
1.226997,6.823749
1.235199,6.863157
1.239395,7.008659
1.247597,7.080363
1.255798,7.080363
1.263901,7.185643
1.268196,7.296272
1.276199,7.296272
1.284294,7.370597
1.288597,7.442049
1.296799,7.555671
1.305099,7.555671
1.313095,7.657938
1.321098,7.732460
1.325500,7.732460
1.333496,7.732460
1.341599,7.878534
1.346001,7.878534
1.357994,7.878534
1.362297,7.949891
1.370399,7.949891
1.378593,7.949891
1.382896,8.025218
1.390900,8.025218
1.398895,8.025218
1.407196,8.025218
1.411499,8.096770
1.419594,8.210233
1.427597,8.210233
1.431999,8.210233
1.439995,8.210233
1.448196,8.210233
1.456398,8.210233
1.464500,8.357453
1.468796,8.357453
1.476898,8.357453
1.485001,8.386772
1.489296,8.386772
1.497398,8.386772
1.505699,8.386772
1.513695,8.386772
1.521797,8.533869
1.526100,8.533869
1.534195,8.533869
1.542198,8.533869
1.546799,8.533869
1.558701,8.533869
1.562897,8.533869
1.570999,8.609938
1.579201,8.609938
1.583397,8.638951
1.591499,8.638951
1.599594,8.710209
1.607895,8.710209
1.612198,8.786328
1.620193,8.786328
1.628395,8.786328
1.632698,8.924515
1.640694,9.000450
1.648895,9.000450
1.657097,9.000450
1.665199,9.147698
1.669495,9.147698
1.677597,9.147698
1.685699,9.252872
1.689896,9.323776
1.697998,9.323776
1.706299,9.323776
1.714394,9.400340
1.718697,9.508946
1.726799,9.508946
1.734894,9.614272
1.739197,9.614272
1.747299,9.761606
1.755501,9.761606
1.763596,9.832354
1.771698,9.946926
1.776001,9.946926
1.783997,9.975572
1.792099,10.122770
1.796494,10.122770
1.808594,10.122770
1.812897,10.308130
1.820900,10.308130
1.828995,10.455680
1.833298,10.455680
1.841400,10.455680
1.849495,10.455680
1.857697,10.455680
1.865898,10.603650
1.870094,10.603650
1.878197,10.603650
1.886299,10.641060
1.890594,10.641060
1.898697,10.641060
1.906998,10.641060
1.915001,10.641060
1.919296,10.641060
1.927399,10.641060
1.935493,10.641060
1.939796,10.641060
1.947899,10.563690
1.956200,10.563690
1.964195,10.563690
1.972298,10.563690
1.976700,10.563690
1.984695,10.563690
1.992798,10.535790
1.997200,10.535790
2.009193,10.535790
2.013596,10.465370
2.021500,10.388070
2.025894,10.388070
2.033997,10.388070
2.042000,10.388070
2.050095,10.388070
2.058395,10.388070
2.062698,10.388070
2.070801,10.310970
2.078896,10.310970
2.083199,10.212300
2.091194,10.212300
2.099396,10.212300
2.107597,10.212300
2.115700,10.212300
2.119995,10.163940
2.128098,10.163940
2.136200,10.093870
2.140495,10.093870
2.148598,10.093870
2.156898,10.093870
2.164894,10.055380
2.169197,10.055380
2.177299,10.055380
2.185394,9.985070
2.189697,9.985070
2.197800,9.908497
2.206100,9.908497
2.214096,9.908497
2.222198,9.908497
2.226494,9.908497
2.234596,9.799622
2.242599,9.799622
2.247101,9.723141
2.259094,9.723141
2.263397,9.723141
2.271400,9.652822
2.279594,9.652822
2.283798,9.682554
2.291901,9.682554
2.299995,9.606602
2.308296,9.606602
2.312599,9.467409
2.320595,9.467409
2.328697,9.467409
2.333000,9.391324
2.341095,9.321035
2.349297,9.321035
2.357498,9.321035
2.365601,9.245308
2.369896,9.175175
2.377899,9.175175
2.385994,9.135683
2.390297,9.060046
2.398399,9.030004
2.406700,9.030004
2.414795,8.959405
2.422897,8.883851
2.427200,8.883851
2.435196,8.883851
2.443298,8.853747
2.447800,8.707525
2.459801,8.707525
2.463997,8.707525
2.472099,8.632265
2.480301,8.632265
2.484497,8.531083
2.492500,8.455913
2.500694,8.455913
2.508896,8.455913
2.513298,8.455913
2.521294,8.279438
2.529396,8.279438
2.533699,8.279438
2.541794,8.204563
2.549896,8.204563
2.558197,8.204563
2.566299,8.102780
2.570595,8.028030
2.578697,8.028030
2.586700,8.028030
2.590996,7.882992
2.599197,7.882992
2.607399,7.882992
2.615494,7.882992
2.623596,7.666236
2.627899,7.666236
2.635895,7.666236
2.640198,7.666236
2.648399,7.666236
2.656700,7.666236
2.664696,7.666236
2.672699,7.666236
2.677094,7.666236
2.685097,7.666236
2.693199,7.521231
2.701294,7.521231
2.709694,7.521231
2.713997,7.521231
2.722000,7.521231
2.730095,7.521231
2.738396,7.521231
2.746597,7.521231
2.754700,7.521231
2.758995,7.553593
2.767097,7.553593
2.775101,7.553593
2.779495,7.512903
2.787598,7.512903
2.795700,7.512903
2.803795,7.442286
2.811996,7.442286
2.816299,7.442286
2.824295,7.442286
2.832397,7.442286
2.840599,7.442286
2.848900,7.442286
2.853195,7.442286
2.861298,7.368600
2.869301,7.368600
2.877594,7.368600
2.881897,7.298261
2.889999,7.298261
2.898201,7.298261
2.906395,7.298261
2.914497,7.298261
2.922501,7.298261
2.930695,7.298261
2.938995,7.298261
2.947197,7.298261
2.951500,7.224988
2.959595,7.224988
2.967697,7.224988
2.975800,7.155027
2.980095,7.155027
2.988098,7.155027
2.996300,7.155027
3.000595,7.082191
3.008797,7.082191
3.016899,7.082191
3.024994,6.978141
3.029297,6.905523
3.037300,6.905523
3.045395,6.905523
3.049698,6.905523
3.057999,6.905523
3.065994,6.793127
3.074097,6.720649
3.078400,6.720649
3.086494,6.720649
3.094498,6.686508
3.098999,6.543857
3.111000,6.543857
3.115295,6.543857
3.123299,6.543857
3.127594,6.543857
3.135696,6.471781
3.143700,6.402084
3.151794,6.402084
3.160194,6.402084
3.164497,6.359062
3.172501,6.182123
3.180595,6.182123
3.184998,6.182123
3.193100,6.040561
3.201096,5.855949
3.209396,5.855949
3.217499,5.820395
3.221794,5.679029
3.229996,5.538774
3.237999,5.538774
3.242294,5.387543
3.250397,5.247027
3.258598,5.247027
3.266701,5.133051
3.274796,4.955985
3.279099,4.955985
3.287201,4.816539
3.295296,4.594570
3.299599,4.455533
3.311699,4.455533
3.315895,4.341042
3.323997,4.164147
3.332199,3.980347
3.336395,3.980347
3.344498,3.843182
3.352501,3.550879
3.360901,3.550879
3.365196,3.415524
3.373199,3.299009
3.381294,3.299009
3.385597,3.165577
3.393700,3.007977
3.401794,2.808189
3.410095,2.808189
3.418198,2.692755
3.422394,2.452080
3.430496,2.452080
3.438599,2.271589
3.442894,2.210277
3.450996,1.982384
3.459198,1.982384
3.467300,1.863932
3.471695,1.690728
3.479797,1.690728
3.487900,1.512455
3.492096,1.342463
3.500298,1.284204
3.508499,1.284204
3.516594,1.113466
3.524597,0.939203
3.528999,0.939203
3.536995,0.884481
3.545097,0.710518
3.549500,0.657897
3.561501,0.657897
3.565796,0.549652
3.573898,0.397129
3.582001,0.298707
3.586296,0.298707
3.594299,0.291412
3.602394,0.339773
3.610695,0.339773
3.615097,0.331022
3.623100,0.359909
3.631195,0.359909
3.639297,0.513962
3.643700,0.584503
3.651695,0.660864
3.659996,0.660864
3.668098,0.745199
3.672394,0.745199
3.680397,0.821629
3.688499,0.821629
3.692795,0.913860
3.700996,0.913860
3.709198,0.913860
3.717300,0.913860
3.725296,1.074472
3.729698,1.074472
3.737694,1.074472
3.745895,1.087146
3.750198,1.012011
3.762199,1.012011
3.766495,1.012011
3.774498,1.012011
3.782700,1.012011
3.786995,0.928938
3.794998,0.854092
3.803101,0.839301
3.811394,0.839301
3.815697,0.856152
3.823799,0.700255
3.831894,0.681562
3.836197,0.681562
3.844200,0.523767
3.852295,0.523767
3.860596,0.523767
3.868698,0.346050
3.872993,0.269069
3.880997,0.269069
3.885300,0.185575
3.893394,0.151951
3.901497,0.108352
3.909798,0.108352
3.917900,0.192815
3.922195,0.230700
3.930199,0.230700
3.938293,0.284619
3.942596,0.404452
3.950798,0.513962
3.959099,0.513962
3.967094,0.578107
3.975197,0.642244
3.979500,0.642244
3.987595,0.759503
3.995598,0.825194
4.000000,0.897875
4.012100,0.897875
4.016296,0.897875
4.024399,0.942115
4.032494,0.942115
4.036797,1.081008
4.044899,1.081008
4.052994,1.124658
4.061195,1.124658
4.065598,1.196158
4.073601,1.159947
4.081696,1.159947
4.085999,1.159947
4.094101,1.201382
4.102196,1.274107
4.110497,1.274107
4.118500,1.239858
4.122795,1.279013
4.130898,1.279013
4.139000,1.279013
4.143295,1.279013
4.151398,1.256788
4.159698,1.256788
4.167694,1.216275
4.175896,1.288767
4.180199,1.288767
4.188194,1.332367
4.192596,1.332367
4.200600,1.293768
4.209000,1.293768
4.216995,1.293768
4.224998,1.293768
4.229401,1.293768
4.237396,1.337791
4.245499,1.409033
4.253593,1.409033
4.261894,1.409033
4.266197,1.409033
4.274200,1.409033
4.282394,1.409033
4.286697,1.454680
4.294701,1.454680
4.302895,1.454680
4.311096,1.454680
4.319199,1.454680
4.323494,1.454680
4.331696,1.520714
4.339897,1.520714
4.348099,1.520714
4.356094,1.561977
4.364296,1.561977
4.368500,1.561977
4.376595,1.561977
4.384796,1.561977
4.389000,1.561977
4.397095,1.561977
4.401398,1.515299
4.413399,1.515299
4.417694,1.515299
4.425797,1.515299
4.433899,1.444962
4.438194,1.444962
4.457100,1.332367
4.457298,1.332367
4.462601,1.332367
4.466896,1.216275
4.474899,1.216275
4.483101,1.216275
4.487396,1.174365
4.495399,1.100740
4.503494,0.991106
4.511795,0.991106
4.516098,0.991106
4.524094,0.917279
4.532196,0.917279
4.536499,0.878042
4.544594,0.878042
4.552696,0.840233
4.560898,0.840233
4.569000,0.798194
4.573296,0.798194
4.581398,0.798194
4.589500,0.657599
4.593796,0.614531
4.601898,0.614531
4.610199,0.614531
4.618195,0.614531
4.622597,0.541041
4.630600,0.541041
4.638695,0.502411
4.642998,0.502411
4.651199,0.502411
4.659401,0.502411
4.667496,0.502411
4.675499,0.502411
4.679893,0.502411
4.687996,0.478472
4.696098,0.478472
4.704094,0.560580
4.712494,0.560580
4.716698,0.560580
4.724800,0.560580
4.732895,0.560580
4.737198,0.560580
4.745193,0.637044
4.753296,0.637044
4.761696,0.637044
4.769798,0.637044
4.773994,0.637044
4.782097,0.637044
4.786400,0.720093
4.794395,0.720093
4.802597,0.720093
4.810898,0.720093
4.818893,0.720093
4.823296,0.720093
4.831299,0.720093
4.839394,0.738870
4.843697,0.738870
4.851898,0.738870
4.860100,0.738870
4.868195,0.813973
4.876198,0.895911
4.884300,0.895911
4.892601,0.895911
4.900894,0.895911
4.905098,0.895911
4.913200,0.895911
4.921295,0.895911
4.925598,0.895911
4.933701,0.895911
4.941895,0.895911
4.950096,0.895911
4.958199,0.895911
4.966301,0.895911
4.970596,0.895911
4.978798,0.895911
4.986900,0.895911
4.994896,0.895911
5.003098,0.895911
5.011398,0.895911
5.015694,0.915571
5.023796,0.915571
5.031998,0.915571
5.040199,0.915571
5.048294,0.915571
5.052597,0.915571
5.060799,0.915571
5.068893,0.915571
5.076897,0.915571
5.081299,0.915571
5.093201,0.915571
5.101494,0.915571
5.105797,0.915571
5.113899,0.915571
5.121994,0.915571
5.126297,0.915571
5.134399,0.915571
5.142494,0.915571
5.150795,0.915571
5.158897,0.945433
5.167000,0.945433
5.171295,0.945433
5.179497,0.945433
5.187599,0.945433
5.195595,0.945433
5.203796,0.945433
5.212097,0.945433
5.216400,0.919197
5.224396,0.919197
5.232597,0.919197
5.240898,0.919197
5.249001,0.919197
5.256996,0.919197
5.261497,0.919197
5.269600,0.919197
5.277596,0.919197
5.281998,0.845110
5.293900,0.845110
5.302200,0.845110
5.306496,0.845110
5.314499,0.845110
5.322701,0.845110
5.326897,0.845110
5.334999,0.845110
5.339294,0.845110
5.347397,0.766683
5.355499,0.766683
5.363701,0.766683
5.367996,0.766683
5.375999,0.766683
5.384094,0.766683
5.388397,0.766683
5.396500,0.667933
5.404594,0.646193
5.412994,0.646193
5.420998,0.646193
5.425301,0.563365
5.433296,0.563365
5.441399,0.563365
5.445694,0.563365
5.453796,0.563365
5.462097,0.563365
5.470100,0.550719
5.474495,0.550719
5.482498,0.550719
5.490601,0.550719
5.494896,0.478472
5.503098,0.478472
5.511299,0.478472
5.519295,0.478472
5.527397,0.478472
5.531799,0.478472
5.543800,0.478472
5.548294,0.478472
5.556297,0.403483
5.564400,0.403483
5.572495,0.403483
5.576797,0.403483
5.584900,0.403483
5.592995,0.403483
5.601295,0.403483
5.609398,0.403483
5.613701,0.403483
5.621696,0.403483
5.625999,0.403483
5.634094,0.403483
5.642296,0.403483
5.650497,0.403483
5.658600,0.403483
5.662895,0.403483
5.670898,0.403483
5.679001,0.403483
5.683296,0.403483
5.691498,0.403483
5.699699,0.389668
5.707794,0.389668
5.715897,0.389668
5.720200,0.389668
5.728195,0.389668
5.736298,0.389668
5.740601,0.389668
5.748795,0.389668
5.756798,0.406864
5.765099,0.487788
5.769295,0.487788
5.777298,0.487788
5.785500,0.487788
5.789795,0.487788
5.797798,0.475190
5.805901,0.475190
5.814194,0.475190
5.818497,0.490588
5.826500,0.490588
5.834595,0.490588
5.838898,0.490588
5.847000,0.416841
5.855095,0.419648
5.863495,0.419648
5.871498,0.419648
5.875793,0.419648
5.883896,0.419648
5.888100,0.419648
5.896194,0.454565
5.904297,0.351659
5.912697,0.351659
5.920700,0.351659
5.925095,0.394161
5.933098,0.394161
5.941093,0.355533
5.945496,0.355533
5.953598,0.360995
5.961800,0.360995
5.969894,0.365305
5.977997,0.365305
5.982300,0.365305
5.990395,0.365305
5.998398,0.365305
