time,angle
-0.498001,0.000000
-0.489800,0.000000
-0.485497,0.000000
-0.477501,0.000000
-0.473099,0.000000
-0.461197,0.000000
-0.452896,0.000000
-0.444695,0.000000
-0.440399,0.068528
-0.432297,0.068528
-0.424095,0.068528
-0.415794,0.068528
-0.407799,0.068528
-0.399696,0.068528
-0.391495,0.068528
-0.387100,0.068528
-0.379097,0.068528
-0.370995,0.068528
-0.362694,0.068528
-0.354500,0.068528
-0.346397,0.068528
-0.342094,0.068528
-0.334000,0.068528
-0.325897,0.068528
-0.321594,0.068528
-0.313400,0.068528
-0.301399,0.068528
-0.293198,0.068528
-0.288895,0.068528
-0.280800,0.068528
-0.272598,0.068528
-0.264397,0.000000
-0.256294,0.000000
-0.251900,0.000000
-0.239899,0.000000
-0.235695,0.000000
-0.227600,0.000000
-0.219498,0.090654
-0.211197,0.090654
-0.202995,0.090654
-0.194794,0.090654
-0.190498,0.090654
-0.182396,0.090654
-0.174301,0.090654
-0.169998,0.000000
-0.161896,0.000000
-0.153694,0.000000
-0.145401,0.000000
-0.137398,0.000000
-0.129395,0.000000
-0.121201,0.000000
-0.112900,0.000000
-0.104797,0.000000
-0.100494,0.000000
-0.092300,0.000000
-0.084198,0.000000
-0.076195,0.000000
-0.071800,0.000000
-0.063499,0.000000
-0.051399,0.000000
-0.047295,0.000000
-0.039200,0.000000
-0.031097,0.000000
-0.022797,0.000000
-0.018494,0.000000
-0.010498,0.000000
-0.002296,0.000000
0.006004,0.000000
0.014099,0.090654
0.022202,0.090654
0.026505,0.090654
0.034500,0.090654
0.038902,0.090654
0.047005,0.090654
0.059105,0.090654
0.063301,0.090654
0.071404,0.121947
0.079605,0.090654
0.087799,0.090654
0.096100,0.090654
0.104202,0.090654
0.108505,0.090654
0.116600,0.090654
0.124802,0.121947
0.132805,0.121947
0.140900,0.083929
0.149200,0.083929
0.157501,0.083929
0.165604,0.083929
0.169899,0.083929
0.178001,0.083929
0.186302,0.083929
0.194504,0.083929
0.202499,0.083929
0.210602,0.083929
0.218704,0.083929
0.223106,0.083929
0.231201,0.083929
0.239304,0.000000
0.247604,0.000000
0.255806,0.000000
0.263802,0.000000
0.268303,0.079129
0.276306,0.079129
0.284302,0.079129
0.288704,0.079129
0.296906,0.079129
0.308899,0.079129
0.313202,0.100871
0.321205,0.100871
0.329399,0.100871
0.333702,0.100871
0.341705,0.171320
0.349899,0.171320
0.358200,0.171320
0.366303,0.171320
0.370606,0.171320
0.378700,0.171320
0.386704,0.280463
0.391106,0.351659
0.399200,0.351659
0.407501,0.351659
0.415505,0.351659
0.423599,0.351659
0.428001,0.351659
0.436005,0.351659
0.444099,0.351659
0.452202,0.351659
0.460503,0.351659
0.464806,0.391171
0.472801,0.391171
0.480904,0.458849
0.485306,0.458849
0.493301,0.530818
0.501404,0.530818
0.509705,0.530818
0.517799,0.572324
0.522102,0.572324
0.530205,0.572324
0.538300,0.572324
0.542603,0.572324
0.550606,0.618340
0.558899,0.618340
0.566902,0.682996
0.571304,0.750953
0.579300,0.750953
0.587402,0.750953
0.591705,0.797703
0.599800,0.797703
0.608101,0.797703
0.616203,0.797703
0.624306,0.797703
0.628601,0.797703
0.636704,0.909352
0.644699,0.909352
0.649101,0.974982
0.661102,0.974982
0.665405,0.974982
0.673500,0.974982
0.681603,1.042489
0.685906,1.042489
0.693901,1.086245
0.702004,1.086245
0.710304,1.086245
0.714600,1.086245
0.722702,1.152839
0.730804,1.152839
0.735100,1.221413
0.743202,1.267023
0.751305,1.312688
0.759605,1.312688
0.767601,1.312688
0.771904,1.312688
0.780006,1.312688
0.788200,1.312688
0.792404,1.424777
0.800499,1.489115
0.808800,1.489115
0.816803,1.489115
0.821106,1.489115
0.829201,1.489115
0.837303,1.489115
0.841606,1.600833
0.849701,1.600833
0.858002,1.600833
0.866005,1.600833
0.874100,1.600833
0.878502,1.600833
0.886505,1.648295
0.894600,1.648295
0.902702,1.712808
0.911003,1.712808
0.915306,1.760920
0.923500,1.760920
0.931503,1.760920
0.935806,1.760920
0.943802,1.760920
0.951904,1.873566
0.960205,1.873566
0.968300,1.873566
0.972603,1.873566
0.980705,1.873566
0.988800,1.924171
0.993103,1.924171
1.001205,1.924171
1.009506,1.924171
1.017502,1.924171
1.021805,2.037112
1.029900,2.037112
1.038002,2.037112
1.042305,2.037112
1.050400,2.037112
1.058701,2.037112
1.066704,2.037112
1.074806,2.037112
1.082901,2.089847
1.091202,2.089847
1.099403,2.089847
1.103706,2.089847
1.111801,2.089847
1.119904,2.089847
1.124199,2.089847
1.132202,2.089847
1.140503,2.089847
1.148605,2.089847
1.156700,2.089847
1.161003,2.148401
1.169106,2.148401
1.177200,2.030761
1.181503,2.030761
1.189499,2.030761
1.193802,1.975164
1.201904,1.975164
1.210106,1.975164
1.218201,1.975164
1.222504,1.975164
1.230606,1.975164
1.238602,1.975164
1.243004,1.975164
1.251106,1.975164
1.259300,1.975164
1.267403,1.919487
1.275505,1.867708
1.279800,1.867708
1.287903,1.808294
1.292099,1.808294
1.300301,1.808294
1.312401,1.808294
1.316605,1.754797
1.324699,1.705480
1.332802,1.705480
1.337105,1.705480
1.345200,1.705480
1.353203,1.705480
1.361504,1.705480
1.365906,1.656703
1.373901,1.542689
1.382004,1.542689
1.386299,1.542689
1.394402,1.542689
1.402504,1.542689
1.410805,1.542689
1.418900,1.497633
1.423203,1.457502
1.431305,1.457502
1.439301,1.457502
1.443703,1.457502
1.451706,1.457502
1.459999,1.457502
1.468102,1.385928
1.476204,1.385928
1.480499,1.385928
1.488602,1.385928
1.496605,1.385928
1.500999,1.385928
1.513100,1.385928
1.517303,1.385928
1.525406,1.354941
1.533501,1.354941
1.537804,1.330457
1.545906,1.330457
1.553902,1.330457
1.562202,1.330457
1.566605,1.330457
1.574600,1.330457
1.582703,1.330457
1.587006,1.330457
1.595100,1.251326
1.603203,1.153518
1.611504,1.153518
1.619499,1.133842
1.623901,1.133842
1.631905,1.133842
1.639999,1.133842
1.644302,1.133842
1.652405,1.133842
1.660706,1.133842
1.668701,1.133842
1.676903,1.122045
1.681206,1.122045
1.689201,1.122045
1.697304,1.113291
1.701706,1.113291
1.709900,1.113291
1.718002,1.113291
1.726105,1.113291
1.730400,1.113291
1.738503,1.113291
1.746506,1.113291
1.754601,1.113291
1.762901,1.113291
1.767204,1.113466
1.775299,1.116275
1.783401,1.116275
1.787704,1.116275
1.795700,1.116275
1.803902,1.116275
1.812103,1.116275
1.820206,1.116275
1.824501,1.116275
1.832703,1.116275
1.840904,1.116275
1.848999,1.116275
1.857201,1.116275
1.865303,1.116275
1.869499,1.116275
1.877602,1.116275
1.881905,1.116275
1.890106,1.116275
1.898300,1.116275
1.906303,1.116275
1.914406,1.116275
1.918800,1.116275
1.926804,1.116275
1.934906,1.116275
1.943199,1.116275
1.951302,1.116275
1.955704,1.116275
1.963699,1.116275
1.971802,1.116275
1.976105,1.116275
1.984200,1.116275
1.992401,1.116275
2.000702,1.116275
2.008705,1.116275
2.013000,1.116275
2.021103,1.116275
2.029205,1.116275
2.037300,1.116275
2.041702,1.116275
2.053604,1.116275
2.061905,1.116275
2.066200,1.116275
2.074203,1.116275
2.082405,1.116275
2.090599,1.037220
2.098801,1.037220
2.103104,1.037220
2.111305,1.037220
2.119301,1.046611
2.127403,1.046611
2.131805,1.046611
2.143700,1.046611
2.152000,1.046611
2.156303,1.046611
2.164299,1.046611
2.172501,1.046611
2.176704,1.046611
2.184799,1.046611
2.193001,1.046611
2.201202,1.046611
2.209404,1.046611
2.213600,1.046611
2.221603,1.046611
2.225906,1.046611
2.234001,1.046611
2.242203,1.046611
2.250504,1.046611
2.258606,1.046611
2.262802,1.046611
2.270905,1.046611
2.278999,1.046611
2.283302,1.046611
2.291504,1.046611
2.299706,1.046611
2.307701,0.968336
2.315804,0.968336
2.320099,0.968336
2.328201,0.968336
2.336205,0.968336
2.344406,0.968336
2.352699,0.968336
2.357002,0.968336
2.365105,0.968336
2.373199,0.968336
2.377403,0.968336
2.385506,0.968336
2.393700,0.968336
2.401802,0.958179
2.406204,0.958179
2.414200,0.958179
2.422401,0.958179
2.426605,0.958179
2.434700,0.951827
2.442902,0.951827
2.451004,0.951827
2.459106,0.951827
2.463501,1.031165
2.471504,1.031165
2.479599,1.031165
2.483902,1.031165
2.492203,1.031165
2.500305,1.031165
2.508301,1.031165
2.516502,1.031165
2.520805,1.031165
2.528801,1.031165
2.533104,1.031165
2.541306,1.031165
2.549500,1.031165
2.557602,1.031165
2.565704,1.031165
2.570000,1.031165
2.578102,1.031165
2.586205,1.031165
2.594299,1.031165
2.602600,1.031165
2.606903,1.031165
2.614906,1.031165
2.623001,1.031165
2.631203,1.031165
2.635506,1.031165
2.643600,1.031165
2.651901,1.031165
2.660004,1.031165
2.668106,1.031165
2.676102,1.031165
2.684402,1.031165
2.692604,1.031165
2.696899,1.031165
2.705002,1.031165
2.713203,1.031165
2.721306,1.031165
2.725700,1.031165
2.733803,1.031165
2.742004,1.031165
2.750206,1.031165
2.758400,1.031165
2.766403,1.037220
2.770706,1.037220
2.778702,1.037220
2.786903,1.037220
2.791100,1.037220
2.799202,1.037220
2.807205,1.037220
2.815506,1.037220
2.819801,1.116275
2.827805,1.116275
2.836006,1.116275
2.840202,1.116275
2.848305,1.116275
2.856506,1.116275
2.864700,1.116275
2.869003,1.116275
2.876999,1.116275
2.885101,1.116275
2.889503,1.116275
2.897499,1.034008
2.905602,1.034008
2.913902,1.034008
2.922005,1.034008
2.926300,1.034008
2.934402,1.046985
2.942703,1.046985
2.950905,1.046985
2.958900,1.046985
2.967003,1.046985
2.971405,1.046985
2.979500,1.046985
2.987503,1.046985
2.995705,1.046985
3.003906,1.046985
3.012199,1.046985
3.016502,1.046985
3.024605,1.046985
3.032806,1.046985
3.041000,1.046985
3.049202,1.046985
3.057205,1.062568
3.065399,1.062568
3.073502,1.062568
3.077805,1.062568
3.085899,1.062568
3.094101,1.062568
3.102402,1.062568
3.110504,0.985761
3.118500,0.985761
3.126701,0.985761
3.134903,0.985761
3.143204,0.985761
3.147499,0.985761
3.155602,1.065327
3.163803,1.065327
3.171806,1.065327
3.180000,1.065327
3.184303,1.065327
3.196304,1.065327
3.204605,1.065327
3.212799,0.988536
3.217102,0.933980
3.225204,0.933980
3.233299,0.933980
3.237503,0.860256
3.245705,0.936491
3.253906,0.936491
3.262199,0.936491
3.270203,0.917493
3.278305,0.917493
3.282600,0.917493
3.290703,0.972772
3.298706,0.974380
3.306900,0.974380
3.315201,0.974380
3.319504,0.924504
3.327499,0.988734
3.335701,0.988734
3.339905,0.988734
3.348000,1.019716
3.356201,1.089842
3.364403,1.089842
3.372505,1.089842
3.376801,1.057769
3.384903,1.057769
3.393005,1.057769
3.397301,1.057769
3.405403,1.131077
3.413704,1.131077
3.421806,1.186302
3.429802,1.167681
3.434204,1.167681
3.442200,1.167681
3.450302,1.167681
3.454704,1.245055
3.466705,1.245055
3.471001,1.245055
3.479004,1.327070
3.483406,1.327070
3.491402,1.327070
3.499504,1.327070
3.507599,1.327070
3.515900,1.327070
3.520203,1.404442
3.528305,1.486879
3.536400,1.486879
3.540703,1.476843
3.548706,1.476843
3.556801,1.470868
3.565102,1.470868
3.573204,1.549524
3.577499,1.632788
3.585602,1.632788
3.593704,1.632788
3.598000,1.632788
3.606102,1.632788
3.614304,1.632788
3.622505,1.716232
3.626701,1.793842
3.634804,1.793842
3.642906,1.793842
3.647202,1.793842
3.655304,1.877323
3.663605,1.877323
3.671600,1.877323
3.679703,1.955747
3.684006,1.955747
3.692101,1.955747
3.700104,2.039320
3.708305,2.041910
3.716606,2.041910
3.720901,2.120249
3.728905,2.125320
3.737106,2.125320
3.741402,2.208594
3.749405,2.286703
3.757599,2.286703
3.765800,2.286703
3.773903,2.370008
3.778305,2.455112
3.786301,2.455112
3.794403,2.455112
3.798706,2.455112
3.806801,2.455112
3.815002,2.455112
3.823105,2.616213
3.831200,2.616213
3.835503,2.616213
3.843605,2.616213
3.851601,2.616213
3.864601,2.616213
3.864799,2.616213
3.872299,2.687151
3.880402,2.687151
3.888504,2.687151
3.896805,2.687151
3.905006,2.687151
3.909302,2.687151
3.917404,2.687151
3.925499,2.687151
3.929802,2.687151
3.937805,2.687151
3.945999,2.687151
3.950203,2.687151
3.958305,2.687151
3.966499,2.687151
3.974602,2.605041
3.978905,2.603312
3.986900,2.603312
3.995102,2.603312
3.999306,2.603312
4.007500,2.603312
4.015701,2.603312
4.023804,2.605191
4.028099,2.605191
4.036201,2.605191
4.044205,2.605191
4.048599,2.603388
4.056702,2.603388
4.065002,2.603388
4.073006,2.525457
4.081100,2.525457
4.085403,2.525457
4.093506,2.525457
4.101501,2.526155
4.109604,2.526155
4.117905,2.526155
4.122200,2.526155
4.130302,2.526155
4.138405,2.526155
4.142700,2.526155
4.150703,2.526155
4.158806,2.526155
4.167206,2.526155
4.175301,2.442403
4.179504,2.367860
4.187599,2.367860
4.195801,2.374133
4.200005,2.374133
4.208206,2.374133
4.216400,2.374133
4.224403,2.374133
4.228806,2.374133
4.236900,2.374133
4.245102,2.374133
4.253403,2.374133
4.261406,2.374133
4.269501,2.374133
4.273804,2.374133
4.281906,2.374133
4.289902,2.374133
4.298203,2.374133
4.306503,2.290551
4.314606,2.213020
4.322800,2.213020
4.327003,2.213020
4.335106,2.213020
4.343201,2.213020
4.347504,2.213020
4.355804,2.213020
4.363899,2.213020
4.372002,2.213020
4.380005,2.213020
4.388199,2.213020
4.396500,2.213020
4.404800,2.213020
4.412804,2.213020
4.417206,2.213020
4.425301,2.213020
4.433304,2.213020
4.441406,2.213020
4.445900,2.213020
4.457802,2.213020
4.466103,2.213020
4.470306,2.213020
4.478500,2.213020
4.486702,2.213020
4.494904,2.213020
4.503105,2.213020
4.511200,2.213020
4.519302,2.213020
4.523605,2.213020
4.531700,2.213020
4.539803,2.213020
4.548004,2.213020
4.556206,2.213020
4.564400,2.213020
4.568703,2.213020
4.576805,2.213020
4.584999,2.213020
4.593102,2.213020
4.597404,2.213020
4.609306,2.213020
4.617706,2.213020
4.621902,2.135242
4.629906,2.135242
4.638199,2.135242
4.646400,2.135242
4.654602,2.135242
4.662704,2.213020
4.670906,2.213020
4.675201,2.213020
4.683205,2.213020
4.687599,2.213020
4.699402,2.213020
4.707802,2.213020
4.712105,2.213020
4.720200,2.213020
4.728203,2.213020
4.736504,2.213020
4.744606,2.213020
4.748901,2.213020
4.757103,2.213020
4.769203,2.213020
4.773399,2.213020
4.781502,2.213020
4.789703,2.213020
4.797905,2.213020
4.806206,2.213020
4.814201,2.213020
4.818504,2.213020
4.826706,2.213020
4.834999,2.213020
4.843002,2.213020
4.851006,2.213020
4.859306,2.213020
4.867500,2.213020
4.875702,2.213020
4.879906,2.213020
4.888199,2.213020
4.896400,2.213020
4.904602,2.213020
4.912704,2.213020
4.920700,2.135242
4.925102,2.135242
4.933205,2.145210
4.941200,2.145210
4.949402,2.145210
4.957703,2.145210
4.965805,2.145210
4.973999,2.145210
4.978302,2.145210
4.986504,2.145210
4.998505,2.145210
5.002800,2.145210
5.010902,2.145210
5.019104,2.145210
5.027206,2.145210
5.031502,2.145210
5.039604,2.145210
5.047806,2.145210
5.056099,2.145210
5.064201,2.145210
5.072304,2.145210
5.080406,2.145210
5.088699,2.145210
5.096901,2.145210
5.105003,2.145210
5.109306,2.145210
5.117500,2.145210
5.125603,2.145210
5.133606,2.145210
5.138100,2.145210
5.150002,2.145210
5.158302,2.145210
5.162605,2.145210
5.170601,2.145210
5.178703,2.145210
5.183105,2.145210
5.191299,2.145210
5.199303,2.145210
5.207603,2.145210
5.215805,2.145210
5.223999,2.145210
5.231903,2.062320
5.240105,2.062320
5.248405,2.062320
5.256599,2.062320
5.260902,2.062320
5.269005,2.062320
5.277100,2.062320
5.285202,2.062320
5.289505,2.062320
5.297699,2.062320
5.305901,2.062320
5.314003,2.062320
5.322105,2.062320
5.330200,2.062320
5.338501,2.062320
5.346703,2.062320
5.350906,2.062320
5.359100,2.062320
5.367401,2.062320
5.375504,2.062320
5.383499,2.062320
5.391602,2.062320
5.399902,2.062320
5.408203,2.062320
5.412506,2.062320
5.420601,2.062320
5.428703,2.062320
5.436905,2.062320
5.445000,2.062320
5.449303,2.062320
5.461205,2.062320
5.469505,2.062320
5.473900,2.062320
5.481903,2.062320
5.490105,2.062320
5.498405,2.062320
5.506599,2.062320
5.514702,2.062320
5.522705,2.062320
5.530899,2.062320
5.539200,2.062320
5.543404,2.062320
5.551506,2.062320
5.559700,2.062320
5.567902,2.062320
5.576004,2.062320
5.580299,1.974173
5.588600,1.974173
5.600502,1.974173
5.608803,1.974173
5.613106,1.974173
5.621201,1.974173
5.629303,1.974173
5.637505,1.974173
5.641800,1.966624
5.649902,1.966624
5.658203,1.966624
5.666405,1.966624
5.674500,1.966624
5.682503,1.966624
5.690804,1.966624
5.698906,1.966624
5.707199,1.966624
5.715202,1.966624
5.719604,1.961243
5.727699,1.961243
5.735802,1.968713
5.740105,1.968713
5.748306,1.968713
5.760300,1.968713
5.764702,1.968713
5.772705,1.961143
5.780899,1.961143
5.789101,1.961143
5.797302,1.961143
5.805405,1.961143
5.809799,1.961143
5.821800,1.961143
5.826004,1.961143
5.834106,1.961143
5.842201,1.961143
5.850403,1.961143
5.858604,1.961143
5.863106,1.961143
5.871101,1.961143
5.879204,1.961143
5.883499,1.961143
5.891502,1.961143
5.899704,1.961143
5.908005,2.051950
5.916100,2.051950
5.924202,2.044688
5.932304,2.044688
5.940605,2.044688
5.948799,2.044688
5.957001,2.044688
5.961304,2.044688
5.969505,2.051950
5.977501,2.051950
5.985603,2.051950
5.990005,2.051950
6.001900,2.051950
