time,angle
-0.474760,0.081565
-0.474601,0.081565
-0.474470,0.081565
-0.472071,0.081565
-0.467820,0.081565
-0.459781,0.081565
-0.451640,0.081565
-0.443380,0.081565
-0.439020,0.081565
-0.430990,0.081565
-0.422851,0.081565
-0.414600,0.081565
-0.406501,0.102792
-0.398411,0.102792
-0.394020,0.176939
-0.385970,0.176939
-0.377880,0.176939
-0.373550,0.176939
-0.365320,0.176939
-0.357090,0.176939
-0.349100,0.176939
-0.340990,0.176939
-0.336670,0.176939
-0.328640,0.176939
-0.320581,0.176939
-0.312361,0.176939
-0.304151,0.176939
-0.299871,0.176939
-0.291790,0.176939
-0.283670,0.176939
-0.279361,0.176939
-0.271351,0.176939
-0.263130,0.176939
-0.254911,0.176939
-0.246841,0.176939
-0.242500,0.102792
-0.234410,0.102792
-0.226340,0.102792
-0.222071,0.102792
-0.213861,0.102792
-0.205641,0.102792
-0.197600,0.102792
-0.189421,0.081565
-0.185201,0.081565
-0.177131,0.086229
-0.172791,0.086229
-0.164781,0.086229
-0.156680,0.086229
-0.152350,0.106531
-0.144160,0.106531
-0.136121,0.253338
-0.128020,0.253338
-0.123691,0.253338
-0.115650,0.253338
-0.107580,0.253338
-0.103101,0.253338
-0.091170,0.253338
-0.086930,0.336882
-0.078880,0.411645
-0.074520,0.411645
-0.066481,0.411645
-0.058420,0.411645
-0.050301,0.411645
-0.042010,0.411645
-0.037661,0.411645
-0.029631,0.411645
-0.021490,0.411645
-0.013261,0.411645
-0.005020,0.411645
0.002990,0.496928
0.007390,0.496928
0.015440,0.496928
0.023530,0.496928
0.027829,0.496928
0.036039,0.496928
0.044240,0.496928
0.052290,0.496928
0.060400,0.496928
0.064730,0.496928
0.072800,0.496928
0.080859,0.571982
0.085179,0.571982
0.093220,0.571982
0.101259,0.571982
0.109580,0.571982
0.113850,0.653719
0.121850,0.653719
0.130010,0.653719
0.134259,0.729810
0.142409,0.730614
0.150439,0.816852
0.158700,0.816852
0.163010,0.816852
0.171080,0.816852
0.179159,0.816852
0.183459,0.816852
0.191469,0.892629
0.199610,0.978188
0.207870,0.978188
0.216029,0.978188
0.220289,0.978188
0.228390,0.978188
0.236509,0.978188
0.240769,0.978188
0.248879,0.978188
0.257130,0.978188
0.265180,0.978188
0.269509,1.054805
0.277650,1.140209
0.285919,1.140209
0.294100,1.143979
0.302159,1.143979
0.310240,1.143979
0.314580,1.143979
0.322619,1.143979
0.330649,1.143979
0.338840,1.143979
0.343169,1.153009
0.351230,1.153009
0.359389,1.153009
0.363709,1.153009
0.371770,1.186467
0.379849,1.186467
0.384180,1.186467
0.392230,1.186467
0.400300,1.209984
0.408600,1.209984
0.416719,1.209984
0.420950,1.209984
0.429020,1.209984
0.437180,1.237646
0.441410,1.272417
0.449590,1.308358
0.457800,1.308358
0.465879,1.308358
0.470429,1.308358
0.478319,1.308358
0.486350,1.332074
0.490640,1.332074
0.498770,1.379417
0.507040,1.379417
0.515229,1.379417
0.523190,1.435042
0.527510,1.435042
0.535569,1.426973
0.543610,1.426973
0.548010,1.426973
0.560070,1.426973
0.564300,1.426973
0.572380,1.490297
0.580560,1.490297
0.584840,1.548387
0.592830,1.548387
0.600940,1.548387
0.609230,1.548387
0.613549,1.615558
0.621610,1.615558
0.629689,1.615558
0.633980,1.615558
0.642030,1.684350
0.650169,1.735283
0.658390,1.735283
0.666570,1.803525
0.670790,1.850020
0.678840,1.850020
0.683149,1.910391
0.691190,1.979915
0.699380,1.979915
0.707609,1.979915
0.715710,2.050423
0.719959,2.050423
0.727989,2.050423
0.732320,2.186596
0.740379,2.186596
0.748640,2.186596
0.756700,2.260187
0.764830,2.260187
0.769099,2.442162
0.777149,2.442162
0.785310,2.482228
0.789630,2.482228
0.797689,2.482228
0.805830,2.555582
0.810060,2.621370
0.818130,2.621370
0.822459,2.696024
0.830500,2.696024
0.838590,2.696024
0.842870,2.771422
0.850929,2.838763
0.859139,2.838763
0.867240,2.915107
0.871559,2.915107
0.879600,2.915107
0.887719,2.992055
0.891990,2.992055
0.900089,3.060750
0.908350,3.060750
0.916430,3.172249
0.920730,3.209125
0.928820,3.209125
0.936879,3.285570
0.941239,3.285570
0.949329,3.285570
0.957580,3.285570
0.965630,3.362550
0.973720,3.431252
0.978040,3.431252
0.986090,3.431252
0.994160,3.508945
1.002270,3.508945
1.010610,3.508945
1.014910,3.586978
1.022969,3.656555
1.031110,3.656555
1.035390,3.656555
1.043460,3.735230
1.051600,3.735230
1.059810,3.735230
1.067929,3.735230
1.072189,3.774965
1.080230,3.774965
1.088400,3.854934
1.092640,3.854934
1.100760,3.854934
1.109019,3.854934
1.117109,3.854934
1.121409,3.926005
1.129479,3.926005
1.137589,4.006484
1.141959,4.006484
1.150000,4.006484
1.158259,4.006484
1.166289,4.006484
1.174390,4.006484
1.178690,4.006484
1.186749,4.006484
1.194830,4.077895
1.199229,4.077895
1.211269,4.077895
1.215560,4.077895
1.223610,4.077895
1.231750,4.077895
1.235990,4.077895
1.244030,4.149542
1.252179,4.149542
1.260460,4.149542
1.264780,4.149542
1.272820,4.176827
1.280920,4.176827
1.285210,4.176827
1.293240,4.176827
1.301379,4.248007
1.309640,4.248007
1.313950,4.248007
1.321980,4.248007
1.330070,4.248007
1.334359,4.248007
1.342409,4.319422
1.350619,4.319422
1.358780,4.319422
1.366890,4.319422
1.371140,4.319422
1.379210,4.319422
1.383619,4.400106
1.391609,4.471857
1.399790,4.471857
1.408000,4.471857
1.416070,4.471857
1.420369,4.471857
1.428439,4.471857
1.436629,4.552942
1.440840,4.552942
1.449110,4.552942
1.457220,4.624867
1.465320,4.624867
1.473530,4.624867
1.477659,4.624867
1.485709,4.706235
1.490040,4.706235
1.501969,4.706235
1.506430,4.706235
1.514649,4.706235
1.522599,4.778482
1.526890,4.778482
1.535049,4.778482
1.542999,4.778482
1.551229,4.778482
1.559449,4.778482
1.563740,4.778482
1.571799,4.860106
1.579880,4.860106
1.584189,4.860106
1.592250,4.860106
1.600460,4.860106
1.608680,4.860106
1.616759,4.932606
1.621059,4.932606
1.629109,4.932606
1.637250,4.932606
1.641500,5.014423
1.649759,5.014423
1.657900,5.014423
1.665939,5.014423
1.674129,5.014423
1.678320,5.014423
1.686399,5.087156
1.690720,5.194333
1.702660,5.194333
1.710939,5.194333
1.715280,5.194333
1.723260,5.194333
1.727590,5.194333
1.735620,5.266968
1.743670,5.348959
1.751900,5.348959
1.760159,5.348959
1.768290,5.348959
1.772579,5.348959
1.780620,5.348959
1.784929,5.348959
1.792979,5.503990
1.801160,5.503990
1.809400,5.503990
1.817479,5.503990
1.821839,5.503990
1.829900,5.503990
1.837939,5.503990
1.842199,5.503990
1.850410,5.503990
1.858700,5.503990
1.866690,5.503990
1.874720,5.586302
1.882910,5.586302
1.891170,5.586302
1.899380,5.586302
1.903700,5.586302
1.911790,5.513311
1.919849,5.513311
1.924170,5.513311
1.932250,5.513311
1.940330,5.513311
1.944639,5.595626
1.952729,5.616776
1.960939,5.616776
1.969029,5.616776
1.973330,5.642572
1.981400,5.642572
1.989470,5.642572
1.993790,5.642572
2.001889,5.724301
2.010139,5.724301
2.018189,5.651769
2.026330,5.651769
2.030640,5.651769
2.038640,5.651769
2.042970,5.651769
2.051120,5.651769
2.063200,5.651769
2.067410,5.660951
2.075480,5.660951
2.079849,5.660951
2.087870,5.660951
2.095910,5.660951
2.104059,5.660951
2.112340,5.660951
2.116690,5.687616
2.124760,5.720910
2.132850,5.720910
2.137150,5.720910
2.145169,5.720910
2.153299,5.720910
2.161619,5.720910
2.169689,5.720910
2.174009,5.649029
2.182070,5.649029
2.190149,5.649029
2.194460,5.677855
2.202640,5.677855
2.210830,5.677855
2.218860,5.677855
2.227019,5.677855
2.231290,5.677855
2.239360,5.606403
2.247450,5.606403
2.251860,5.606403
2.263880,5.606403
2.268129,5.606403
2.276190,5.606403
2.280540,5.606403
2.288620,5.606403
2.296619,5.577278
2.304760,5.425095
2.313040,5.425095
2.317340,5.425095
2.325399,5.425095
2.333580,5.425095
2.337810,5.425095
2.345830,5.399242
2.353950,5.471171
2.362229,5.471171
2.370359,5.443774
2.374720,5.443774
2.382689,5.443774
2.387000,5.443774
2.395060,5.443774
2.403210,5.443774
2.411480,5.443774
2.419600,5.420578
2.427700,5.420578
2.431950,5.420578
2.440040,5.420578
2.444349,5.395248
2.452510,5.395248
2.460739,5.395248
2.468869,5.420578
2.476860,5.420578
2.484940,5.420578
2.493219,5.420578
2.501440,5.420578
2.505719,5.420578
2.514020,5.420578
2.521970,5.420578
2.526259,5.420578
2.534249,5.371624
2.542459,5.371624
2.550830,5.371624
2.558780,5.371624
2.563069,5.371624
2.571119,5.371624
2.579249,5.371624
2.583500,5.290428
2.591590,5.290428
2.595890,5.290428
2.603950,5.218493
2.612180,5.218493
2.620239,5.218493
2.624570,5.246766
2.632629,5.246766
2.640710,5.246766
2.644990,5.246766
2.653130,5.246766
2.661400,5.246766
2.669439,5.264624
2.677569,5.264624
2.681880,5.264624
2.689899,5.264624
2.697989,5.264624
2.702450,5.264624
2.714470,5.264624
2.718670,5.335828
2.726729,5.281383
2.734870,5.281383
2.739150,5.281383
2.747200,5.281383
2.755320,5.353391
2.763590,5.353391
2.767910,5.353391
2.775940,5.378333
2.784070,5.378333
2.788369,5.378333
2.796419,5.378333
2.804600,5.378333
2.812810,5.378333
2.820900,5.378333
2.825219,5.378333
2.833340,5.378333
2.841650,5.378333
2.849819,5.378333
2.857869,5.378333
2.865959,5.353391
2.870259,5.353391
2.878289,5.353391
2.886430,5.353391
2.890679,5.353391
2.898729,5.353391
2.903080,5.353391
2.915119,5.353391
2.919350,5.353391
2.927409,5.362497
2.935590,5.362497
2.939830,5.362497
2.947869,5.362497
2.955959,5.362497
2.964250,5.362497
2.968579,5.362497
2.976600,5.362497
2.984739,5.362497
2.988979,5.362497
2.997040,5.362497
3.005190,5.443774
3.013459,5.443774
3.021600,5.443774
3.025869,5.443774
3.033979,5.443774
3.042230,5.443774
3.050420,5.443774
3.058499,5.443774
3.066649,5.443774
3.070900,5.443774
3.078939,5.443774
3.083300,5.443774
3.095210,5.443774
3.103519,5.443774
3.107770,5.443774
3.115829,5.443774
3.123919,5.443774
3.128300,5.443774
3.136379,5.443774
3.144500,5.443774
3.152750,5.443774
3.160890,5.443774
3.169029,5.443774
3.173329,5.443774
3.181379,5.443774
3.189489,5.443774
3.193860,5.420578
3.202080,5.420578
3.210250,5.348043
3.218289,5.266373
3.226390,5.266373
3.230680,5.266373
3.238770,5.193993
3.246830,5.193993
3.255030,5.193993
3.263269,5.121740
3.267659,5.095392
3.275630,5.022973
3.283730,5.022973
3.288019,4.941495
3.296080,4.941495
3.304279,4.941495
3.312510,4.869288
3.320610,4.869288
3.324909,4.869288
3.332950,4.869288
3.341060,4.869288
3.345329,4.716132
3.353559,4.716132
3.361700,4.716132
3.369790,4.716132
3.377919,4.716132
3.382170,4.716132
3.390220,4.635190
3.394580,4.635190
3.406469,4.635190
3.414809,4.635190
3.419000,4.554448
3.427110,4.554448
3.431410,4.554448
3.439489,4.473871
3.447530,4.473871
3.455709,4.473871
3.463969,4.421953
3.468369,4.452806
3.476290,4.373765
3.484440,4.373765
3.488680,4.373765
3.496739,4.294913
3.504920,4.294913
3.513309,4.216354
3.517429,4.068809
3.525510,4.068809
3.533710,4.068809
3.537880,4.026425
3.545919,3.949875
3.554139,3.949875
3.562269,3.949875
3.570419,3.873633
3.574670,3.797874
3.582749,3.797874
3.587070,3.722522
3.595140,3.655966
3.603240,3.655966
3.611350,3.581460
3.615649,3.507494
3.623690,3.507494
3.628019,3.434104
3.636060,3.434104
3.644139,3.434104
3.648450,3.297050
3.656480,3.225494
3.664720,3.225494
3.672839,3.225494
3.677099,3.154612
3.685249,3.154612
3.693310,2.976903
3.697639,2.976903
3.705700,2.907307
3.713969,2.907307
3.721979,2.838763
3.726330,2.727352
3.734389,2.727352
3.742459,2.659180
3.746799,2.659180
3.754910,2.592085
3.763189,2.592085
3.771230,2.533273
3.779300,2.533273
3.783660,2.533273
3.791739,2.468310
3.799720,2.468310
3.804150,2.411515
3.816190,2.411515
3.820439,2.349104
3.828500,2.349104
3.836650,2.349104
3.840899,2.349104
3.848960,2.294564
3.857090,2.235284
3.865339,2.235284
3.869679,2.235284
3.877709,2.235284
3.885810,2.235284
3.890100,2.183551
3.898149,2.247509
3.906310,2.247509
3.914519,2.247509
3.922649,2.146304
3.926950,2.146304
3.934979,2.146304
3.939310,2.146304
3.947360,2.101055
3.955529,2.052903
3.963719,2.052903
3.971849,2.052903
3.976130,2.052903
3.984179,2.052903
3.992310,2.011589
3.996559,2.011589
4.004849,2.011589
4.012959,1.968315
4.021009,1.968315
4.029140,1.968315
4.033390,1.968315
4.041450,1.893826
4.045759,1.893826
4.053960,1.893826
4.062130,1.893826
4.070169,1.859201
4.078290,1.859201
4.082700,1.859201
4.090620,1.859201
4.098670,1.828206
4.106879,1.828206
4.111310,1.802548
4.119380,1.802548
4.127460,1.778173
4.131800,1.778173
4.139859,1.778173
4.147920,1.778173
4.156139,1.778173
4.164310,1.758028
4.168719,1.832910
4.176720,1.916119
4.184810,1.916119
4.189119,1.916119
4.197189,1.916119
4.205420,1.916119
4.213790,1.916119
4.221760,1.916119
4.229830,1.977046
4.234159,1.977046
4.242200,2.061181
4.250259,2.061181
4.258389,2.061181
4.266709,2.061181
4.271020,2.050709
4.279079,2.050709
4.287189,2.050709
4.291559,2.050709
4.299520,2.050709
4.307679,2.050709
4.315929,2.050709
4.324059,2.050709
4.328320,2.043635
4.336470,2.043635
4.344700,2.043635
4.352900,2.043635
4.360960,2.043635
4.369129,2.043635
4.373480,2.043635
4.381439,2.043635
4.389469,2.043635
4.397699,2.043635
4.405960,2.043635
4.410199,2.043635
4.418280,2.043635
4.426430,2.043635
4.430670,2.043635
4.438749,2.043635
4.443069,2.043635
4.451139,2.043635
4.459189,2.043635
4.467460,2.043635
4.471860,2.043635
4.479799,1.882216
4.487900,1.882216
4.492209,1.882216
4.500259,1.882216
4.508369,1.882216
4.517190,1.882216
4.524779,1.882216
4.528999,1.882216
4.537129,1.882216
4.545360,1.882216
4.553539,1.882216
4.561589,1.882216
4.569790,1.882216
4.574019,1.882216
4.582069,1.890102
4.586400,1.890102
4.598330,1.890102
4.606629,1.890102
4.610860,1.890102
4.618959,1.890102
4.623280,1.890102
4.631340,2.050996
4.639469,2.050996
4.647570,2.050996
4.651930,2.050996
4.660000,2.050996
4.668130,2.050996
4.676280,2.050996
4.680520,2.050996
4.688590,2.050996
4.692960,2.050996
4.700970,2.060991
4.709029,2.060991
4.717279,2.060991
4.725420,2.145119
4.729660,2.145119
4.737800,2.145119
4.746030,2.145119
4.759330,2.221406
4.762259,2.221406
4.770499,2.221406
4.774679,2.221406
4.782789,2.221406
4.787069,2.221406
4.795290,2.221406
4.807300,2.221406
4.811660,2.221406
4.819670,2.221406
4.827840,2.221406
4.836070,2.221406
4.840340,2.221406
4.848390,2.221406
4.856629,2.221406
4.864799,2.221406
4.872860,2.221406
4.877179,2.221406
4.885220,2.221406
4.893320,2.221406
4.897639,2.233357
4.905849,2.233357
4.914109,2.233357
4.922090,2.233357
4.930200,2.233357
4.934500,2.233357
4.942590,2.233357
4.950589,2.233357
4.958810,2.233357
4.967090,2.233357
4.971399,2.247770
4.979440,2.265722
4.987579,2.265722
4.991849,2.265722
4.999890,2.265722
5.008060,2.265722
5.016349,2.265722
5.024449,2.265722
5.028790,2.285247
5.036839,2.285247
5.044909,2.308849
5.049220,2.308849
5.057370,2.308849
5.065730,2.308849
5.073680,2.308849
5.081750,2.308849
5.086099,2.308849
5.094140,2.335484
5.102201,2.262870
5.110311,2.262870
5.118619,2.262870
5.122920,2.156856
5.130950,2.156856
5.139091,2.156856
5.143359,2.156856
5.151429,2.185880
5.159589,2.185880
5.167871,2.185880
5.175950,2.185880
5.180230,2.159124
5.188300,2.159124
5.196410,2.159124
5.200690,2.159124
5.208819,2.239395
5.217059,2.239395
5.225129,2.312492
5.233270,2.312492
5.237559,2.312492
5.245629,2.288072
5.249940,2.288072
5.258050,2.288072
5.266309,2.288072
5.274350,2.369760
5.282460,2.444325
5.286780,2.444325
5.294829,2.424305
5.302890,2.424305
5.310979,2.506865
5.319310,2.506865
5.323649,2.490493
5.331630,2.581643
5.339820,2.581643
5.344050,2.581643
5.352120,2.566206
5.360240,2.566206
5.368520,2.566206
5.376639,2.581037
5.380900,2.581037
5.388970,2.581037
5.397109,2.580354
5.401340,2.580354
5.409431,2.663372
5.417800,2.663372
5.425809,2.679565
5.430089,2.679565
5.438210,2.679565
5.446280,2.697838
5.450570,2.678761
5.458730,2.678761
5.466979,2.678761
5.475070,2.596235
5.483119,2.696677
5.487399,2.696677
5.495509,2.696677
5.503589,2.539909
5.507939,2.539909
5.520009,2.539909
5.524280,2.539909
5.532319,2.539909
5.540460,2.539909
5.544690,2.539909
5.552739,2.539909
5.560880,2.539909
5.569180,2.539909
5.573499,2.539909
5.581550,2.539909
5.589690,2.519948
5.597930,2.519948
5.606130,2.519948
5.614190,2.519948
5.622350,2.519948
5.626660,2.519948
5.634789,2.519948
5.642829,2.519948
5.651040,2.519948
5.659259,2.519948
5.667470,2.519948
5.671790,2.519948
5.679839,2.519948
5.687930,2.519948
5.692239,2.444646
5.700309,2.463866
5.708529,2.463866
5.716769,2.443765
5.724809,2.443765
5.732959,2.443765
5.737199,2.443765
5.745269,2.519016
5.749759,2.519016
5.757869,2.519016
5.769860,2.519016
5.774079,2.537442
5.782149,2.537442
5.786479,2.537442
5.794570,2.537442
5.802590,2.537442
5.810719,2.537442
5.819020,2.537442
5.823329,2.537442
5.831370,2.619428
5.839469,2.619428
5.843780,2.601583
5.851830,2.677299
5.859979,2.677299
5.868340,2.677299
5.876340,2.677299
5.880689,2.677299
5.888730,2.677299
5.896819,2.661975
5.901139,2.661975
5.909259,2.661975
5.917579,2.661975
5.925620,2.661975
5.933650,2.661975
5.938020,2.661975
5.946010,2.662343
5.954099,2.662343
5.958499,2.662343
5.970590,2.662343
5.974799,2.732300
5.982869,2.732300
5.991000,2.808886
5.995299,2.808886
6.003299,2.808886
