time,angle
-0.499695,0.059347
-0.491585,0.059347
-0.483521,0.059347
-0.479111,0.059347
-0.471092,0.059347
-0.463020,0.059347
-0.458695,0.059347
-0.450455,0.059347
-0.442253,0.059347
-0.434212,0.059347
-0.426140,0.059347
-0.421814,0.059347
-0.413796,0.059347
-0.405762,0.059347
-0.397530,0.059347
-0.389267,0.059347
-0.385040,0.059347
-0.376930,0.059347
-0.368813,0.059347
-0.364533,0.059347
-0.356506,0.059347
-0.348305,0.059347
-0.340126,0.059347
-0.335785,0.059347
-0.327705,0.059347
-0.319641,0.059347
-0.315300,0.059347
-0.307251,0.059347
-0.299034,0.059347
-0.290871,0.059347
-0.282814,0.059347
-0.278442,0.059347
-0.270393,0.059347
-0.262306,0.059347
-0.258026,0.059347
-0.249817,0.059347
-0.241631,0.059347
-0.233566,0.019782
-0.225433,0.019782
-0.221085,0.019782
-0.213127,0.019782
-0.205086,0.019782
-0.196877,0.019782
-0.188583,0.019782
-0.184227,0.019782
-0.176277,0.019782
-0.171967,0.019782
-0.163864,0.019782
-0.155830,0.019782
-0.147621,0.019782
-0.139420,0.019782
-0.134941,0.086229
-0.127022,0.086229
-0.118881,0.086229
-0.114647,0.086229
-0.106606,0.086229
-0.098381,0.086229
-0.090187,0.086229
-0.082100,0.086229
-0.077797,0.086229
-0.069771,0.086229
-0.061623,0.086229
-0.057304,0.086229
-0.049133,0.086229
-0.040932,0.086229
-0.032883,0.086229
-0.024780,0.086229
-0.020515,0.086229
-0.012405,0.086229
-0.008110,0.086229
0.000069,0.086229
0.012085,0.086229
0.016388,0.086229
0.024460,0.086229
0.032623,0.086229
0.040756,0.086229
0.045105,0.086229
0.053154,0.086229
0.061378,0.086229
0.069633,0.086229
0.077660,0.086229
0.082039,0.086229
0.093895,0.086229
0.102188,0.086229
0.106484,0.086229
0.114639,0.086229
0.122765,0.086229
0.130867,0.086229
0.135140,0.086229
0.143234,0.086229
0.151489,0.086229
0.159706,0.086229
0.167770,0.086229
0.172073,0.086229
0.180145,0.086229
0.188255,0.086229
0.192528,0.086229
0.200760,0.086229
0.212738,0.086229
0.217110,0.086229
0.225143,0.086229
0.233315,0.086229
0.241608,0.086229
0.249779,0.132704
0.257866,0.132704
0.262177,0.132704
0.274216,0.132704
0.278519,0.132704
0.286514,0.205584
0.294693,0.205584
0.298973,0.205584
0.306984,0.246288
0.315094,0.362077
0.323395,0.362077
0.327690,0.362077
0.335754,0.426585
0.343864,0.426585
0.348160,0.493372
0.356194,0.567173
0.364296,0.608129
0.372597,0.608129
0.380707,0.676086
0.384956,0.787085
0.393013,0.787085
0.401199,0.787085
0.405418,0.969548
0.413605,0.969548
0.421829,0.969548
0.429863,1.112236
0.434219,1.263311
0.442268,1.263311
0.450363,1.331045
0.454666,1.445368
0.462776,1.513231
0.471046,1.513231
0.479103,1.668122
0.487190,1.806886
0.491554,1.806886
0.499710,1.921627
0.507614,2.028737
0.512039,2.168621
0.524086,2.168621
0.528320,2.283020
0.536369,2.424789
0.540680,2.424789
0.548775,2.644713
0.556824,2.712238
0.565018,2.826532
0.573227,2.826532
0.577568,3.006350
0.585625,3.188009
0.593674,3.188009
0.598000,3.368076
0.606033,3.442873
0.614174,3.549610
0.622459,3.549610
0.630570,3.729774
0.634888,3.844252
0.642937,3.844252
0.651024,3.986443
0.655304,4.091320
0.663414,4.205843
0.671700,4.205843
0.679733,4.348165
0.687866,4.528656
0.692177,4.528656
0.700203,4.567375
0.704536,4.709856
0.712685,4.890405
0.724747,4.890405
0.728996,4.928872
0.737160,5.109369
0.745224,5.109369
0.749474,5.252066
0.757507,5.366369
0.765663,5.547118
0.773903,5.547118
0.778214,5.690475
0.786255,5.871259
0.794380,5.871259
0.798668,5.908765
0.806717,6.089401
0.814835,6.270260
0.823105,6.270260
0.831276,6.413682
0.835518,6.594039
0.843597,6.594039
0.851700,6.709025
0.855980,6.889371
0.864090,7.070465
0.872360,7.070465
0.880394,7.250631
0.884750,7.366364
0.892807,7.366364
0.900894,7.468711
0.905190,7.649834
0.913330,7.792914
0.921677,7.792914
0.929657,7.946088
0.937714,8.088934
0.942078,8.088934
0.950127,8.268640
0.958183,8.385297
0.966293,8.564950
0.974594,8.564950
0.978905,8.668004
0.986954,8.847355
0.995064,8.847355
0.999443,8.964710
1.007408,9.107290
1.015594,9.325420
1.023804,9.325420
1.031944,9.404102
1.036194,9.622510
1.044243,9.622510
1.052399,9.764890
1.056664,9.943801
1.064758,9.983081
1.073029,9.983081
1.081268,10.125410
1.085419,10.343450
1.093483,10.343450
1.101624,10.422660
1.105904,10.640890
1.114105,10.783010
1.122284,10.783010
1.130325,10.859480
1.138405,11.001060
1.142738,11.001060
1.150810,11.157360
1.158867,11.298800
1.163254,11.361010
1.175346,11.361010
1.179565,11.517360
1.187668,11.658750
1.195770,11.778750
1.200066,11.778750
1.208107,11.877080
1.216209,11.956770
1.224449,11.956770
1.232643,12.058870
1.236885,12.175280
1.244949,12.175280
1.253098,12.175280
1.257355,12.316510
1.265480,12.357140
1.273705,12.357140
1.281799,12.473690
1.286110,12.534760
1.294174,12.655660
1.302277,12.655660
1.306580,12.655660
1.314705,12.692570
1.322937,12.692570
1.331039,12.753290
1.339104,12.833180
1.343414,12.833180
1.351463,12.833180
1.359566,12.911670
1.363914,12.911670
1.375977,12.911670
1.380226,12.911670
1.388290,12.911670
1.396400,12.911670
1.404663,12.911670
1.412857,12.911670
1.417160,12.911670
1.425270,12.911670
1.433434,12.911670
1.437660,12.949850
1.445724,12.986790
1.453926,12.986790
1.462166,12.986790
1.470284,12.986790
1.478363,12.986790
1.482697,12.986790
1.490738,12.986790
1.498886,12.986790
1.503143,12.986790
1.511360,12.986790
1.519386,13.066630
1.527565,13.066630
1.531807,13.066630
1.539864,13.127140
1.547997,13.127140
1.552223,13.127140
1.560310,13.127140
1.568367,13.207300
1.576660,13.207300
1.580910,13.207300
1.588974,13.207300
1.597038,13.207300
1.605293,13.207300
1.613564,13.207300
1.617813,13.207300
1.625900,13.207300
1.634018,13.207300
1.638344,13.207300
1.646400,13.207300
1.654617,13.207300
1.662819,13.171100
1.670967,13.171100
1.679054,13.231980
1.683388,13.231980
1.691444,13.231980
1.699509,13.272720
1.703903,13.272720
1.715843,13.272720
1.724113,13.272720
1.728394,13.272720
1.736580,13.272720
1.744614,13.272720
1.748894,13.454810
1.756950,13.454810
1.765190,13.454810
1.773323,13.454810
1.781456,13.631900
1.785713,13.631900
1.793777,13.631900
1.801918,13.753620
1.806160,13.813930
1.814377,13.813930
1.822647,13.813930
1.830727,13.894780
1.838783,13.990780
1.843109,13.990780
1.851135,14.112730
1.859184,14.112730
1.863647,14.112730
1.875664,14.112730
1.879990,14.112730
1.888054,14.289460
1.896149,14.289460
1.900490,14.289460
1.908524,14.330890
1.916634,14.330890
1.924896,14.330890
1.933014,14.330890
1.937294,14.330890
1.945374,14.367210
1.953484,14.367210
1.957809,14.447850
1.965897,14.447850
1.974106,14.447850
1.982170,14.447850
1.990257,14.447850
1.994659,14.447850
2.006607,14.447850
2.014915,14.447850
2.019150,14.447850
2.027229,14.447850
2.031586,14.447850
2.039619,14.447850
2.047646,14.447850
2.055870,14.447850
2.064095,14.447850
2.072250,14.447850
2.076546,14.447850
2.084625,14.447850
2.092850,14.447850
2.100914,14.447850
2.105225,14.447850
2.113518,14.447850
2.121666,14.447850
2.129707,14.507450
2.137779,14.507450
2.142105,14.507450
2.150154,14.630000
2.158203,14.630000
2.166443,14.630000
2.174660,14.630000
2.179016,14.630000
2.187065,14.630000
2.195129,14.630000
2.199463,14.549210
2.207497,14.591340
2.215736,14.591340
2.223938,14.591340
2.232040,14.591340
2.236450,14.591340
2.244507,14.591340
2.256508,14.591340
2.264809,14.591340
2.269028,14.591340
2.277130,14.591340
2.285217,14.591340
2.289543,14.591340
2.297615,14.591340
2.305817,14.591340
2.314079,14.591340
2.322250,14.591340
2.330299,14.591340
2.338463,14.591340
2.342705,14.591340
2.350754,14.628200
2.355156,14.628200
2.367119,14.628200
2.375343,14.628200
2.379639,14.569250
2.387695,14.569250
2.395836,14.569250
2.400085,14.569250
2.408180,14.686850
2.416336,14.686850
2.424660,14.745680
2.432709,14.703020
2.436974,14.826070
2.445038,14.826070
2.453163,14.863180
2.457397,15.002350
2.465630,15.083040
2.473793,15.083040
2.481880,15.119810
2.486183,15.259190
2.494225,15.259190
2.502319,15.338840
2.506630,15.419470
2.514793,15.419470
2.523033,15.558740
2.531090,15.595370
2.539169,15.719320
2.543449,15.719320
2.551483,15.895100
2.559555,15.895100
2.567726,15.895100
2.576088,16.019340
2.580299,16.114040
2.588356,16.194980
2.596558,16.194980
2.600800,16.333080
2.608810,16.413990
2.617004,16.413990
2.625244,16.413990
2.633385,16.538780
2.637627,16.633040
2.645706,16.633040
2.653870,16.633040
2.658104,16.633040
2.666290,16.633040
2.674545,16.633040
2.682648,16.677190
2.690704,16.677190
2.695030,16.677190
2.703087,16.677190
2.711136,16.677190
2.715530,16.677190
2.727570,16.677190
2.731903,16.677190
2.739914,16.639940
2.748070,16.559040
2.752319,16.559040
2.760376,16.559040
2.768478,16.559040
2.776726,16.559040
2.781090,16.501980
2.789124,16.421360
2.797195,16.421360
2.801559,16.421360
2.809624,16.421360
2.817719,16.421360
2.825989,16.421360
2.834137,16.383760
2.838364,16.303130
2.846436,16.303130
2.854584,16.246010
2.858856,16.246010
2.867020,16.246010
2.875214,16.246010
2.883293,16.165640
2.891380,16.165640
2.895683,16.165640
2.903748,16.064000
2.911819,15.983800
2.916183,15.983800
2.928238,15.983800
2.932510,15.983800
2.940575,15.926660
2.944916,15.926660
2.952980,15.885480
2.961014,15.840400
2.969124,15.783400
2.977440,15.783400
2.981735,15.783400
2.989784,15.703840
2.997940,15.703840
3.002190,15.703840
3.010239,15.646940
3.018349,15.646940
3.026604,15.646940
3.034737,15.522240
3.039009,15.522240
3.047073,15.522240
3.055229,15.465260
3.059464,15.465260
3.067619,15.465260
3.075897,15.465260
3.083900,15.419940
3.088234,15.340680
3.096298,15.340680
3.104393,15.283620
3.108696,15.283620
3.116814,15.283620
3.125114,15.283620
3.133156,15.238280
3.141243,15.159210
3.145554,15.159210
3.153648,15.159210
3.161644,15.102030
3.166237,15.102030
3.178116,15.102030
3.182404,15.062540
3.190460,14.983510
3.198593,14.983510
3.202965,14.983510
3.210960,14.802020
3.219086,14.683600
3.227295,14.683600
3.235435,14.626120
3.239700,14.507670
3.247780,14.507670
3.255928,14.326170
3.260193,14.207800
3.268318,14.031540
3.276558,14.031540
3.284615,13.908120
3.288948,13.731740
3.297020,13.613480
3.305099,13.613480
3.309418,13.432130
3.317535,13.255500
3.325790,13.255500
3.333900,13.092740
3.341980,12.915840
3.346306,12.779060
3.354347,12.779060
3.362366,12.616450
3.370560,12.361590
3.378799,12.361590
3.383110,12.140020
3.391289,12.022210
3.399315,12.022210
3.403580,11.840990
3.411613,11.663440
3.419754,11.364530
3.427963,11.364530
3.432320,11.143020
3.440338,11.005590
3.448433,10.783830
3.452858,10.783830
3.460808,10.528820
3.469009,10.306950
3.488480,10.306950
3.488609,10.125860
3.489670,9.871057
3.497650,9.871057
3.505806,9.648993
3.510094,9.529452
3.518204,9.350823
3.526428,9.350823
3.534500,9.170012
3.542610,8.948193
3.546890,8.948193
3.554924,8.726612
3.559250,8.588353
3.567375,8.366518
3.575653,8.366518
3.583710,8.110144
3.591743,7.930855
3.596085,7.930855
3.604118,7.750359
3.612160,7.528246
3.616646,7.347748
3.628624,7.347748
3.632927,7.168121
3.640968,6.987749
3.649094,6.987749
3.653374,6.765556
3.661400,6.627707
3.669563,6.405177
3.677803,6.405177
3.682137,6.224914
3.690208,6.044811
3.698296,6.044811
3.702660,5.748184
3.710693,5.568205
3.718796,5.387943
3.727058,5.387943
3.735138,5.272026
3.739464,5.165319
3.747528,5.165319
3.755608,4.985388
3.759933,4.804729
3.768059,4.624910
3.776390,4.624910
3.784386,4.508760
3.792450,4.329115
3.796753,4.329115
3.804779,4.148363
3.812904,4.011955
3.817276,3.788169
3.829315,3.788169
3.833557,3.716416
3.841614,3.492671
3.845985,3.492671
3.854034,3.357188
3.862068,3.176751
3.870193,2.998525
3.878464,2.998525
3.882805,2.818348
3.890884,2.703636
3.898979,2.703636
3.903259,2.523597
3.911369,2.298229
3.919456,2.166634
3.927719,2.166634
3.935860,1.940175
3.940094,1.877636
3.948189,1.877636
3.956390,1.714521
3.960648,1.584121
3.968925,1.356818
3.977005,1.356818
3.985054,1.231465
3.993134,1.055732
3.997490,1.055732
4.005486,1.002882
4.013580,0.826616
4.017960,0.657301
4.030014,0.657301
4.034279,0.657301
4.042320,0.428872
4.046654,0.428872
4.054726,0.347742
4.062737,0.347742
4.070869,0.174713
4.079170,0.174713
4.083466,0.269069
4.091507,0.227282
4.099670,0.227282
4.103905,0.373253
4.111954,0.457140
4.120110,0.538503
4.128357,0.538503
4.136490,0.714364
4.140770,0.810117
4.148849,0.810117
4.156975,0.889335
4.161240,0.987546
4.169365,1.094322
4.177650,1.094322
4.185699,1.169021
4.193840,1.347265
4.198120,1.347265
4.206154,1.347265
4.210518,1.499852
4.218643,1.499852
4.226868,1.499852
4.234924,1.499852
4.242989,1.677248
4.247330,1.677248
4.255386,1.677248
4.263435,1.859201
4.267868,1.859201
4.279846,1.859201
4.284134,1.934821
4.292168,1.960944
4.300407,1.960944
4.304626,2.037016
4.312683,2.037016
4.320770,2.112574
4.329010,2.112574
4.333344,2.139088
4.341415,2.139088
4.349480,2.139088
4.353813,2.290210
4.361839,2.290210
4.369980,2.290210
4.378265,2.290210
4.386360,2.392202
4.390640,2.392202
4.398758,2.392202
4.406799,2.467914
4.411110,2.467914
4.419273,2.543606
4.427505,2.543606
4.435608,2.543606
4.443657,2.543606
4.448029,2.543606
4.455994,2.620026
4.460320,2.620026
4.468719,2.620026
4.480560,2.620026
4.484779,2.696314
4.492828,2.696314
4.497200,2.696314
4.505226,2.696314
4.513290,2.696314
4.521408,2.773117
4.529694,2.773117
4.534027,2.802188
4.542076,2.802188
4.550163,2.802188
4.554489,2.802188
4.562538,2.802188
4.570633,2.802188
4.578903,2.802188
4.587036,2.802188
4.591293,2.802188
4.599426,2.802188
4.607559,2.802188
4.611748,2.833449
4.619888,2.908855
4.628143,2.908855
4.636200,2.908855
4.640549,2.908855
4.648628,2.908855
4.656708,2.908855
4.660988,2.908855
4.669113,2.908855
4.677406,2.908855
4.685440,2.908855
4.693466,2.883305
4.701614,2.883305
4.709877,2.883305
4.718117,2.883305
4.722450,2.883305
4.730507,2.883305
4.738609,2.883305
4.746780,2.883305
4.751114,2.883305
4.759224,2.883305
4.767509,2.883305
4.775696,2.883305
4.783737,2.883305
4.791817,2.908855
4.800049,2.908855
4.808319,2.908855
4.816475,2.908855
4.824547,2.908855
4.828918,2.908855
4.836990,2.908855
4.845055,2.908855
4.849434,2.908855
4.857658,2.908855
4.869583,2.908855
4.873970,2.908855
4.882004,2.908855
4.890099,2.908855
4.898338,2.883305
4.902657,2.883305
4.910713,2.883305
4.918953,2.883305
4.927139,2.883305
4.935188,2.883305
4.939529,2.883305
4.947609,2.883305
4.955658,2.883305
4.959953,2.883305
4.968193,2.883305
4.976395,2.807143
4.984428,2.807143
4.992500,2.731225
5.000687,2.731225
5.008949,2.731225
5.017090,2.731225
5.021370,2.731225
5.029617,2.731225
5.037598,2.731225
5.045723,2.731225
5.050003,2.731225
5.058060,2.731225
5.062393,2.731225
5.070465,2.731225
5.078728,2.731225
5.086777,2.655423
5.094864,2.580278
5.099197,2.580278
5.107216,2.580278
5.115318,2.580278
5.119690,2.580278
5.131813,2.580278
5.135994,2.580278
5.144043,2.580278
5.148384,2.580278
5.156433,2.580278
5.164474,2.580278
5.172615,2.580278
5.180908,2.580278
5.185234,2.505069
5.193260,2.505069
5.201416,2.505069
5.209679,2.505069
5.217896,2.430675
5.225929,2.430675
5.230293,2.430675
5.238388,2.430675
5.246506,2.430675
5.254593,2.430675
5.262726,2.430675
5.270950,2.430675
5.279305,2.430675
5.283516,2.430675
5.291618,2.430675
5.299828,2.430675
5.308075,2.430675
5.316116,2.430675
5.324150,2.397432
5.332443,2.397432
5.336678,2.371329
5.344749,2.371329
5.349083,2.371329
5.357178,2.371329
5.365250,2.294820
5.373337,2.294820
5.381607,2.294820
5.385918,2.219379
5.393929,2.219379
5.402100,2.219379
5.410339,2.219379
5.418556,2.219379
5.426613,2.219379
5.430954,2.219379
5.438988,2.219379
5.447136,2.219379
5.451424,2.219379
5.459534,2.219379
5.467720,2.219379
5.475754,2.219379
5.480164,2.219379
5.488220,2.219379
5.496330,2.143750
5.500725,2.143750
5.508667,2.143750
5.516769,2.143750
5.521049,2.037016
5.529266,2.037016
5.537308,2.037016
5.545418,2.037016
5.549789,2.037016
5.561729,2.037016
5.570007,2.037016
5.574295,2.037016
5.582375,2.037016
5.590485,2.037016
5.594749,2.037016
5.602814,2.037016
5.610893,2.037016
5.619133,2.037016
5.623375,1.960944
5.631546,1.960944
5.639618,1.960944
5.643959,1.960944
5.652000,1.934821
5.660095,1.934821
5.664383,1.934821
5.672455,1.934821
5.680710,1.934821
5.688805,1.859201
5.693069,1.859201
5.701134,1.859201
5.709267,1.859201
5.713516,1.859201
5.721687,1.830880
5.729897,1.830880
5.737938,1.830880
5.742279,1.830880
5.750420,1.830880
5.758675,1.830880
5.766853,1.830880
5.774879,1.830880
5.782997,1.830880
5.787338,1.830880
5.795395,1.830880
5.803444,1.753123
5.811653,1.753123
5.819916,1.753123
5.828033,1.753123
5.832565,1.753123
5.840515,1.753123
5.848808,1.753123
5.856934,1.753123
5.864998,1.677248
5.873077,1.677248
5.881416,1.677248
5.889488,1.677248
5.893715,1.677248
5.901886,1.677248
5.910103,1.677248
5.918335,1.677248
5.926346,1.677248
5.934570,1.677248
5.938828,1.677248
5.946983,1.677248
5.955025,1.677248
5.963150,1.677248
5.971420,1.677248
5.979630,1.677248
5.987747,1.677248
5.992020,1.677248
6.000259,1.677248
6.008507,1.677248
