time,angle
-0.493614,0.171320
-0.485695,0.171320
-0.481308,0.171320
-0.473221,0.171320
-0.465141,0.171320
-0.460861,0.171320
-0.452660,0.171320
-0.440651,0.171320
-0.436340,0.193827
-0.428284,0.251010
-0.420189,0.251010
-0.411919,0.251010
-0.407715,0.251010
-0.399612,0.251010
-0.391380,0.251010
-0.383171,0.251010
-0.375069,0.251010
-0.370773,0.251010
-0.362549,0.251010
-0.354324,0.251010
-0.346191,0.251010
-0.338181,0.251010
-0.329971,0.251010
-0.325668,0.251010
-0.317604,0.251010
-0.309494,0.251010
-0.301270,0.251010
-0.293045,0.251010
-0.284943,0.251010
-0.280640,0.251010
-0.272545,0.251010
-0.264374,0.251010
-0.256325,0.251010
-0.248200,0.251010
-0.239960,0.251010
-0.231690,0.251010
-0.227379,0.251010
-0.219368,0.251010
-0.211128,0.251010
-0.202904,0.251010
-0.194809,0.251010
-0.186768,0.251010
-0.178444,0.251010
-0.174225,0.251010
-0.166161,0.251010
-0.158112,0.251010
-0.149864,0.251010
-0.141594,0.251010
-0.137314,0.251010
-0.129204,0.251010
-0.121132,0.251010
-0.116852,0.251010
-0.108788,0.251010
-0.100601,0.251010
-0.092361,0.251010
-0.084244,0.251010
-0.079941,0.251010
-0.071823,0.251010
-0.063599,0.251010
-0.055588,0.251010
-0.047455,0.251010
-0.039314,0.251010
-0.031021,0.251010
-0.026733,0.251010
-0.018684,0.251010
-0.010468,0.251010
-0.002258,0.310274
0.005806,0.310274
0.010109,0.310274
0.018341,0.310274
0.026398,0.310274
0.034462,0.310274
0.038849,0.361536
0.050812,0.361536
0.059052,0.361536
0.063339,0.361536
0.071411,0.361536
0.079559,0.361536
0.083786,0.361536
0.091858,0.361536
0.096191,0.361536
0.104332,0.420114
0.112351,0.420114
0.120598,0.420114
0.128685,0.378976
0.132950,0.378976
0.141029,0.378976
0.149262,0.378976
0.157501,0.420114
0.165566,0.420114
0.169922,0.420114
0.177940,0.420114
0.186028,0.420114
0.190346,0.420114
0.198540,0.420114
0.206780,0.420114
0.214836,0.420114
0.222900,0.485778
0.227211,0.485778
0.235275,0.485778
0.243378,0.485778
0.247719,0.485778
0.255859,0.485778
0.263901,0.485778
0.272072,0.485778
0.276398,0.485778
0.284439,0.485778
0.292572,0.420579
0.296829,0.420579
0.304886,0.472298
0.312943,0.472298
0.321205,0.472298
0.325531,0.539592
0.333595,0.539592
0.341682,0.539592
0.345978,0.539592
0.354042,0.539592
0.362137,0.539592
0.370407,0.539592
0.378555,0.560230
0.382782,0.560230
0.390862,0.560230
0.399040,0.638884
0.403282,0.615485
0.411377,0.615485
0.419640,0.615485
0.427696,0.615485
0.432045,0.595776
0.440102,0.595776
0.448181,0.679262
0.452461,0.679262
0.460648,0.756147
0.468872,0.756147
0.476906,0.831572
0.484985,0.831572
0.489319,0.831572
0.497368,0.839068
0.505547,0.927884
0.509880,0.927884
0.521889,0.927884
0.526291,0.927884
0.534195,1.020291
0.538528,1.020291
0.546608,1.097179
0.554627,1.201545
0.562752,1.219809
0.571060,1.219809
0.575401,1.298901
0.583466,1.319824
0.591576,1.319824
0.595856,1.472331
0.603897,1.504802
0.612022,1.530718
0.620285,1.530718
0.628372,1.606691
0.632698,1.634225
0.640732,1.634225
0.648857,1.749324
0.653122,1.851078
0.661247,1.924578
0.669518,1.924578
0.677582,2.001836
0.681877,2.073299
0.689957,2.073299
0.698021,2.108493
0.702377,2.108493
0.710518,2.282848
0.722588,2.282848
0.726807,2.331038
0.734879,2.438393
0.739212,2.438393
0.747269,2.438393
0.755318,2.597064
0.763413,2.597064
0.771759,2.597064
0.776039,2.756053
0.784096,2.822512
0.792206,2.822512
0.796501,2.822512
0.804588,2.984981
0.812676,3.048189
0.820969,3.048189
0.829071,3.156473
0.833359,3.211625
0.841408,3.211625
0.849548,3.255640
0.853806,3.438491
0.861916,3.482903
0.870209,3.482903
0.878250,3.604403
0.886375,3.649963
0.890686,3.649963
0.898750,3.815518
0.903046,3.877675
0.911156,3.985018
0.919418,3.985018
0.927490,3.985018
0.935600,4.213148
0.939896,4.213148
0.947960,4.213148
0.955986,4.213148
0.960396,4.383874
0.972435,4.383874
0.976730,4.383874
0.984741,4.496536
0.992889,4.496536
0.997162,4.496536
1.005211,4.724846
1.013336,4.724846
1.021599,4.724846
1.029762,4.724846
1.033997,4.775325
1.042122,4.775325
1.046417,4.897971
1.054466,4.948944
1.062592,4.948944
1.070839,4.948944
1.078918,4.948944
1.083229,5.014658
1.091309,5.014658
1.099396,5.123232
1.103691,5.123232
1.111809,5.177140
1.120102,5.177140
1.128128,5.177140
1.136238,5.177140
1.140556,5.177140
1.148590,5.234988
1.156693,5.234988
1.161057,5.285648
1.173096,5.285648
1.177376,5.351377
1.185432,5.351377
1.193581,5.463214
1.197876,5.463214
1.205902,5.463214
1.214027,5.463214
1.222282,5.463214
1.226677,5.463214
1.234695,5.463214
1.242760,5.463214
1.247086,5.518107
1.255142,5.577384
1.263252,5.577384
1.271492,5.577384
1.279610,5.641460
1.283897,5.696844
1.291992,5.696844
1.300102,5.696844
1.304352,5.756804
1.312477,5.756804
1.320770,5.756804
1.328781,5.813116
1.336929,5.813116
1.341202,5.813116
1.349251,5.813116
1.353668,5.885198
1.361717,5.885198
1.369995,5.885198
1.378021,5.946661
1.386078,6.004267
1.390442,6.004267
1.398552,6.067179
1.406555,6.067179
1.414665,6.125544
1.423042,6.125544
1.427269,6.125544
1.435341,6.125544
1.443428,6.125544
1.447777,6.189444
1.455879,6.248554
1.463905,6.248554
1.472160,6.248554
1.480286,6.248554
1.484627,6.248554
1.492622,6.248554
1.500870,6.373260
1.505028,6.431968
1.513138,6.431968
1.521530,6.431968
1.529457,6.431968
1.533806,6.491597
1.541832,6.491597
1.549919,6.557298
1.554245,6.515357
1.562355,6.576081
1.570656,6.576081
1.578682,6.576081
1.586761,6.643223
1.591087,6.643223
1.599152,6.704522
1.607178,6.704522
1.611649,6.704522
1.623680,6.704522
1.627899,6.834347
1.635941,6.834347
1.644112,6.834347
1.648346,6.834347
1.656418,6.965425
1.664558,7.020208
1.672821,7.020208
1.680977,7.020208
1.685219,7.089252
1.693306,7.089252
1.697662,7.151681
1.705666,7.151681
1.713829,7.221403
1.722061,7.221403
1.730125,7.284295
1.734489,7.284295
1.742531,7.284295
1.750626,7.354687
1.754929,7.354687
1.763031,7.417964
1.771309,7.417964
1.779366,7.489045
1.787468,7.541736
1.791786,7.541736
1.799835,7.541736
1.807892,7.541736
1.812302,7.676341
1.824326,7.676341
1.828621,7.711925
1.836647,7.711925
1.844818,7.711925
1.849037,7.711925
1.857101,7.711925
1.865250,7.711925
1.873489,7.711925
1.877815,7.711925
1.885872,7.846629
1.893982,7.846629
1.898300,7.846629
1.906319,7.846629
1.914482,7.846629
1.922768,7.846629
1.930847,7.899136
1.935143,7.899136
1.943207,7.899136
1.951309,7.899136
1.955620,7.899136
1.963669,7.899136
1.971977,7.899136
1.979996,7.899136
1.984329,7.970556
1.992401,7.970556
2.000465,7.970556
2.004807,7.970556
2.012932,7.970556
2.021202,7.970556
2.029228,7.970556
2.037277,8.034117
2.045410,8.034117
2.053696,8.034117
2.061897,8.034117
2.066231,8.034117
2.074295,8.034117
2.082359,8.034117
2.086739,8.034117
2.094795,8.034117
2.103012,8.034117
2.111252,8.069130
2.119461,8.069130
2.127449,8.122141
2.135567,8.122141
2.143822,8.122141
2.152016,8.122141
2.160179,8.122141
2.164452,8.122141
2.172638,8.122141
2.180702,8.122141
2.185028,8.122141
2.193146,8.193356
2.201416,8.193356
2.213440,8.193356
2.217697,8.193356
2.225761,8.256520
2.233902,8.256520
2.242096,8.256520
2.246376,8.256520
2.254486,8.256520
2.262711,8.256520
2.270966,8.256520
2.279007,8.256520
2.287056,8.256520
2.295242,8.256520
2.303482,8.256520
2.307930,8.221727
2.315971,8.221727
2.324112,8.221727
2.332222,8.221727
2.336517,8.221727
2.344612,8.293892
2.352867,8.293892
2.361015,8.357782
2.369080,8.357782
2.377251,8.357782
2.381485,8.357782
2.389595,8.357782
2.397621,8.357782
2.405815,8.357782
2.414085,8.357782
2.422325,8.357782
2.426628,8.357782
2.434700,8.357782
2.442932,8.357782
2.451218,8.421727
2.459167,8.421727
2.463509,8.421727
2.475586,8.421727
2.479836,8.421727
2.487915,8.421727
2.496086,8.388598
2.500412,8.388598
2.508362,8.461880
2.527191,8.461880
2.527359,8.461880
2.529045,8.461880
2.537132,8.461880
2.545242,8.526524
2.553490,8.526524
2.561661,8.526524
2.569702,8.526524
2.574097,8.526524
2.582146,8.526524
2.590218,8.526524
2.594528,8.494633
2.602737,8.494633
2.610992,8.494633
2.619102,8.494633
2.627106,8.494633
2.635269,8.494633
2.639542,8.494633
2.647568,8.494633
2.655731,8.494633
2.664009,8.494633
2.672188,8.494633
2.680298,8.559651
2.684647,8.559651
2.692856,8.559651
2.701096,8.559651
2.709190,8.559651
2.717232,8.528689
2.725418,8.528689
2.729759,8.528689
2.737839,8.528689
2.745895,8.528689
2.754128,8.528689
2.762337,8.634017
2.770409,8.634017
2.774727,8.699287
2.782776,8.699287
2.790932,8.699287
2.795189,8.699287
2.803261,8.699287
2.807571,8.699287
2.815605,8.774090
2.823845,8.774090
2.831886,8.774090
2.836212,8.774090
2.844292,8.774090
2.852379,8.774090
2.856667,8.839602
2.864792,8.914845
2.873062,8.914845
2.881081,8.914845
2.889198,8.914845
2.893486,8.914845
2.901588,8.914845
2.905876,8.990359
2.914017,8.990359
2.926056,8.990359
2.930336,8.990359
2.938370,8.990359
2.942719,8.990359
2.950775,9.066095
2.958832,9.132090
2.966988,9.132090
2.975266,9.132090
2.979652,9.208227
2.987640,9.208227
2.995758,9.208227
3.000046,9.208227
3.008110,9.208227
3.016220,9.350928
3.024490,9.350928
3.032600,9.378612
3.036896,9.378612
3.044960,9.378612
3.053085,9.378612
3.057335,9.378612
3.065460,9.378612
3.073715,9.378612
3.081779,9.378612
3.089912,9.378612
3.094177,9.378612
3.102226,9.378612
3.106552,9.425439
3.114708,9.501605
3.126785,9.501605
3.131027,9.501605
3.139061,9.567497
3.147202,9.567497
3.155449,9.567497
3.163658,9.567497
3.168007,9.567497
3.176056,9.567497
3.184128,9.567497
3.188461,9.567497
3.196487,9.501605
3.204720,9.501605
3.212875,9.501605
3.220955,9.455006
3.225311,9.378612
3.233376,9.378612
3.241447,9.312576
3.245766,9.266074
3.253822,9.266074
3.261932,9.266074
3.266235,9.199901
3.274475,9.199901
3.282486,9.077293
3.290596,9.077293
3.294922,9.010988
3.302986,9.010988
3.311142,8.937714
3.315407,8.861022
3.327469,8.861022
3.331718,8.861022
3.339760,8.794329
3.347939,8.718008
3.352196,8.718008
3.360237,8.690274
3.368362,8.568480
3.376625,8.568480
3.380936,8.501519
3.389008,8.425201
3.397125,8.425201
3.401428,8.349108
3.409477,8.282496
3.417587,8.178102
3.425827,8.178102
3.433960,8.102321
3.438202,7.960378
3.446320,7.885283
3.454521,7.885283
3.458672,7.780437
3.466782,7.714062
3.475021,7.714062
3.483109,7.639335
3.487411,7.467949
3.495529,7.467949
3.503586,7.393615
3.507866,7.253796
3.515991,7.100173
3.524261,7.100173
3.532295,6.960128
3.540405,6.854492
3.544716,6.854492
3.552757,6.715014
3.557076,6.593266
3.565231,6.494708
3.577301,6.494708
3.581535,6.421381
3.589592,6.201216
3.593925,6.201216
3.601997,6.127944
3.610046,6.127944
3.618172,5.907969
3.626457,5.907969
3.630829,5.834689
3.638832,5.735384
3.646942,5.735384
3.651237,5.662232
3.659279,5.509328
3.667442,5.442117
3.675705,5.442117
3.683807,5.321929
3.688072,5.290317
3.696136,5.290317
3.704262,5.216465
3.708542,5.117224
3.716652,4.997791
3.724907,4.997791
3.733002,4.967278
3.737282,4.892768
3.745369,4.892768
3.753426,4.750359
3.757736,4.750359
3.765915,4.675291
3.774147,4.675291
3.782188,4.604364
3.790276,4.604364
3.794640,4.604364
3.802658,4.500890
3.810722,4.460981
3.815102,4.435750
3.827141,4.435750
3.831436,4.287473
3.839470,4.287473
3.847610,4.287473
3.851891,4.225263
3.859940,4.147230
3.868073,4.124025
3.876335,4.124025
3.884476,4.089261
3.888771,4.089261
3.896812,4.089261
3.904945,3.916367
3.909225,3.883478
3.917328,3.883478
3.925606,3.883478
3.933685,3.784600
3.937965,3.711090
3.946045,3.711090
3.954140,3.680361
3.958420,3.600109
3.966568,3.582881
3.974815,3.582881
3.982872,3.480428
3.990952,3.480428
3.995270,3.480428
4.003342,3.399321
4.011375,3.399321
4.015785,3.284139
4.027832,3.284139
4.032082,3.284139
4.040115,3.202285
4.044487,3.202285
4.052536,3.102866
4.060562,3.102866
4.068741,3.102866
4.076996,3.102866
4.081322,3.027309
4.089386,3.004917
4.097481,3.004917
4.101776,2.913024
4.109825,2.913024
4.117958,2.818140
4.126236,2.818140
4.134338,2.818140
4.138618,2.725270
4.146675,2.725270
4.154816,2.725270
4.159065,2.725270
4.167229,2.634479
4.175468,2.634479
4.183517,2.634479
4.191635,2.461879
4.195930,2.461879
4.203987,2.461879
4.212082,2.375946
4.216469,2.298825
4.228546,2.298825
4.232758,2.298825
4.240822,2.131573
4.245155,2.131573
4.253227,2.054333
4.261238,2.052140
4.269379,1.890619
4.277702,1.890619
4.281982,1.830238
4.290039,1.839837
4.298172,1.839837
4.302437,1.764805
4.310486,1.681443
4.318626,1.622809
4.326881,1.622809
4.335007,1.571096
4.339272,1.490691
4.347336,1.490691
4.355492,1.448884
4.359726,1.380552
4.367867,1.277482
4.376122,1.277482
4.384186,1.277482
4.388542,1.250544
4.396599,1.250544
4.404625,1.197956
4.408966,1.256476
4.417107,1.156568
4.425392,1.156568
4.433472,1.186467
4.441490,1.186467
4.445847,1.186467
4.453941,1.191897
4.461929,1.191897
4.466347,1.247568
4.478386,1.247568
4.482635,1.294676
4.490715,1.294676
4.498886,1.294676
4.503181,1.373019
4.511162,1.365444
4.519356,1.371307
4.527580,1.371307
4.535690,1.450099
4.539932,1.548513
4.547989,1.548513
4.552368,1.548513
4.560371,1.558716
4.568527,1.661775
4.576782,1.661775
4.584846,1.737763
4.589172,1.737763
4.597252,1.737763
4.605347,1.754128
4.609619,1.754128
4.617760,1.855618
4.626022,1.855618
4.634071,1.935731
4.642159,1.956848
4.646461,1.956848
4.654526,1.956848
4.658836,2.030858
4.667015,2.030858
4.679062,2.030858
4.683289,2.023521
4.691345,2.097792
4.695702,2.097792
4.703766,2.097792
4.711807,2.097792
4.719925,2.172588
4.728210,2.172588
4.732559,2.193745
4.740608,2.193745
4.748672,2.193745
4.752998,2.267881
4.761017,2.267881
4.769180,2.260273
4.777451,2.260273
4.785561,2.334729
4.789856,2.334729
4.797920,2.334729
4.806015,2.334729
4.810318,2.409485
4.818451,2.430755
4.826698,2.430755
4.834778,2.430755
4.842865,2.476544
4.847145,2.476544
4.855232,2.476544
4.859520,2.476544
4.867676,2.497165
4.875908,2.497165
4.883987,2.571616
4.892029,2.571616
4.896370,2.571616
4.904427,2.571616
4.912498,2.593746
4.920601,2.667705
4.928886,2.667705
4.933220,2.667705
4.941269,2.667705
4.949371,2.667705
4.953667,2.691300
4.961700,2.691300
4.969841,2.691300
4.978096,2.691300
4.986259,2.764704
4.990509,2.764704
4.998589,2.764704
5.006691,2.764704
5.010948,2.789866
5.019081,2.789866
5.027336,2.789866
5.035416,2.789866
5.039726,2.862796
5.047806,2.862796
5.055885,2.862796
5.060188,2.862796
5.068336,2.830546
5.076645,2.830546
5.084625,2.830546
5.092735,2.830546
5.097038,2.830546
5.105087,2.904612
5.113152,2.904612
5.117561,2.928105
5.129608,2.928105
5.133896,2.928105
5.141922,2.928105
5.150047,2.928105
5.154335,2.928105
5.162445,2.928105
5.170570,2.928105
5.178780,2.928105
5.186935,3.001723
5.191162,3.001723
5.199310,3.001723
5.207619,3.001723
5.215767,3.001723
5.223816,3.001723
5.231979,3.001723
5.236221,3.001723
5.244278,3.026468
5.248650,3.026468
5.256821,3.026468
5.268822,3.026468
5.273186,3.026468
5.281242,3.026468
5.289375,3.026468
5.297615,3.026468
5.305801,3.026468
5.313835,3.026468
5.318237,3.026468
5.330292,3.026468
5.334541,3.026468
5.342575,3.026468
5.350708,3.026468
5.358955,3.026468
5.367195,3.026468
5.371498,3.026468
5.379616,3.026468
5.387672,3.026468
5.391975,3.001723
5.400032,3.001723
5.408142,3.001723
5.416306,3.001723
5.420631,2.928105
5.428741,2.928105
5.436790,2.850256
5.441116,2.850256
5.449211,2.850256
5.457306,2.850256
5.461678,2.850256
5.469688,2.826047
5.477936,2.826047
5.486015,2.826047
5.494118,2.826047
5.498497,2.826047
5.506447,2.826047
5.514542,2.752215
5.518951,2.752215
5.530960,2.752215
5.535217,2.752215
5.543266,2.721461
5.551407,2.721461
5.559631,2.721461
5.567856,2.721461
5.572159,2.721461
5.580246,2.721461
5.588326,2.721461
5.592636,2.700811
5.600708,2.700811
5.608780,2.700811
5.613068,2.700811
5.621132,2.700811
5.629356,2.700811
5.637459,2.700811
5.641731,2.700811
5.649788,2.700811
5.657921,2.700811
5.662186,2.674081
5.670296,2.674081
5.678642,2.674081
5.686630,2.674081
5.690956,2.658075
5.699036,2.658075
5.707092,2.658075
5.711411,2.658075
5.719536,2.734735
5.727806,2.734735
5.735855,2.713032
5.743965,2.713032
5.748245,2.713032
5.756310,2.713032
5.764389,2.713032
5.768791,2.713032
5.780815,2.713032
5.785080,2.713032
5.793121,2.713032
5.801277,2.713032
5.809517,2.713032
5.817719,2.713032
5.825821,2.713032
5.830162,2.713032
5.838211,2.713032
5.846336,2.713032
5.850632,2.713032
5.858818,2.713032
5.867096,2.713032
5.875198,2.702478
5.883232,2.702478
5.891319,2.702478
5.899597,2.784037
5.907860,2.784037
5.912102,2.784037
5.920212,2.862044
5.928467,2.862044
5.936508,2.862044
5.944557,2.862044
5.948982,2.862044
5.960930,2.862044
5.969215,2.862044
5.973480,2.845444
5.981590,2.845444
5.989700,2.845444
5.993950,2.845444
6.002022,2.845444
