time,angle
-0.492683,0.000000
-0.484345,0.000000
-0.476357,0.000000
-0.468300,0.000000
-0.460167,0.000000
-0.451874,0.000000
-0.443649,0.000000
-0.439369,0.000000
-0.431244,0.000000
-0.423180,0.000000
-0.418877,0.000000
-0.410797,0.000000
-0.402618,0.000000
-0.394363,0.000000
-0.386269,0.000000
-0.378113,0.000000
-0.373848,0.000000
-0.365700,0.000000
-0.357643,0.000000
-0.349526,0.000000
-0.341278,0.000000
-0.333046,0.000000
-0.328728,0.000000
-0.320664,0.000000
-0.312424,0.000000
-0.304207,0.000000
-0.296013,0.000000
-0.287979,0.000000
-0.279823,0.000000
-0.275490,0.000000
-0.267448,0.000000
-0.259399,0.000000
-0.251167,0.000000
-0.242920,0.000000
-0.234757,0.000000
-0.230370,0.081565
-0.222366,0.081565
-0.214104,0.081565
-0.205963,0.081565
-0.197884,0.165511
-0.189766,0.165511
-0.181419,0.165511
-0.177177,0.165511
-0.169136,0.165511
-0.160988,0.165511
-0.152718,0.165511
-0.144455,0.081565
-0.136444,0.081565
-0.128357,0.106531
-0.123955,0.106531
-0.115738,0.106531
-0.107689,0.106531
-0.099556,0.106531
-0.091377,0.106531
-0.083130,0.106531
-0.075020,0.106531
-0.070717,0.106531
-0.062393,0.106531
-0.050560,0.106531
-0.042274,0.106531
-0.038017,0.106531
-0.029907,0.106531
-0.021774,0.106531
-0.013557,0.106531
-0.009224,0.106531
-0.001144,0.106531
0.007103,0.106531
0.019150,0.172459
0.023415,0.172459
0.031456,0.172459
0.039650,0.172459
0.047905,0.172459
0.056091,0.172459
0.064140,0.172459
0.068672,0.172459
0.076660,0.172459
0.084747,0.172459
0.092812,0.172459
0.100990,0.172459
0.109245,0.172459
0.117470,0.172459
0.125664,0.172459
0.129860,0.172459
0.138092,0.172459
0.146355,0.172459
0.154526,0.172459
0.162552,0.172459
0.170731,0.172459
0.175041,0.172459
0.183083,0.172459
0.191177,0.172459
0.199471,0.172459
0.207642,0.172459
0.215752,0.172459
0.220085,0.172459
0.228157,0.172459
0.236267,0.153233
0.240547,0.153233
0.248680,0.153233
0.256981,0.153233
0.265137,0.071326
0.273186,0.081565
0.281281,0.081565
0.285637,0.081565
0.293671,0.159490
0.301743,0.159490
0.309967,0.159490
0.318153,0.243090
0.322525,0.243090
0.330521,0.320206
0.338631,0.320206
0.342957,0.404452
0.350983,0.404452
0.359291,0.404452
0.367416,0.481733
0.375496,0.572666
0.379807,0.591822
0.387871,0.591822
0.395973,0.591822
0.400276,0.748081
0.408501,0.748081
0.416695,0.748081
0.424767,0.851108
0.432823,0.924292
0.437195,0.924292
0.445274,0.924292
0.453293,1.031165
0.461441,1.103581
0.469772,1.103581
0.477867,1.103581
0.482117,1.258966
0.490196,1.258966
0.498344,1.281916
0.502602,1.363149
0.510735,1.462060
0.518982,1.462060
0.527031,1.543196
0.531387,1.543196
0.539482,1.543196
0.547501,1.641037
0.551926,1.721583
0.559967,1.721583
0.568222,1.721583
0.576263,1.821772
0.584343,1.902178
0.588707,1.902178
0.596726,1.902178
0.604797,1.902178
0.609184,1.902178
0.621246,1.902178
0.625534,1.930974
0.633560,2.081119
0.641693,2.081119
0.645950,2.081119
0.654022,2.081119
0.662117,2.081119
0.670456,2.081119
0.674736,2.112203
0.689415,2.262091
0.690857,2.262091
0.695190,2.262091
0.703301,2.262091
0.711365,2.262091
0.719650,2.262091
0.727760,2.342847
0.732040,2.342847
0.740112,2.342847
0.748184,2.413543
0.752564,2.413543
0.760651,2.494812
0.768883,2.494812
0.776932,2.521657
0.785065,2.592010
0.789345,2.592010
0.797394,2.592010
0.805473,2.673202
0.809876,2.673202
0.821930,2.673202
0.826172,2.743881
0.834244,2.743881
0.842430,2.743881
0.846634,2.825770
0.854752,2.825770
0.862801,2.825770
0.871071,2.825770
0.875404,2.979336
0.883461,2.979336
0.891563,2.979336
0.895882,2.979336
0.903961,3.061965
0.912064,3.061965
0.920326,3.061965
0.928421,3.085530
0.932747,3.156473
0.940804,3.156473
0.948914,3.156473
0.953262,3.156473
0.961281,3.156473
0.969650,3.156473
0.977623,3.238880
0.985741,3.238880
0.990097,3.238880
0.998100,3.238880
1.006180,3.238880
1.010567,3.238880
1.022621,3.238880
1.026855,3.238880
1.034912,3.238880
1.043106,3.321719
1.047333,3.321719
1.055450,3.321719
1.063484,3.321719
1.071777,3.321719
1.076080,3.321719
1.084114,3.296575
1.092232,3.296575
1.096512,3.296575
1.104591,3.296575
1.112717,3.368657
1.120987,3.368657
1.129097,3.452130
1.133377,3.452130
1.141457,3.472882
1.149597,3.472882
1.153862,3.472882
1.161957,3.472882
1.170227,3.472882
1.178261,3.472882
1.182594,3.472882
1.190697,3.472882
1.198746,3.472882
1.206863,3.472882
1.211212,3.472882
1.219543,3.472882
1.227493,3.556168
1.235580,3.578124
1.239906,3.578124
1.247940,3.578124
1.256027,3.578124
1.260406,3.578124
1.272461,3.578124
1.276764,3.578124
1.284767,3.601958
1.292915,3.601958
1.297180,3.601958
1.305252,3.601958
1.313347,3.601958
1.321632,3.601958
1.325935,3.601958
1.334007,3.601958
1.342087,3.601958
1.346413,3.627632
1.354485,3.709402
1.362572,3.709402
1.370880,3.709402
1.378937,3.709402
1.383247,3.709402
1.391335,3.709402
1.399445,3.736121
1.403770,3.666822
1.411842,3.666822
1.420166,3.666822
1.428177,3.636473
1.436325,3.636473
1.440582,3.636473
1.448631,3.663884
1.456711,3.745125
1.461082,3.715045
1.473145,3.715045
1.477417,3.715045
1.485451,3.645186
1.493607,3.642230
1.497917,3.642230
1.505943,3.642230
1.514061,3.642230
1.522316,3.642230
1.526634,3.612975
1.534714,3.651036
1.542786,3.651036
1.547112,3.651036
1.555183,3.621636
1.563271,3.621636
1.571541,3.621636
1.579636,3.648031
1.583946,3.618499
1.592003,3.548396
1.600105,3.548396
1.604416,3.548396
1.612511,3.627093
1.620804,3.627093
1.628830,3.627093
1.636940,3.627093
1.641235,3.627093
1.649307,3.709190
1.657425,3.705969
1.661751,3.705969
1.673820,3.705969
1.678085,3.705969
1.686180,3.678019
1.694313,3.678019
1.698593,3.760621
1.706627,3.760621
1.714714,3.760621
1.723061,3.760621
1.727341,3.734653
1.735420,3.817981
1.743500,3.889474
1.747917,3.889474
1.755905,3.889474
1.763962,3.889474
1.772232,3.889474
1.780334,3.949775
1.784622,3.949775
1.792740,3.931936
1.800827,3.931936
1.805107,3.931936
1.813202,3.931936
1.821510,3.931936
1.829514,4.004430
1.837677,4.004430
1.841942,4.004430
1.850006,4.004430
1.858101,4.004430
1.862480,3.988702
1.870804,3.988702
1.878754,3.988702
1.886864,3.988702
1.891167,3.988702
1.899246,3.988702
1.907265,4.008634
1.915405,4.008634
1.923683,4.008634
1.927986,4.008634
1.936043,3.993069
1.944160,3.993069
1.948502,3.993069
1.956520,4.066064
1.964607,4.066064
1.972870,4.066064
1.981010,3.981035
1.985367,4.000761
1.993347,4.000761
2.001495,3.985362
2.005745,3.985362
2.013855,3.985362
2.022133,3.985362
2.030167,3.985362
2.034515,4.077655
2.042610,4.062788
2.050652,4.062788
2.055000,4.062788
2.063080,4.062788
2.071365,4.062788
2.079407,3.982068
2.087494,3.982068
2.091927,3.982068
2.099884,3.982068
2.107925,3.883226
2.112335,3.883226
2.124420,3.883226
2.128632,3.816288
2.136696,3.802357
2.144852,3.802357
2.149117,3.802357
2.157181,3.802357
2.165352,3.643789
2.173553,3.643789
2.181702,3.643789
2.185936,3.558810
2.193993,3.558810
2.198387,3.558810
2.206383,3.485488
2.214485,3.386800
2.222763,3.386800
2.230827,3.386800
2.235146,3.386800
2.243210,3.386800
2.251305,3.420451
2.255615,3.420451
2.263733,3.420451
2.272003,3.420451
2.280037,3.420451
2.288185,3.420451
2.292480,3.420451
2.300560,3.420451
2.308601,3.441792
2.312996,3.441792
2.325066,3.441792
2.329300,3.441792
2.337372,3.357888
2.345535,3.357888
2.349777,3.357888
2.357857,3.357888
2.365967,3.357888
2.374222,3.357888
2.378563,3.182969
2.386650,3.182969
2.394714,3.182969
2.399033,3.255640
2.407074,3.205340
2.415192,3.205340
2.423500,3.205340
2.431564,3.205340
2.435867,3.121924
2.443932,3.121924
2.452034,3.121924
2.456337,3.121924
2.464493,3.121924
2.472687,3.121924
2.480721,3.038798
2.488861,2.966891
2.493141,2.966891
2.501175,2.966891
2.505501,2.966891
2.513641,2.884119
2.521912,2.884119
2.529953,2.884119
2.538040,2.839453
2.542427,2.839453
2.550461,2.839453
2.558472,2.839453
2.566605,2.865872
2.574913,2.865872
2.579201,2.865872
2.587280,2.785161
2.595421,2.785161
2.599670,2.816750
2.607727,2.816750
2.615814,2.816750
2.624092,2.816750
2.632240,2.816750
2.636482,2.816750
2.644554,2.816750
2.648865,2.816750
2.656937,2.816750
2.665077,2.850050
2.673363,2.850050
2.681450,2.771210
2.685783,2.771210
2.693871,2.771210
2.705856,2.771210
2.710327,2.771210
2.718376,2.771210
2.726456,2.771210
2.734627,2.771210
2.738876,2.771210
2.746986,2.739026
2.751266,2.739026
2.759300,2.739026
2.767357,2.739026
2.775597,2.739026
2.779892,2.670418
2.787956,2.670418
2.796066,2.670418
2.804314,2.670418
2.812492,2.670418
2.820610,2.591406
2.824936,2.591406
2.832977,2.591406
2.841110,2.591406
2.845375,2.591406
2.853455,2.591406
2.857773,2.591406
2.865822,2.591406
2.874046,2.591406
2.882080,2.591406
2.886490,2.445606
2.894493,2.445606
2.902580,2.445606
2.906876,2.445606
2.914970,2.445606
2.923294,2.445606
2.931297,2.445606
2.939323,2.445606
2.943771,2.445606
2.955711,2.445606
2.960136,2.445606
2.968231,2.445606
2.976341,2.445606
2.984467,2.445606
2.988747,2.445606
2.996796,2.445606
3.005005,2.445606
3.013222,2.445606
3.021317,2.445606
3.025627,2.445606
3.033707,2.445606
3.041794,2.445606
3.046066,2.523441
3.054100,2.523441
3.062271,2.445606
3.066574,2.445606
3.074760,2.558797
3.082802,2.558797
3.090897,2.558797
3.095253,2.521812
3.103523,2.521812
3.115440,2.521812
3.119865,2.521812
3.127914,2.521812
3.136024,2.521812
3.140320,2.521812
3.148460,2.521812
3.156540,2.521812
3.164810,2.521812
3.173012,2.454394
3.181061,2.340256
3.185471,2.340256
3.193497,2.340256
3.201576,2.340256
3.205902,2.160301
3.214081,2.160301
3.226105,2.160301
3.230377,2.047079
3.238457,1.978629
3.246605,1.978629
3.250847,1.866974
3.258904,1.798418
3.267067,1.721015
3.275406,1.721015
3.283455,1.539768
3.287766,1.505712
3.295815,1.359267
3.303940,1.359267
3.308220,1.216597
3.316315,1.102339
3.324677,1.102339
3.332626,0.921324
3.336937,0.855237
3.345024,0.855237
3.353081,0.740721
3.357414,0.603932
3.365547,0.559881
3.373795,0.559881
3.381844,0.427959
3.389946,0.379492
3.394257,0.379492
3.402336,0.254109
3.410431,0.200769
3.418495,0.200769
3.426804,0.200769
3.431122,0.200769
3.439171,0.120331
3.447281,0.120331
3.451576,0.027976
3.459610,0.027976
3.467743,0.027976
3.476021,0.027976
3.484131,0.027976
3.488510,0.027976
3.496536,0.027976
3.504814,0.027976
3.513000,0.027976
3.521034,0.027976
3.529190,0.027976
3.533493,0.027976
3.541534,0.027976
3.549576,0.027976
3.557877,0.027976
3.566055,0.027976
3.574242,0.027976
3.578514,0.088469
3.586571,0.088469
3.594727,0.088469
3.599007,0.088469
3.607086,0.088469
3.615364,0.088469
3.623520,0.166689
3.631607,0.166689
3.635986,0.249446
3.644005,0.249446
3.652084,0.249446
3.656425,0.249446
3.664680,0.249446
3.676666,0.249446
3.680862,0.332203
3.688965,0.427043
3.693245,0.427043
3.701317,0.427043
3.709351,0.427043
3.717552,0.427043
3.725807,0.427043
3.730110,0.427043
3.738136,0.507834
3.746445,0.507834
3.754562,0.507834
3.762634,0.507834
3.766945,0.507834
3.775192,0.507834
3.783234,0.535223
3.791397,0.535223
3.799431,0.535223
3.807663,0.535223
3.815903,0.535223
3.820236,0.535223
3.828270,0.535223
3.836456,0.535223
3.840645,0.427043
3.848724,0.427043
3.856911,0.427043
3.865120,0.427043
3.873230,0.427043
3.877533,0.353878
3.885605,0.353878
3.893707,0.353878
3.898003,0.353878
3.906036,0.353878
3.914192,0.353878
3.918480,0.353878
3.926636,0.353878
3.934723,0.330431
3.939011,0.354430
3.947105,0.354430
3.955185,0.354430
3.959511,0.354430
3.967590,0.354430
3.975845,0.354430
3.983887,0.432959
3.992004,0.432959
3.996292,0.432959
4.004356,0.432959
4.012436,0.466462
4.016800,0.432959
4.028877,0.432959
4.033104,0.432959
4.041161,0.512437
4.045517,0.512437
4.053551,0.512437
4.061607,0.542846
4.069740,0.542846
4.078041,0.542846
4.082344,0.542846
4.090477,0.542846
4.098534,0.542846
4.102806,0.520770
4.110863,0.520770
4.118980,0.520770
4.127251,0.520770
4.135490,0.520770
4.139656,0.520770
4.147720,0.520770
4.155891,0.520770
4.160110,0.520770
4.168251,0.475190
4.176521,0.475190
4.184563,0.475190
4.192627,0.475190
4.197037,0.475190
4.205254,0.475190
4.213486,0.475190
4.221497,0.475190
4.229591,0.475190
4.233932,0.475190
4.242012,0.475190
4.250023,0.475190
4.258247,0.475190
4.266457,0.475190
4.270790,0.550008
4.278854,0.589835
4.286942,0.589835
4.295082,0.589835
4.299347,0.550008
4.307541,0.550008
4.315781,0.550008
4.323967,0.619604
4.331993,0.619604
4.340080,0.619604
4.348343,0.619604
4.356590,0.619604
4.364761,0.655811
4.369041,0.655811
4.377243,0.655811
4.385277,0.655811
4.393356,0.655811
4.397736,0.655811
4.409706,0.655811
4.417915,0.655811
4.426170,0.655811
4.430420,0.655811
4.438545,0.655811
4.446800,0.655811
4.454987,0.655811
4.463036,0.655811
4.471115,0.655811
4.479431,0.655811
4.483757,0.655811
4.491760,0.655811
4.499893,0.655811
4.508125,0.655811
4.516342,0.655811
4.524460,0.655811
4.528740,0.655811
4.536812,0.655811
4.544937,0.655811
4.549217,0.655811
4.557465,0.655811
4.569420,0.655811
4.573875,0.655811
4.581932,0.655811
4.590057,0.655811
4.598274,0.655811
4.606506,0.655811
4.614616,0.655811
4.622704,0.655811
4.630936,0.655811
4.635170,0.655811
4.643257,0.655811
4.651337,0.655811
4.659576,0.655811
4.667854,0.655811
4.676025,0.655811
4.680290,0.655811
4.688484,0.655811
4.696747,0.655811
4.704880,0.619604
4.712936,0.619604
4.721054,0.656706
4.729271,0.656706
4.737442,0.656706
4.741707,0.656706
4.749786,0.656706
4.758057,0.656706
4.766281,0.591491
4.774315,0.591491
4.782463,0.591491
4.786766,0.591491
4.794876,0.591491
4.802910,0.591491
4.811111,0.591491
4.819382,0.591491
4.827576,0.591491
4.831917,0.591491
4.839935,0.591491
4.848022,0.591491
4.852371,0.591491
4.860451,0.591491
4.868797,0.591491
4.876877,0.591491
4.884911,0.591491
4.893082,0.523019
4.897346,0.523019
4.905441,0.523019
4.909767,0.466462
4.917885,0.466462
4.929970,0.466462
4.934227,0.466462
4.942284,0.466462
4.950417,0.466462
4.954842,0.466462
4.962761,0.466462
4.970886,0.410216
4.979225,0.410216
4.987297,0.410216
4.991547,0.370094
4.999641,0.370094
5.007797,0.370094
5.012032,0.370094
5.020172,0.370094
5.028404,0.370094
5.036484,0.441905
5.040794,0.441905
5.048851,0.441905
5.056931,0.415430
5.061241,0.415430
5.069374,0.415430
5.077690,0.415430
5.085686,0.498108
5.093750,0.498108
5.098083,0.498108
5.106133,0.492975
5.114166,0.492975
5.118591,0.490986
5.130692,0.490986
5.134911,0.490986
5.142967,0.490986
5.151093,0.490986
5.155380,0.509757
5.163445,0.509757
5.171555,0.509757
5.179817,0.509757
5.187973,0.610377
5.192207,0.610377
5.200302,0.610377
5.204605,0.646798
5.212685,0.646798
5.220863,0.646798
5.229065,0.646798
5.237137,0.646798
5.241547,0.624323
5.249527,0.624323
5.257607,0.624323
5.261917,0.683855
5.270050,0.683855
5.278305,0.683855
5.286400,0.683855
5.294441,0.683855
5.298851,0.683855
5.306801,0.683855
5.314850,0.735951
5.319290,0.735951
5.331322,0.735951
5.335594,0.794508
5.343651,0.794508
5.351822,0.794508
5.356087,0.794508
5.364120,0.794508
5.372215,0.794508
5.380486,0.794508
5.384857,0.794508
5.392876,0.794508
5.401001,0.794508
5.405296,0.856380
5.413353,0.856380
5.421494,0.856380
5.429741,0.856380
5.437813,0.905686
5.442146,0.905686
5.450195,0.905686
5.458290,0.905686
5.462677,0.905686
5.470757,0.905686
5.478973,0.905686
5.487030,0.956953
5.495087,1.014136
5.499565,1.069177
5.511452,1.069177
5.519737,1.069177
5.524040,1.069177
5.532127,1.069177
5.540154,1.069177
5.544540,1.069177
5.552696,1.069177
5.560783,1.069177
5.569061,1.069177
5.577332,1.069177
5.585335,0.952855
5.593414,0.952855
5.601677,0.952855
5.609856,0.898093
5.618042,0.898093
5.622353,0.898093
5.630531,0.898093
5.638550,0.898093
5.646690,0.898093
5.650970,0.898093
5.659187,0.898093
5.667473,0.966111
5.675560,0.966111
5.683594,0.966111
5.697266,0.966111
5.697380,0.966111
5.704117,0.966111
5.712311,0.966111
5.720482,0.966111
5.728737,0.966111
5.736763,0.966111
5.741096,0.920261
5.749306,0.920261
5.757545,0.920261
5.765694,0.920261
5.773750,0.920261
5.781906,0.881156
5.790054,0.881156
5.794327,0.881156
5.802467,0.881156
5.810677,0.881156
5.818947,0.881156
5.827026,0.881156
5.835083,0.881156
5.839455,0.881156
5.847481,0.881156
5.855545,0.881156
5.863701,0.889115
5.871964,0.889115
5.880173,0.854779
5.884521,0.854779
5.892540,0.854779
5.900627,0.854779
5.904953,0.854779
5.912964,0.933770
5.921295,0.933770
5.929413,0.835094
5.937492,0.835094
5.941765,0.835094
5.949837,0.835094
5.958015,0.835094
5.962227,0.835094
5.970413,0.835094
5.978676,0.835094
5.986755,0.761818
5.994850,0.761818
5.999130,0.761818
6.007202,0.761818
