time,angle
-0.499649,0.879378
-0.491581,0.879378
-0.487251,0.874245
-0.479149,0.878042
-0.470921,0.878042
-0.462841,0.888454
-0.454720,0.826142
-0.450371,0.826142
-0.442310,0.750953
-0.434292,0.780845
-0.429890,0.780845
-0.417862,0.780845
-0.413631,0.749388
-0.405571,0.796230
-0.397411,0.796230
-0.393150,0.674347
-0.385120,0.733020
-0.376991,0.754852
-0.368721,0.754852
-0.364349,0.716825
-0.356300,0.788575
-0.348221,0.788575
-0.343899,0.840000
-0.335880,0.821391
-0.327740,0.809634
-0.319481,0.809634
-0.311359,0.884923
-0.307011,0.888014
-0.299000,0.888014
-0.290920,0.898093
-0.286610,1.045301
-0.278500,1.077200
-0.270248,1.077200
-0.262180,1.113642
-0.254028,1.221733
-0.249809,1.221733
-0.241711,1.312539
-0.233620,1.361138
-0.229240,1.361138
-0.217171,1.361138
-0.212872,1.357827
-0.204849,1.357827
-0.196690,1.357827
-0.192371,1.357827
-0.184361,1.357827
-0.176239,1.357827
-0.167992,1.357827
-0.159840,1.357827
-0.155602,1.408894
-0.147530,1.533401
-0.139359,1.533401
-0.135120,1.533401
-0.127029,1.712808
-0.118740,1.712808
-0.110672,1.667066
-0.106369,1.802766
-0.098320,1.802766
-0.090172,1.873253
-0.085930,1.942695
-0.077808,2.085628
-0.069569,2.085628
-0.061520,2.159033
-0.057179,2.231164
-0.049122,2.231164
-0.041031,2.274688
-0.036720,2.348938
-0.028591,2.425193
-0.020309,2.425193
-0.012249,2.474013
-0.004200,2.551673
0.000130,2.551673
0.008179,2.605492
0.016232,2.684382
0.020649,2.684382
0.032688,2.684382
0.037022,2.822304
0.044998,2.822304
0.053139,2.822304
0.057430,2.805748
0.065479,2.964713
0.073589,2.964713
0.081848,2.964713
0.090031,2.951013
0.094269,2.951013
0.102341,2.951013
0.110500,3.030476
0.114739,3.099962
0.122849,3.099962
0.131119,3.099962
0.139179,3.099962
0.143520,3.099962
0.151619,3.099962
0.159668,3.099962
0.163979,3.260747
0.172112,3.260747
0.180378,3.260747
0.188431,3.272016
0.196491,3.444294
0.200920,3.444294
0.208920,3.444294
0.216991,3.444294
0.225071,3.604240
0.233421,3.604240
0.237660,3.604240
0.245739,3.592922
0.253849,3.753533
0.258179,3.753533
0.266258,3.743660
0.274300,3.743660
0.282600,3.743660
0.290760,3.743660
0.294979,3.743660
0.303059,3.743660
0.311310,3.743660
0.319481,3.743660
0.327568,3.904850
0.331951,3.897621
0.340019,3.897621
0.348061,3.897621
0.352379,3.897621
0.360508,3.897621
0.368580,3.897621
0.372829,3.968472
0.381069,3.968472
0.389118,4.049559
0.397190,4.047237
0.401600,4.046463
0.409630,4.046463
0.417679,4.208497
0.425739,4.209241
0.434078,4.209241
0.438339,4.211381
0.446400,4.376764
0.454578,4.381639
0.458828,4.381639
0.466881,4.468132
0.474960,4.556726
0.483219,4.556726
0.491379,4.565444
0.495609,4.666233
0.503712,4.759216
0.511879,4.759216
0.516098,4.772657
0.524269,4.850705
0.532459,4.850705
0.540569,4.880661
0.544819,4.897370
0.552891,4.897370
0.561009,4.993712
0.565281,5.012470
0.573391,5.109638
0.581680,5.109638
0.589741,5.108219
0.597851,5.208007
0.602150,5.251917
0.610210,5.251917
0.618309,5.326566
0.622669,5.349729
0.630901,5.349729
0.638950,5.426611
0.647018,5.450393
0.651371,5.450393
0.659439,5.550544
0.667500,5.550544
0.675629,5.548743
0.683891,5.548743
0.688221,5.652081
0.696270,5.727211
0.704369,5.752820
0.708679,5.752820
0.716728,5.752820
0.724838,5.752820
0.733101,5.752820
0.741211,5.803769
0.745510,5.803769
0.753590,5.803769
0.761711,5.879033
0.765968,5.855112
0.774071,5.855112
0.782341,5.855112
0.790402,5.855112
0.794731,5.832136
0.802811,5.832136
0.810871,5.832136
0.815201,5.810114
0.823380,5.810114
0.831600,5.810114
0.839619,5.810114
0.847729,5.789093
0.852009,5.789093
0.860069,5.712441
0.868160,5.692094
0.876270,5.692094
0.884590,5.692094
0.888882,5.713951
0.896919,5.613739
0.905060,5.613739
0.909359,5.613739
0.917370,5.613739
0.925499,5.636003
0.933762,5.636003
0.938068,5.636003
0.946129,5.682238
0.954220,5.682238
0.958538,5.682238
0.966610,5.707808
0.974709,5.707808
0.982990,5.707808
0.991089,5.685651
0.995369,5.685651
1.003510,5.685651
1.011581,5.743068
1.015820,5.743068
1.023949,5.774278
1.032219,5.774278
1.040249,5.804410
1.048370,5.837645
1.052639,5.837645
1.060711,5.869590
1.065029,5.904716
1.073158,6.009619
1.081429,6.009619
1.089500,6.046108
1.097569,6.155363
1.101910,6.155363
1.109951,6.193275
1.117970,6.229479
1.126129,6.269072
1.134430,6.269072
1.138710,6.375537
1.146759,6.527595
1.154881,6.527595
1.159180,6.527595
1.167221,6.609396
1.175350,6.652811
1.183601,6.652811
1.191750,6.831792
1.195992,6.875748
1.204060,6.875748
1.208382,6.875748
1.216438,6.962889
1.224609,7.099095
1.232861,7.099095
1.240921,7.144244
1.245289,7.144244
1.253319,7.187145
1.261410,7.368361
1.265739,7.368361
1.273869,7.439174
1.282120,7.439174
1.290249,7.504096
1.298290,7.504096
1.302658,7.504096
1.310669,7.575513
1.318699,7.599722
1.326809,7.599722
1.335159,7.599722
1.339458,7.671994
1.347469,7.738169
1.355690,7.738169
1.359921,7.738169
1.367920,7.738169
1.376041,7.853855
1.384300,7.853855
1.392448,7.853855
1.396690,7.894612
1.404758,7.894612
1.412918,7.938722
1.417160,7.938722
1.425331,7.983500
1.433540,7.983500
1.441608,8.025951
1.445938,8.071903
1.454041,8.071903
1.462090,8.071903
1.466518,8.225715
1.474541,8.225715
1.482800,8.225715
1.490879,8.272913
1.498928,8.210136
1.503269,8.258375
1.511311,8.258375
1.519348,8.304066
1.523769,8.353317
1.535820,8.353317
1.540058,8.353317
1.548111,8.403147
1.556271,8.403147
1.560520,8.403147
1.568581,8.453451
1.576710,8.504291
1.584969,8.504291
1.593121,8.504291
1.597420,8.623408
1.605461,8.623408
1.613659,8.623408
1.617840,8.674913
1.625961,8.726904
1.634220,8.726904
1.642311,8.726904
1.646660,8.779327
1.654709,8.779327
1.662788,8.779327
1.667110,8.832243
1.675270,8.936174
1.683472,8.936174
1.691521,8.936174
1.699631,8.990425
1.703941,8.990425
1.712021,8.990425
1.720058,9.045135
1.724480,9.096906
1.736488,9.096906
1.740768,9.152380
1.748829,9.152380
1.756981,9.261237
1.761238,9.261237
1.769360,9.261237
1.777420,9.314518
1.785660,9.314518
1.793831,9.371568
1.798069,9.425565
1.806149,9.600890
1.814308,9.600890
1.818539,9.600890
1.826649,9.714158
1.834911,9.714158
1.843021,9.769520
1.847321,9.763499
1.855358,9.879916
1.863461,9.879916
1.867771,9.936739
1.875870,9.947993
1.884121,9.947993
1.892151,10.005810
1.896469,10.063840
1.904541,10.063840
1.912609,10.184550
1.916931,10.243400
1.925068,10.243400
1.933331,10.243400
1.941360,10.365720
1.949451,10.425340
1.953770,10.425340
1.961830,10.425340
1.969872,10.379040
1.974300,10.503600
1.986351,10.503600
1.990639,10.503600
1.998680,10.503600
2.006809,10.503600
2.011101,10.511690
2.019112,10.511690
2.027241,10.511690
2.035511,10.511690
2.043678,10.576800
2.047920,10.576800
2.056011,10.576800
2.064171,10.642170
2.068420,10.580760
2.076538,10.580760
2.084782,10.580760
2.092838,10.646120
2.097198,10.646120
2.105251,10.711730
2.113350,10.711730
2.117641,10.829150
2.125759,10.894930
2.134010,10.894930
2.142090,10.894930
2.150150,10.960960
2.154491,10.960960
2.162529,10.960960
2.170601,10.960960
2.178761,11.089710
2.187031,11.089710
2.191330,11.089710
2.199379,11.089710
2.207569,11.089710
2.211819,11.089710
2.219872,11.152380
2.227959,11.219300
2.236248,11.219300
2.244381,11.273810
2.248619,11.273810
2.256809,11.273810
2.264870,11.336660
2.269169,11.336660
2.277241,11.336660
2.285469,11.336660
2.293640,11.403700
2.297970,11.413080
2.305920,11.413080
2.313999,11.413080
2.318321,11.413080
2.326431,11.413080
2.334709,11.413080
2.342770,11.413080
2.350830,11.413080
2.355228,11.413080
2.363220,11.308970
2.371281,11.308970
2.375690,11.308970
2.387718,11.308970
2.392010,11.308970
2.400059,11.308970
2.408199,11.308970
2.412479,11.308970
2.420559,11.255680
2.428631,11.255680
2.436871,11.255680
2.441219,11.255680
2.449261,11.255680
2.457401,11.255680
2.461689,11.255680
2.469738,11.255680
2.477848,11.255680
2.486141,11.255680
2.494209,11.255680
2.498501,11.215790
2.506599,11.215790
2.514690,11.215790
2.518959,11.215790
2.527081,11.215790
2.535351,11.215790
2.543411,11.215790
2.551559,11.215790
2.555820,11.215790
2.563858,11.163310
2.571949,11.094870
2.576340,11.030730
2.588398,11.030730
2.592628,11.030730
2.600719,11.030730
2.605030,11.030730
2.613110,11.030730
2.621128,10.990890
2.629238,10.938790
2.637569,10.938790
2.641869,10.870170
2.649910,10.805840
2.658020,10.805840
2.662331,10.805840
2.670399,10.805840
2.678509,10.805840
2.686790,10.805840
2.694881,10.805840
2.699162,10.805840
2.707241,10.805840
2.715370,10.805840
2.719631,10.645570
2.727741,10.645570
2.736038,10.645570
2.744068,10.645570
2.748402,10.645570
2.756470,10.645570
2.764580,10.645570
2.768959,10.645570
2.776981,10.594130
2.785259,10.594130
2.793289,10.555230
2.801369,10.555230
2.805698,10.555230
2.813770,10.555230
2.821831,10.555230
2.826210,10.555230
2.838230,10.555230
2.842571,10.435190
2.850578,10.435190
2.858738,10.435190
2.862949,10.396780
2.870998,10.396780
2.879139,10.396780
2.887409,10.396780
2.891769,10.396780
2.899788,10.396780
2.907871,10.396780
2.912189,10.396780
2.920269,10.396780
2.928391,10.346900
2.936649,10.346900
2.944729,10.346900
2.949020,10.309330
2.957100,10.309330
2.965210,10.309330
2.969471,10.309330
2.977631,10.309330
2.985909,10.309330
2.993931,10.309330
3.001991,10.309330
3.006409,10.309330
3.018360,10.309330
3.026638,10.309330
3.030861,10.309330
3.038979,10.379760
3.047119,10.379760
3.051399,10.379760
3.059441,10.379760
3.067650,10.379760
3.082668,10.379760
3.083950,10.379760
3.088371,10.379760
3.096329,10.379760
3.104469,10.379760
3.108711,10.379760
3.116920,10.379760
3.125172,10.379760
3.133259,10.313550
3.141350,10.313550
3.149410,10.313550
3.153870,10.313550
3.161919,10.313550
3.169991,10.313550
3.178211,10.313550
3.186401,10.313550
3.190731,10.313550
3.198811,10.313550
3.206890,10.313550
3.211201,10.264600
3.219238,10.198330
3.227470,10.198330
3.235611,10.161360
3.243759,10.161360
3.248039,10.094890
3.256100,10.094890
3.264210,10.094890
3.268539,10.028600
3.276711,10.028600
3.284920,10.028600
3.293018,10.028600
3.301071,9.962473
3.305340,9.962473
3.313389,9.962473
3.321419,9.962473
3.329708,9.962473
3.337959,9.962473
3.342178,9.962473
3.350239,9.962473
3.358490,9.962473
3.362640,9.892328
3.370678,9.892328
3.378880,9.892328
3.387100,9.892328
3.395271,9.892328
3.399498,9.822390
3.407600,9.822390
3.415760,9.822390
3.419971,9.888133
3.428162,9.888133
3.436401,9.856962
3.444481,9.856962
3.452591,9.787576
3.456841,9.787576
3.464901,9.718408
3.469231,9.718408
3.477459,9.649441
3.485661,9.649441
3.493690,9.649441
3.501751,9.580680
3.509941,9.580680
3.514179,9.420684
3.522228,9.420684
3.530380,9.351686
3.538681,9.351686
3.546810,9.351686
3.551048,9.232121
3.559139,9.232121
3.567268,9.232121
3.571518,9.122767
3.579681,9.122767
3.587910,9.122767
3.595959,9.072681
3.600288,9.003375
3.608368,9.003375
3.616459,8.963417
3.620758,8.893929
3.628868,8.844312
3.637131,8.844312
3.645180,8.844312
3.653271,8.779081
3.657669,8.779081
3.665649,8.620447
3.673698,8.620447
3.678120,8.620447
3.690140,8.620447
3.694401,8.620447
3.702438,8.485403
3.706860,8.485403
3.714840,8.485403
3.722931,8.436242
3.731049,8.396788
3.739311,8.396788
3.743671,8.331073
3.751701,8.331073
3.759811,8.331073
3.764149,8.331073
3.772171,8.261205
3.780300,8.261205
3.788609,8.261205
3.796669,8.195920
3.800949,8.195920
3.809021,8.195920
3.817120,8.147000
3.821411,8.077301
3.829510,8.077301
3.837799,8.077301
3.845901,8.037268
3.853981,8.037268
3.858261,8.037268
3.866291,7.967378
3.870640,7.967378
3.878769,7.967378
3.890850,7.967378
3.895039,7.967378
3.903118,7.897719
3.907459,7.897719
3.915489,7.914577
3.923569,7.914577
3.931690,7.914577
3.939980,7.914577
3.944309,7.914577
3.952351,7.844602
3.960480,7.844602
3.964748,7.910161
3.972771,7.910161
3.980919,7.910161
3.989201,7.910161
3.997330,7.910161
4.001709,7.910161
4.009659,7.910161
4.017811,7.840172
4.022049,7.840172
4.030201,7.840172
4.038441,7.840172
4.046509,7.840172
4.050819,7.840172
4.058910,7.840172
4.066971,7.774860
4.071301,7.774860
4.079491,7.774860
4.087700,7.774860
4.095730,7.823983
4.103821,7.823983
4.108170,7.823983
4.116188,7.759192
4.124249,7.759192
4.132370,7.759192
4.140728,7.759192
4.144981,7.694676
4.153049,7.694676
4.161160,7.694676
4.165459,7.694676
4.173481,7.694676
4.181610,7.630415
4.189880,7.630415
4.198051,7.630415
4.202278,7.630415
4.210361,7.630415
4.218559,7.698985
4.222752,7.698985
4.230869,7.698985
4.239140,7.698985
4.247211,7.634709
4.255310,7.634709
4.259689,7.634709
4.271648,7.634709
4.279949,7.634709
4.284180,7.634709
4.292351,7.634709
4.300400,7.634709
4.304729,7.634709
4.312809,7.634709
4.320961,7.634709
4.329311,7.634709
4.337490,7.566390
4.345470,7.515959
4.349819,7.580330
4.361740,7.580330
4.370041,7.580330
4.374310,7.580330
4.382339,7.580330
4.390610,7.580330
4.398731,7.580330
4.402950,7.580330
4.411030,7.580330
4.415348,7.580330
4.423592,7.511676
4.431599,7.511676
4.439789,7.511676
4.447880,7.511676
4.452209,7.511676
4.460258,7.511676
4.468349,7.511676
4.472630,7.443314
4.480770,7.443314
4.489021,7.443314
4.497070,7.400697
4.505180,7.400697
4.509541,7.400697
4.517570,7.400697
4.521870,7.282194
4.529991,7.217870
4.542080,7.217870
4.546299,7.217870
4.554359,7.217870
4.562550,7.217870
4.566769,7.217870
4.574841,7.149514
4.582932,7.149514
4.591228,7.149514
4.595551,7.149514
4.603600,7.149514
4.611721,7.149514
4.616001,7.018085
4.624039,7.018085
4.632179,7.018085
4.640430,7.018085
4.648548,7.018085
4.652828,7.018085
4.660881,7.018085
4.669022,7.062582
4.673248,6.995745
4.681400,6.986260
4.689671,6.986260
4.697739,6.986260
4.705872,6.986260
4.710152,6.986260
4.718220,6.859297
4.722530,6.859297
4.730690,6.907028
4.742771,6.907028
4.746979,6.907028
4.755039,6.846647
4.759399,6.846647
4.767441,6.838191
4.775501,6.838191
4.783611,6.838191
4.791908,6.838191
4.796261,6.838191
4.804279,6.838191
4.812401,6.838191
4.816689,6.778994
4.824760,6.716183
4.832878,6.716183
4.841122,6.716183
4.849258,6.659735
4.853531,6.659735
4.861591,6.659735
4.869728,6.659735
4.874039,6.659735
4.882092,6.659735
4.890369,6.659735
4.898411,6.596923
4.902740,6.596923
4.910858,6.596923
4.918919,6.546493
4.927010,6.546493
4.931400,6.538580
4.943451,6.538580
4.947701,6.538580
4.955761,6.476627
4.963928,6.530538
4.968361,6.530538
4.976311,6.588922
4.984360,6.651602
4.992611,6.651602
4.997009,6.895205
5.005009,7.092212
5.013088,7.299122
5.021252,7.299122
5.029499,7.587705
5.033749,7.994705
5.041931,8.369898
5.049980,8.369898
5.058121,8.614545
5.062431,8.902539
5.070541,8.902539
5.078812,9.160557
5.086849,9.423103
5.095009,9.657404
5.099300,9.657404
5.107368,9.749977
5.115421,9.773664
5.123611,9.773664
5.131901,9.819506
5.140171,9.792998
5.148239,9.741646
5.152519,9.716809
5.160591,9.716809
5.168720,9.645488
5.172981,9.620936
5.181190,9.620936
5.189461,9.539740
5.197510,9.515580
5.205570,9.442670
5.209961,9.442670
5.218109,9.442670
5.226131,9.442670
5.234219,9.539740
5.242489,9.539740
5.250618,9.539740
5.254921,9.539740
5.263039,9.539740
5.271130,9.538524
5.275379,9.619772
5.283482,9.594705
5.291740,9.594705
5.299820,9.594705
5.304111,9.488687
5.312160,9.464751
5.320309,9.464751
5.324650,9.464751
5.332779,9.441504
5.341091,9.441504
5.349010,9.418909
5.357170,9.397015
5.361450,9.397015
5.369480,9.220235
5.377560,9.199303
5.381939,9.160471
5.393990,9.160471
5.398239,9.003070
5.406269,8.984763
5.414429,8.949334
5.418709,8.949334
5.426750,8.866541
5.434872,8.774493
5.443169,8.774493
5.447472,8.774493
5.455540,8.599849
5.463650,8.599849
5.468060,8.599849
5.476009,8.568801
5.484108,8.485820
5.492378,8.485820
5.500488,8.409617
5.504761,8.326806
5.512829,8.326806
5.520958,8.312291
5.525219,8.235876
5.533390,8.250525
5.541649,8.250525
5.549648,8.167868
5.557800,8.167868
5.562050,8.167868
5.570129,8.152445
5.574471,8.075939
5.582630,8.090803
5.590839,8.090803
5.598919,8.090803
5.606968,8.008297
5.615150,8.008297
5.619389,8.007537
5.627430,8.007537
5.635540,8.006802
5.643860,8.006802
5.648151,8.006802
5.656200,7.991193
5.664330,7.991193
5.668640,8.005993
5.676689,7.847154
5.684799,7.831280
5.693039,7.831280
5.701271,7.816227
5.705429,7.830477
5.713490,7.830477
5.721649,7.815499
5.725891,7.732968
5.734001,7.641646
5.742271,7.641646
5.750320,7.641646
5.754662,7.628099
5.762730,7.628099
5.770809,7.545456
5.775139,7.545456
5.783249,7.532624
5.791531,7.532624
5.799622,7.455221
5.807690,7.455221
5.812099,7.455221
5.820030,7.360447
5.828060,7.360447
5.832489,7.371901
5.844559,7.371901
5.848789,7.294389
5.856930,7.294389
5.865002,7.294389
5.869259,7.211861
5.877331,7.199527
5.885479,7.199527
5.893700,7.199527
5.901852,7.211181
5.906078,7.133609
5.914150,7.133609
5.918510,7.051184
5.926548,7.051184
5.934658,7.051184
5.942940,7.051184
5.951031,7.051184
5.955341,6.972770
5.963421,6.972770
5.971500,6.890538
5.975800,6.890538
5.983910,6.890538
5.992161,6.890538
6.000198,6.890538
6.008339,6.730651
