time,angle
-0.499596,0.225554
-0.491394,0.225554
-0.483299,0.225554
-0.475197,0.225554
-0.470894,0.225554
-0.462898,0.297394
-0.454796,0.234903
-0.450394,0.234903
-0.438393,0.234903
-0.434097,0.291412
-0.425995,0.291412
-0.417893,0.291412
-0.409599,0.291412
-0.401497,0.291412
-0.393395,0.291412
-0.389000,0.291412
-0.380997,0.291412
-0.372894,0.291412
-0.368500,0.291412
-0.360397,0.291412
-0.352097,0.245493
-0.343994,0.245493
-0.335999,0.245493
-0.327896,0.245493
-0.319595,0.245493
-0.315300,0.245493
-0.307297,0.245493
-0.298996,0.245493
-0.290894,0.245493
-0.282700,0.245493
-0.278397,0.245493
-0.270195,0.245493
-0.261993,0.175829
-0.253998,0.150658
-0.245895,0.150658
-0.237694,0.150658
-0.233398,0.157018
-0.225197,0.157018
-0.217194,0.157018
-0.209000,0.157018
-0.200600,0.157018
-0.196495,0.157018
-0.188393,0.157018
-0.180298,0.157018
-0.175896,0.157018
-0.167893,0.157018
-0.159699,0.157018
-0.151497,0.157018
-0.143395,0.157018
-0.139099,0.083929
-0.131096,0.083929
-0.122994,0.083929
-0.118698,0.151951
-0.110497,0.151951
-0.102295,0.151951
-0.094193,0.151951
-0.086098,0.151951
-0.077995,0.151951
-0.073593,0.151951
-0.065598,0.151951
-0.057396,0.151951
-0.049194,0.151951
-0.040993,0.151951
-0.032898,0.151951
-0.028595,0.151951
-0.020393,0.151951
-0.012199,0.146710
-0.004196,0.146710
0.003906,0.146710
0.012207,0.146710
0.016502,0.146710
0.024506,0.146710
0.032707,0.146710
0.040901,0.146710
0.049103,0.146710
0.057205,0.146710
0.061501,0.146710
0.069603,0.146710
0.077705,0.146710
0.082001,0.146710
0.090202,0.146710
0.098404,0.146710
0.106407,0.146710
0.114502,0.146710
0.118805,0.146710
0.126907,0.146710
0.134903,0.146710
0.143105,0.146710
0.151405,0.146710
0.155701,0.146710
0.163704,0.146710
0.168106,0.146710
0.176102,0.146710
0.184204,0.146710
0.192307,0.146710
0.200607,0.146710
0.208801,0.146710
0.213005,0.146710
0.221001,0.146710
0.229202,0.146710
0.233505,0.146710
0.241600,0.146710
0.249901,0.146710
0.258003,0.146710
0.266106,0.146710
0.274200,0.151951
0.282402,0.151951
0.290703,0.151951
0.295006,0.228997
0.303101,0.228997
0.311302,0.228997
0.319305,0.228997
0.323700,0.228997
0.331802,0.228997
0.339806,0.228997
0.344101,0.228997
0.352203,0.307105
0.360504,0.307105
0.368607,0.307105
0.376701,0.372729
0.381004,0.372729
0.389000,0.372729
0.397102,0.440130
0.401505,0.440130
0.413506,0.440130
0.417801,0.440130
0.425804,0.440130
0.434006,0.440130
0.438301,0.512437
0.446304,0.557078
0.454407,0.557078
0.462708,0.557078
0.467003,0.663524
0.475105,0.731684
0.483200,0.731684
0.487503,0.782347
0.495506,0.782347
0.503601,0.782347
0.511902,0.782347
0.520004,0.917706
0.524406,0.966516
0.532402,0.966516
0.540505,1.009106
0.544807,1.074472
0.552902,1.192390
0.561203,1.192390
0.569206,1.192390
0.573502,1.300557
0.581703,1.300557
0.589706,1.364870
0.594002,1.483981
0.602104,1.483981
0.610405,1.483981
0.618401,1.549650
0.626503,1.617374
0.630905,1.617374
0.638901,1.668357
0.647003,1.668357
0.655106,1.735509
0.663406,1.735509
0.667702,1.787394
0.675705,1.787394
0.683807,1.787394
0.688301,1.853825
0.696205,1.906699
0.704300,1.972586
0.712601,1.972586
0.720703,1.972586
0.725006,2.051282
0.733200,2.051282
0.737404,2.051282
0.745407,2.051282
0.753601,2.169884
0.761803,2.169884
0.769905,2.236772
0.774307,2.304522
0.782303,2.304522
0.790405,2.355095
0.794601,2.422366
0.802803,2.490729
0.811005,2.490729
0.819107,2.608270
0.827202,2.646341
0.831505,2.646341
0.839500,2.646341
0.843903,2.764775
0.852005,2.831859
0.860207,2.831859
0.868301,2.831859
0.876404,2.899081
0.880707,2.899081
0.888702,2.950217
0.896805,3.017853
0.904907,3.085213
0.913200,3.085213
0.917503,3.085213
0.925606,3.085213
0.929901,3.085213
0.937904,3.202896
0.945900,3.271657
0.954201,3.271657
0.962402,3.308550
0.966705,3.375625
0.974701,3.444635
0.982803,3.444635
0.987106,3.444635
0.995102,3.561944
1.003403,3.561944
1.011505,3.631300
1.015907,3.631300
1.023903,3.699200
1.032005,3.699200
1.036301,3.769722
1.044403,3.769722
1.052505,3.769722
1.060707,3.838390
1.064903,3.909861
1.073006,3.909861
1.081207,3.956958
1.085403,3.991009
1.093407,3.991009
1.097801,4.129910
1.105804,4.129910
1.114006,4.129910
1.122101,4.129910
1.126404,4.129910
1.134506,4.270355
1.142601,4.270355
1.146805,4.317290
1.154907,4.317290
1.163101,4.317290
1.171303,4.388964
1.175507,4.489997
1.183601,4.489997
1.191803,4.489997
1.196007,4.561839
1.204102,4.561839
1.212402,4.561839
1.220406,4.642664
1.224701,4.781761
1.232803,4.781761
1.240906,4.781761
1.245201,4.781761
1.253304,4.853532
1.261505,4.853532
1.269608,4.853532
1.273903,4.886076
1.282005,4.886076
1.290001,4.957566
1.294304,4.957566
1.302505,4.957566
1.310707,4.957566
1.318802,4.957566
1.326904,5.029599
1.331207,5.029599
1.339203,5.129920
1.343506,5.129920
1.351707,5.129920
1.359901,5.129920
1.367905,5.129920
1.376007,5.129920
1.384201,5.129920
1.392403,5.129920
1.396706,5.202060
1.404800,5.202060
1.413002,5.202060
1.421104,5.202060
1.425407,5.202060
1.433601,5.202060
1.441902,5.202060
1.449905,5.202060
1.458000,5.202060
1.466103,5.233978
1.470406,5.233978
1.478500,5.233978
1.486603,5.282533
1.490906,5.282533
1.498901,5.282533
1.503204,5.421806
1.515305,5.421806
1.519501,5.421806
1.527603,5.421806
1.531906,5.421806
1.540001,5.421806
1.548004,5.421806
1.556206,5.493905
1.564407,5.493905
1.568802,5.562218
1.576805,5.562218
1.584908,5.562218
1.589203,5.609723
1.597305,5.609723
1.605400,5.609723
1.613602,5.609723
1.617905,5.609723
1.626007,5.635030
1.634201,5.635030
1.642403,5.635030
1.650505,5.635030
1.654907,5.666004
1.663002,5.666004
1.671005,5.666004
1.679100,5.666004
1.683403,5.738595
1.691505,5.738595
1.699600,5.738595
1.703903,5.738595
1.712204,5.738595
1.720207,5.769830
1.728302,5.769830
1.732803,5.769830
1.740601,5.842243
1.748703,5.842243
1.753105,5.842243
1.765106,5.842243
1.769402,5.873763
1.777504,5.922351
1.785606,5.922351
1.789902,5.994138
1.798103,5.994138
1.806107,5.994138
1.814407,5.994138
1.822502,6.061780
1.826706,6.093874
1.834801,6.093874
1.839104,6.165770
1.847206,6.214670
1.855301,6.214670
1.863602,6.214670
1.871605,6.214670
1.875900,6.214670
1.884003,6.214670
1.892105,6.281819
1.896400,6.281819
1.904503,6.281819
1.912804,6.281819
1.920906,6.314475
1.928902,6.435686
1.933304,6.435686
1.941307,6.435686
1.949303,6.435686
1.953804,6.435686
1.965805,6.435686
1.970100,6.435686
1.978104,6.435686
1.986305,6.435686
1.990501,6.502402
1.998604,6.502402
2.006706,6.552421
2.015007,6.552421
2.019302,6.552421
2.027405,6.552421
2.035507,6.552421
2.039803,6.552421
2.047806,6.618854
2.056007,6.669269
2.064201,6.669269
2.072304,6.669269
2.076607,6.669269
2.084702,6.669269
2.092804,6.669269
2.097000,6.740463
2.105202,6.857296
2.113503,6.857296
2.121506,6.857296
2.125900,6.857296
2.133904,6.857296
2.141907,6.857296
2.146301,6.956914
2.154404,7.008323
2.162704,7.008323
2.170700,7.008323
2.178802,7.008323
2.183105,7.008323
2.191200,7.008323
2.199203,7.060414
2.207405,7.125602
2.215706,7.125602
2.220001,7.125602
2.228004,7.125602
2.236107,7.125602
2.240402,7.178022
2.248505,7.178022
2.256607,7.242969
2.264900,7.242969
2.273003,7.242969
2.277306,7.365697
2.285301,7.365697
2.289604,7.365697
2.297707,7.430729
2.305801,7.430729
2.314201,7.430729
2.322205,7.483357
2.326500,7.483357
2.334503,7.483357
2.342606,7.548109
2.347000,7.548109
2.355103,7.601064
2.363403,7.601064
2.371407,7.601064
2.379501,7.665621
2.383804,7.665621
2.391907,7.665621
2.399902,7.718818
2.404305,7.718818
2.416306,7.718818
2.420700,7.783135
2.428703,7.783135
2.436806,7.783135
2.441101,7.836666
2.449104,7.906538
2.457207,7.906538
2.465508,7.906538
2.469902,7.970876
2.477905,8.024337
2.486000,8.024337
2.490303,8.060122
2.498405,8.060122
2.506500,8.060122
2.514801,8.060122
2.522903,8.123833
2.527107,8.123833
2.535202,8.123833
2.543304,8.123833
2.547607,8.178149
2.555801,8.178149
2.564003,8.178149
2.572006,8.178149
2.580200,8.178149
2.584503,8.178149
2.592506,8.241645
2.596901,8.241645
2.605003,8.241645
2.617004,8.241645
2.621307,8.296187
2.629303,8.296187
2.633705,8.296187
2.641800,8.296187
2.649803,8.296187
2.657906,8.296187
2.666206,8.296187
2.670502,8.365649
2.678604,8.365649
2.686707,8.429163
2.695007,8.429163
2.703201,8.429163
2.711205,8.429163
2.715607,8.429163
2.723602,8.429163
2.731804,8.429163
2.736000,8.429163
2.744301,8.429163
2.752403,8.429163
2.760506,8.393864
2.768600,8.393864
2.773003,8.393864
2.781006,8.393864
2.789001,8.393864
2.797302,8.393864
2.805504,8.393864
2.809700,8.393864
2.817802,8.393864
2.825905,8.393864
2.830200,8.393864
2.838203,8.393864
2.846405,8.393864
2.854706,8.393864
2.862801,8.393864
2.867104,8.464316
2.875107,8.464316
2.883301,8.464316
2.891403,8.464316
2.895805,8.464316
2.904007,8.464316
2.912201,8.464316
2.920303,8.411299
2.928307,8.411299
2.936501,8.411299
2.944702,8.411299
2.949005,8.411299
2.957108,8.411299
2.965401,8.411299
2.973404,8.411299
2.977707,8.411299
2.985901,8.411299
2.994102,8.411299
3.002304,8.411299
3.010307,8.411299
3.018402,8.411299
3.022804,8.411299
3.030807,8.411299
3.038902,8.411299
3.047104,8.411299
3.055305,8.411299
3.059601,8.411299
3.067703,8.411299
3.075806,8.411299
3.080200,8.411299
3.088104,8.411299
3.096306,8.411299
3.104607,8.411299
3.112701,8.411299
3.120804,8.411299
3.125107,8.411299
3.133400,8.411299
3.141403,8.411299
3.149406,8.411299
3.157600,8.411299
3.165901,8.411299
3.170204,8.411299
3.178207,8.411299
3.186401,8.411299
3.190605,8.411299
3.198700,8.306312
3.206802,8.306312
3.215103,8.306312
3.219406,8.254094
3.227402,8.149385
3.235504,8.149385
3.239906,8.084272
3.247902,7.999835
3.256104,7.999835
3.264305,7.927983
3.272408,7.927983
3.276703,7.772840
3.284706,7.772840
3.292801,7.706859
3.297104,7.625063
3.305405,7.625063
3.313507,7.552475
3.321602,7.552475
3.329704,7.405335
3.334007,7.405335
3.342102,7.332458
3.350105,7.332458
3.358307,7.332458
3.366600,7.253552
3.370804,7.186053
3.378906,7.112899
3.383202,7.112899
3.391304,7.064998
3.399307,7.064998
3.407501,7.064998
3.415703,6.997455
3.420105,6.920533
3.428101,6.920533
3.436203,6.920533
3.440506,6.852345
3.448502,6.731933
3.456802,6.731933
3.464905,6.731933
3.473007,6.731933
3.477303,6.617432
3.485306,6.617432
3.489700,6.617432
3.497803,6.548919
3.506004,6.548919
3.514206,6.531979
3.522202,6.531979
3.530403,6.463656
3.534607,6.463656
3.542702,6.417532
3.547005,6.417532
3.555305,6.417532
3.563400,6.303287
3.571503,6.303287
3.579506,6.303287
3.583900,6.303287
3.591904,6.189254
3.600006,6.189254
3.608200,6.189254
3.616402,6.189254
3.620705,6.075477
3.628700,6.075477
3.636902,6.075477
3.641106,6.075477
3.649200,5.961937
3.657402,5.961937
3.665604,5.961937
3.669907,5.961937
3.677902,5.961937
3.686005,5.961937
3.690300,5.822482
3.698402,5.746889
3.706703,5.746889
3.714806,5.746889
3.722900,5.746889
3.727303,5.634195
3.735306,5.634195
3.743401,5.634195
3.747604,5.634195
3.755905,5.634195
3.764000,5.634195
3.772102,5.558729
3.776505,5.420794
3.784401,5.420794
3.792503,5.420794
3.797005,5.420794
3.808807,5.420794
3.813301,5.420794
3.821304,5.420794
3.829407,5.380591
3.833801,5.380591
3.841805,5.309100
3.849800,5.309100
3.858101,5.309100
3.866302,5.309100
3.870605,5.309100
3.878601,5.309100
3.886703,5.309100
3.891006,5.269535
3.899101,5.269535
3.907303,5.269535
3.915504,5.197764
3.923607,5.197764
3.927902,5.197764
3.935905,5.197764
3.944000,5.197764
3.948303,5.197764
3.956604,5.197764
3.964706,5.197764
3.972801,5.159018
3.980904,5.159018
3.985207,5.159018
3.993202,5.159018
3.997604,5.086887
4.009506,5.086887
4.014000,5.086887
4.022003,5.086887
4.030106,5.086887
4.038307,5.086887
4.046501,5.086887
4.050903,5.086887
4.058907,5.086887
4.067101,5.086887
4.075203,5.086887
4.083206,5.086887
4.087601,5.086887
4.095901,5.086887
4.104004,5.086887
4.112106,5.086887
4.120201,5.086887
4.124504,5.086887
4.132607,5.086887
4.140602,5.086887
4.148804,5.086887
4.157104,5.086887
4.161407,5.086887
4.169403,5.086887
4.177505,5.086887
4.181900,5.086887
4.189804,5.086887
4.198105,5.086887
4.206207,5.086887
4.214302,5.086887
4.218704,5.086887
4.226707,5.086887
4.231003,5.086887
4.239105,5.048961
4.247307,5.048961
4.255501,4.971614
4.263504,4.971614
4.267906,5.048961
4.275902,5.048961
4.284004,5.048961
4.288406,5.048961
4.296600,5.048961
4.304703,5.048961
4.312706,5.048961
4.320900,5.048961
4.325203,5.048961
4.333206,5.048961
4.341301,5.048961
4.349503,5.048961
4.357803,5.048961
4.362007,5.048961
4.370102,5.048961
4.378204,5.048961
4.382507,5.048961
4.390503,5.027574
4.398705,5.027574
4.406906,5.027574
4.411201,5.027574
4.419304,5.027574
4.439407,5.027574
4.439606,5.027574
4.439804,5.027574
4.448006,5.027574
4.456100,5.027574
4.464203,5.027574
4.468506,4.991868
4.476601,4.991868
4.484703,4.991868
4.489006,4.991868
4.497200,4.991868
4.505501,4.991868
4.513405,4.991868
4.521507,4.991868
4.525902,4.991868
4.533905,4.991868
4.541901,4.991868
4.550201,4.991868
4.558403,4.991868
4.562706,4.991868
4.570801,4.991868
4.578903,4.991868
4.583107,4.991868
4.591202,4.972796
4.599403,4.972796
4.607605,4.972796
4.611900,4.972796
4.620003,4.972796
4.628105,4.972796
4.632401,4.972796
4.640404,4.939513
4.648605,4.939513
4.656906,4.939513
4.664902,4.939513
4.669205,4.939513
4.677307,4.939513
4.685402,4.939513
4.689705,4.939513
4.697906,4.939513
4.706100,4.939513
4.714203,4.786511
4.722305,4.786511
4.726601,4.786511
4.734604,4.786511
4.742607,4.786511
4.750801,4.786511
4.759102,4.786511
4.763504,4.786511
4.771706,4.786511
4.779602,4.786511
4.787804,4.786511
4.792206,4.786511
4.800201,4.786511
4.808403,4.786511
4.816605,4.786511
4.824707,4.786511
4.829002,4.786511
4.840904,4.786511
4.849205,4.786511
4.857407,4.786511
4.861702,4.786511
4.869804,4.786511
4.877907,4.786511
4.882202,4.786511
4.890305,4.786511
4.898506,4.786511
4.906700,4.786511
4.914803,4.753739
4.922905,4.753739
4.927200,4.753739
4.935303,4.737351
4.939606,4.737351
4.947807,4.737351
4.959801,4.737351
4.968002,4.737351
4.972305,4.737351
4.980400,4.737351
4.988701,4.737351
4.996803,4.737351
5.004807,4.737351
5.009201,4.679688
5.021202,4.679688
5.025505,4.600449
5.033607,4.600449
5.041702,4.600449
5.049904,4.600449
5.058105,4.600449
5.062401,4.600449
5.070503,4.600449
5.078606,4.600449
5.086807,4.600449
5.091103,4.600449
5.099205,4.600449
5.107506,4.600449
5.115601,4.600449
5.123604,4.600449
5.131805,4.600449
5.140007,4.600449
5.148201,4.600449
5.152504,4.600449
5.160606,4.600449
5.168907,4.600449
5.176903,4.600449
5.181206,4.600449
5.189407,4.600449
5.197601,4.600449
5.205803,4.600449
5.213806,4.526536
5.222107,4.526536
5.226303,4.526536
5.234406,4.508890
5.242401,4.508890
5.246704,4.508890
5.254807,4.508890
5.262802,4.508890
5.271103,4.508890
5.275406,4.397835
5.283401,4.397835
5.291504,4.397835
5.295906,4.397835
5.303902,4.397835
5.312004,4.323365
5.320305,4.323365
5.328407,4.323365
5.332703,4.323365
5.340706,4.323365
5.345100,4.323365
5.353104,4.323365
5.361206,4.292769
5.369507,4.292769
5.377602,4.292769
5.381905,4.292769
5.390007,4.292769
5.398102,4.292769
5.402405,4.308617
5.410507,4.234246
5.418800,4.234246
5.426804,4.234246
5.434906,4.234246
5.439201,4.234246
5.447205,4.234246
5.455406,4.234246
5.459702,4.203328
5.471802,4.203328
5.476006,4.203328
5.484100,4.203328
5.492203,4.203328
5.500504,4.203328
5.508606,4.128629
5.513000,4.128629
5.521202,4.128629
5.529106,4.128629
5.533501,4.128629
5.541603,4.128629
5.549706,4.128629
5.557907,4.128629
5.566002,4.098923
5.570305,4.098923
5.578407,4.098923
5.586403,4.098923
5.590805,4.098923
5.599007,4.098923
5.607201,4.085284
5.615204,4.085284
5.623306,4.085284
5.627602,4.085284
5.635704,4.085284
5.643806,4.085284
5.651901,4.085284
5.660202,4.085284
5.664505,4.085284
5.672501,4.085284
5.680603,4.085284
5.684906,4.085284
5.693001,4.085284
5.701202,4.085284
5.709404,4.009855
5.713707,4.009855
5.721802,4.009855
5.729904,4.009855
5.734207,4.009855
5.742203,4.009855
5.750404,4.009855
5.758606,4.009855
5.766701,4.009855
5.771004,4.009855
5.779106,4.009855
5.787201,4.009855
5.791405,4.009855
5.799606,4.009855
5.807907,4.009855
5.815903,4.009855
5.824005,4.009855
5.828300,4.009855
5.836304,4.009855
5.844406,4.009855
5.852600,4.009855
5.860901,4.009855
5.865105,4.009855
5.873207,4.009855
5.877502,4.009855
5.885605,4.009855
5.893600,4.009855
5.901802,4.009855
5.910004,4.009855
5.914406,4.009855
5.922401,3.929246
5.930504,3.929246
5.934807,3.929246
5.942902,3.929246
5.951103,3.929246
5.959206,3.929246
5.967407,3.929246
5.971603,3.929246
5.979706,3.929246
5.987801,3.929246
5.992104,3.901940
6.000305,3.901940
6.008507,3.901940
