time,angle
-0.498993,0.181308
-0.490814,0.181308
-0.482636,0.118694
-0.474587,0.118694
-0.466461,0.118694
-0.462174,0.118694
-0.454132,0.118694
-0.446060,0.118694
-0.437866,0.118694
-0.429596,0.128204
-0.425316,0.128204
-0.417236,0.128204
-0.409096,0.128204
-0.404869,0.128204
-0.396782,0.128204
-0.388596,0.128204
-0.380325,0.086229
-0.372223,0.201741
-0.367935,0.201741
-0.359856,0.201741
-0.351761,0.201741
-0.347481,0.201741
-0.339325,0.201741
-0.331017,0.201741
-0.322983,0.173589
-0.314949,0.173589
-0.306816,0.173589
-0.298546,0.173589
-0.290314,0.173589
-0.286011,0.173589
-0.277916,0.173589
-0.269836,0.173589
-0.265526,0.173589
-0.257416,0.173589
-0.249374,0.173589
-0.245071,0.178041
-0.237045,0.178041
-0.228821,0.178041
-0.220696,0.178041
-0.216400,0.178041
-0.208344,0.178041
-0.200226,0.178041
-0.195976,0.164325
-0.187843,0.106531
-0.179627,0.106531
-0.171539,0.106531
-0.167191,0.106531
-0.159149,0.106531
-0.151070,0.106531
-0.146759,0.106531
-0.138634,0.173589
-0.130364,0.173589
-0.122322,0.173589
-0.114296,0.173589
-0.106163,0.173589
-0.097870,0.173589
-0.089645,0.173589
-0.085396,0.173589
-0.077263,0.173589
-0.069176,0.173589
-0.064880,0.173589
-0.056755,0.173589
-0.048599,0.173589
-0.040436,0.173589
-0.032341,0.173589
-0.028030,0.173589
-0.019974,0.173589
-0.011711,0.173589
-0.007576,0.173589
0.000626,0.173589
0.008965,0.173589
0.016830,0.173589
0.021240,0.173589
0.029259,0.173589
0.037331,0.173589
0.041634,0.173589
0.049850,0.173589
0.058060,0.173589
0.066093,0.173589
0.074203,0.173589
0.078537,0.173589
0.086617,0.173589
0.094604,0.173589
0.102814,0.173589
0.111054,0.173589
0.115379,0.173589
0.123436,0.173589
0.131569,0.173589
0.135834,0.115350
0.143868,0.115350
0.152069,0.115350
0.160286,0.115350
0.168404,0.115350
0.172646,0.115350
0.180718,0.115350
0.188866,0.115350
0.193100,0.115350
0.201309,0.115350
0.209480,0.115350
0.217560,0.115350
0.221901,0.115350
0.229950,0.115350
0.238030,0.115350
0.242355,0.115350
0.250374,0.115350
0.258530,0.086229
0.262764,0.086229
0.270981,0.086229
0.279038,0.086229
0.287140,0.000000
0.291420,0.094873
0.299507,0.094873
0.303818,0.094873
0.311935,0.121947
0.324036,0.121947
0.328247,0.121947
0.336304,0.197824
0.340660,0.197824
0.348709,0.197824
0.356758,0.197824
0.364883,0.197824
0.373200,0.197824
0.377510,0.352215
0.385567,0.376905
0.393669,0.376905
0.397965,0.376905
0.406014,0.457568
0.414124,0.457568
0.422386,0.457568
0.430527,0.540317
0.434799,0.540317
0.442856,0.623696
0.451004,0.623696
0.455284,0.623696
0.463364,0.768977
0.471634,0.768977
0.479698,0.768977
0.487824,0.855237
0.492104,0.855237
0.500198,0.855237
0.508278,0.941492
0.512634,1.037598
0.520920,1.037598
0.528931,1.037598
0.537010,1.123439
0.541344,1.209337
0.549377,1.209337
0.557434,1.209337
0.561836,1.295280
0.573875,1.295280
0.578156,1.455891
0.586197,1.455891
0.594338,1.455891
0.598595,1.541927
0.606644,1.628227
0.614769,1.714407
0.623055,1.714407
0.631195,1.789145
0.635437,1.875445
0.643555,1.961742
0.651665,1.961742
0.655930,2.036536
0.664070,2.122924
0.672264,2.122924
0.680374,2.209303
0.684685,2.284134
0.692795,2.284134
0.700867,2.370338
0.705170,2.456865
0.713310,2.618008
0.721535,2.618008
0.729584,2.618008
0.737679,2.779463
0.742020,2.779463
0.750038,2.779463
0.758110,2.865803
0.762489,2.940713
0.774529,2.940713
0.778839,2.940713
0.786881,3.027115
0.795029,3.027115
0.799309,3.102109
0.807335,3.102109
0.815437,3.102109
0.823753,3.102109
0.828064,3.263448
0.836121,3.263448
0.844200,3.263448
0.848534,3.263448
0.856621,3.263448
0.864746,3.338416
0.872955,3.338416
0.881050,3.338416
0.885368,3.338416
0.893425,3.338416
0.901550,3.338416
0.905830,3.338416
0.913971,3.338416
0.922226,3.338416
0.930229,3.338416
0.938370,3.259486
0.942711,3.259486
0.950821,3.264228
0.958817,3.264228
0.963165,3.338885
0.975266,3.338885
0.979477,3.338885
0.987549,3.252752
0.991943,3.178107
0.999954,3.178107
1.007980,3.178107
1.016090,3.178107
1.024406,3.178107
1.028709,3.091995
1.036751,3.091995
1.044876,3.091995
1.049164,3.091995
1.057220,3.091995
1.065331,3.005959
1.073601,3.005959
1.081726,3.005959
1.085991,3.080514
1.094070,3.080514
1.102203,3.080514
1.106461,3.080514
1.114586,2.994475
1.122849,2.994475
1.130898,2.994475
1.135239,3.002375
1.143318,3.002375
1.151367,3.002375
1.155708,3.002375
1.163811,3.016231
1.172096,3.016231
1.180138,3.016231
1.188194,3.016231
1.192619,3.016231
1.200630,3.090285
1.208656,3.090285
1.216766,3.090285
1.225098,3.090285
1.229378,3.090285
1.237450,3.090285
1.245590,3.250043
1.249847,3.250043
1.257896,3.250043
1.266006,3.250043
1.274254,3.250043
1.282417,3.250043
1.286674,3.250043
1.294724,3.250043
1.299057,3.409902
1.307098,3.409902
1.315216,3.409902
1.323494,3.409902
1.331573,3.409902
1.335876,3.409902
1.343941,3.409902
1.352036,3.495640
1.356354,3.495640
1.364456,3.495640
1.372704,3.495640
1.380760,3.569906
1.388901,3.655699
1.393188,3.655699
1.401237,3.665113
1.409340,3.665113
1.413704,3.680786
1.425789,3.680786
1.430031,3.766084
1.438087,3.766084
1.446259,3.766084
1.450500,3.766084
1.458580,3.766084
1.466667,3.851428
1.474968,3.851428
1.479286,3.851428
1.487350,3.851428
1.495430,3.851428
1.499756,3.851428
1.507820,3.851428
1.515884,3.851428
1.524178,3.851428
1.532280,3.936814
1.536613,3.936814
1.544701,3.936814
1.552940,3.936814
1.561104,3.936814
1.569176,3.936814
1.577324,3.936814
1.581635,3.936814
1.589676,3.936814
1.597725,4.010783
1.605919,4.010783
1.614174,4.010783
1.618484,3.936814
1.626579,3.936814
1.634659,3.936814
1.639000,4.022338
1.647064,4.040166
1.655220,4.040166
1.663460,4.040166
1.671631,4.040166
1.679688,4.040166
1.684029,3.955374
1.692078,3.955374
1.700180,3.955374
1.704498,3.955374
1.712715,3.955374
1.720863,3.955374
1.728920,3.955374
1.737038,3.955374
1.741325,3.955374
1.749405,3.870650
1.757446,3.886452
1.765671,3.886452
1.773895,3.886452
1.778198,3.886452
1.786301,3.886452
1.794380,3.886452
1.798691,3.886452
1.806694,3.802203
1.814926,3.802203
1.823105,3.802203
1.831238,3.875099
1.835510,3.875099
1.843567,3.875099
1.847900,3.875099
1.855988,3.875099
1.864235,3.875099
1.872330,3.875099
1.880424,3.875099
1.884750,3.875099
1.896660,3.875099
1.904968,3.875099
1.909279,3.875099
1.917274,3.875099
1.925560,3.875099
1.933640,3.875099
1.937904,3.790856
1.946114,3.790856
1.954254,3.790856
1.962494,3.790856
1.970551,3.790856
1.978683,3.790856
1.983047,3.790856
1.991028,3.790856
1.995331,3.790856
2.003593,3.790856
2.015526,3.863661
2.023758,3.863661
2.028000,3.863661
2.036125,3.863661
2.044380,3.863661
2.052620,3.863661
2.060654,3.863661
2.068687,3.863661
2.077003,3.863661
2.081276,3.863661
2.089340,3.863661
2.097450,3.863661
2.105675,3.863661
2.113876,3.863661
2.118210,3.790856
2.126320,3.790856
2.134438,3.790856
2.142624,3.790856
2.150658,3.863661
2.155090,3.863661
2.167030,3.863661
2.175301,3.863661
2.179604,3.863661
2.187614,3.947990
2.195770,3.947990
2.199997,3.947990
2.208084,3.947990
2.216270,3.947990
2.224564,3.947990
2.232658,4.032355
2.236900,4.105369
2.244980,4.105369
2.253151,4.105369
2.257370,4.210172
2.265594,4.210172
2.273849,4.210172
2.281891,4.294548
2.289986,4.294548
2.294304,4.294548
2.302361,4.378956
2.310417,4.452103
2.314804,4.452103
2.326828,4.452103
2.331123,4.536651
2.339165,4.536651
2.347305,4.536651
2.351601,4.621223
2.359634,4.621223
2.367790,4.705945
2.376060,4.705945
2.384178,4.779302
2.388435,4.883750
2.396484,4.883750
2.404640,4.968382
2.408897,4.983462
2.417000,5.067785
2.425270,5.067785
2.433350,5.067785
2.437645,5.225285
2.445740,5.225285
2.453804,5.225285
2.458130,5.330794
2.466217,5.330794
2.474518,5.330794
2.482567,5.431015
2.490669,5.587880
2.494987,5.587880
2.503044,5.587880
2.511124,5.694435
2.515488,5.694435
2.527527,5.694435
2.531830,5.867753
2.539879,5.867753
2.548004,5.951571
2.552284,5.951571
2.560341,5.975370
2.568451,5.975370
2.576729,5.975370
2.584846,6.059095
2.589104,6.059095
2.597191,6.059095
2.605324,6.076993
2.609589,6.076993
2.617683,6.160362
2.625954,6.160362
2.634041,6.160362
2.638359,6.160362
2.646469,6.160362
2.654724,6.160362
2.662880,6.160362
2.670944,6.076993
2.679100,6.076993
2.683380,6.076993
2.691437,6.076993
2.699554,6.076993
2.703835,6.076993
2.711914,6.149149
2.719940,6.065757
2.728218,6.065757
2.732513,6.065757
2.740578,6.065757
2.748688,6.065757
2.752991,6.065757
2.761040,5.964107
2.769096,5.964107
2.777397,5.964107
2.781708,5.964107
2.789795,5.964107
2.797874,5.952789
2.802170,5.952789
2.810226,5.952789
2.818329,5.952789
2.826599,5.952789
2.834717,5.869155
2.838974,5.869155
2.847054,5.869155
2.855186,5.869155
2.859459,5.869155
2.867584,5.869155
2.875854,5.869155
2.883888,5.785604
2.892014,5.785604
2.896294,5.785604
2.904366,5.785604
2.908707,5.857857
2.916817,5.857857
2.925087,5.857857
2.933136,5.857857
2.941277,5.857857
2.949364,5.876598
2.957581,5.876598
2.965790,5.876598
2.970039,5.876598
2.978180,5.876598
2.986305,5.876598
2.990685,5.857857
2.998604,5.857857
3.006927,5.857857
3.015038,5.857857
3.023140,5.857857
3.027420,5.857857
3.035484,5.857857
3.043610,5.857857
3.047867,5.857857
3.056099,5.857857
3.064247,5.833816
3.072289,5.833816
3.080460,5.833816
3.084709,5.833816
3.092758,5.833816
3.100807,5.749991
3.109024,5.749991
3.117310,5.749991
3.121590,5.822414
3.129616,5.822414
3.134010,5.822414
3.142014,5.822414
3.150101,5.822414
3.154396,5.822414
3.162460,5.822414
3.170525,5.805862
3.178780,5.805862
3.183090,5.805862
3.191124,5.721732
3.199226,5.721732
3.203529,5.721732
3.211578,5.615240
3.219696,5.615240
3.227936,5.615240
3.236084,5.531020
3.240334,5.531020
3.248428,5.531020
3.256569,5.446904
3.260811,5.362826
3.268921,5.362826
3.277168,5.362826
3.285271,5.278823
3.289619,5.194898
3.297630,5.194898
3.305725,5.194898
3.310051,5.111018
3.318153,5.099619
3.326408,5.099619
3.334480,5.015791
3.342590,5.015791
3.346878,5.015791
3.354935,4.932170
3.363014,4.848564
3.367386,4.765058
3.379440,4.765058
3.383690,4.609722
3.391747,4.526536
3.399910,4.418585
3.404144,4.418585
3.412201,4.315521
3.420280,4.159678
3.428596,4.159678
3.432930,4.076262
3.440994,3.992971
3.449089,3.992971
3.453384,3.838084
3.461426,3.730246
3.469566,3.647119
3.477814,3.647119
3.485924,3.492614
3.490227,3.387436
3.498283,3.387436
3.506409,3.304286
3.510704,3.221303
3.518806,3.067331
3.527046,3.067331
3.535110,2.959095
3.543304,2.959095
3.547539,2.959095
3.555588,2.876439
3.563705,2.722970
3.568077,2.615914
3.580139,2.615914
3.584358,2.533350
3.592445,2.462276
3.600616,2.354098
3.604851,2.354098
3.612907,2.354098
3.621010,2.200693
3.629295,2.200693
3.633614,2.200693
3.641701,2.176188
3.649765,2.176188
3.654068,2.093215
3.662125,2.093215
3.670250,1.997824
3.678497,1.997824
3.688431,1.997824
3.690910,1.997824
3.698944,1.997824
3.707115,1.997824
3.711380,1.893309
3.719490,1.893309
3.727745,1.893309
3.735809,1.893309
3.744011,1.874402
3.748230,1.874402
3.756279,1.874402
3.764397,1.874402
3.768745,1.786298
3.776985,1.786298
3.785004,1.786298
3.793045,1.786298
3.797501,1.786298
3.809425,1.786298
3.813850,1.786298
3.821930,1.786298
3.830040,1.801354
3.838150,1.801354
3.842438,1.801354
3.850464,1.801354
3.858658,1.801354
3.862877,1.801354
3.870934,1.820804
3.879166,1.820804
3.887329,1.904851
3.891594,1.904851
3.899651,1.926001
3.903954,1.926001
3.912041,1.997824
3.920128,1.997824
3.928360,1.997824
3.936470,2.081307
3.940910,2.081307
3.948891,2.081307
3.956970,2.081307
3.961220,2.104591
3.969330,2.104591
3.977631,2.104591
3.985779,2.187581
3.993805,2.115813
3.998131,2.115813
4.006180,2.115813
4.010590,2.115813
4.018600,2.141283
4.026848,2.141283
4.034874,2.141283
4.042946,2.223079
4.047340,2.223079
4.055359,2.223079
4.063400,2.223079
4.071510,2.223079
4.079826,2.223079
4.084145,2.223079
4.092171,2.294052
4.100304,2.294052
4.108574,2.294052
4.116684,2.294052
4.121040,2.294052
4.129181,2.294052
4.137199,2.294052
4.145325,2.294052
4.149628,2.294052
4.157837,2.294052
4.166039,2.294052
4.174088,2.376688
4.182205,2.376688
4.186485,2.376688
4.194565,2.376688
4.202576,2.376688
4.210800,2.376688
4.219070,2.376688
4.223351,2.376688
4.231384,2.402652
4.239540,2.402652
4.243805,2.402652
4.251823,2.402652
4.260040,2.402652
4.268265,2.402652
4.272614,2.402652
4.280617,2.402652
4.288704,2.402652
4.293007,2.402652
4.301056,2.402652
4.309280,2.402652
4.317436,2.402652
4.325523,2.402652
4.329857,2.402652
4.337944,2.402652
4.346046,2.402652
4.350304,2.320940
4.358521,2.320940
4.366707,2.320940
4.374794,2.320940
4.382874,2.320940
4.387154,2.320940
4.395210,2.320940
4.399544,2.320940
4.411446,2.320940
4.419769,2.320940
4.424004,2.320940
4.432091,2.349687
4.436394,2.349687
4.444458,2.269348
4.452591,2.269348
4.456841,2.269348
4.464874,2.269348
4.472931,2.269348
4.481194,2.269348
4.485497,2.269348
4.493561,2.269348
4.501671,2.189548
4.505928,2.189548
4.514000,2.258368
4.522110,2.258368
4.530365,2.258368
4.534676,2.258368
4.542740,2.258368
4.550835,2.258368
4.555138,2.258368
4.563187,2.258368
4.571304,2.290722
4.579597,2.290722
4.587708,2.325910
4.591980,2.325910
4.600060,2.325910
4.608185,2.325910
4.612434,2.393019
4.620590,2.393019
4.628830,2.393019
4.636856,2.428741
4.644989,2.467597
4.649254,2.467597
4.657318,2.543837
4.661644,2.543837
4.669777,2.543837
4.678047,2.543837
4.686089,2.624057
4.694160,2.624057
4.698509,2.624057
4.706566,2.624057
4.714600,2.624057
4.722740,2.624057
4.731049,2.624057
4.735344,2.711444
4.743408,2.711444
4.751534,2.711444
4.755829,2.711444
4.763855,2.829854
4.771980,2.875759
4.780258,2.875759
4.788376,2.875759
4.792625,2.924894
4.800735,2.924894
4.808861,2.973548
4.813110,2.973548
4.821251,3.025563
4.829491,3.025563
4.837555,3.076762
4.841888,3.131441
4.849930,3.131441
4.858017,3.184875
4.862328,3.241900
4.870445,3.297466
4.878746,3.297466
4.886780,3.356489
4.894836,3.474967
4.899200,3.474967
4.907249,3.474967
4.915314,3.549169
4.919754,3.675729
4.931717,3.675729
4.935974,3.804880
4.944183,3.936615
4.952248,3.936615
4.956474,4.070493
4.964546,4.206309
4.972610,4.276496
4.980904,4.276496
4.989105,4.414949
4.993309,4.555007
5.001366,4.555007
5.005730,4.661444
5.013763,4.805219
5.021873,4.950170
5.030144,4.950170
5.038231,5.096161
5.042549,5.243104
5.050591,5.243104
5.058701,5.390888
5.062981,5.539517
5.071106,5.688857
5.079407,5.688857
5.087418,5.732171
5.095535,5.806605
5.099876,5.806605
5.107895,5.958023
5.115959,6.034912
5.120354,6.110066
5.132408,6.110066
5.136681,6.187099
5.144737,6.262626
5.152901,6.262626
5.157181,6.262626
5.165237,6.339824
5.173340,6.415607
5.181610,6.415607
5.189789,6.415607
5.194008,6.439859
5.202126,6.439859
5.210365,6.439859
5.218651,6.439859
5.226646,6.439859
5.234795,6.364271
5.239029,6.364271
5.247108,6.287466
5.251434,6.287466
5.259499,6.287466
5.267609,6.212240
5.275665,6.135585
5.280128,6.167232
5.288200,6.167232
5.296234,6.016661
5.300613,6.016661
5.308624,6.016661
5.316681,5.866717
5.321060,5.866717
5.329285,5.866717
5.337318,5.866717
5.345375,5.792917
5.349724,5.792917
5.357803,5.717449
5.365829,5.683307
5.370216,5.683307
5.382248,5.683307
5.386604,5.683307
5.394577,5.609618
5.402748,5.609618
5.406990,5.533854
5.415024,5.533854
5.423164,5.533854
5.431450,5.533854
5.439598,5.683307
5.443871,5.683307
5.452019,5.683307
5.460228,5.683307
5.468407,5.683307
5.476440,5.683307
5.484634,5.683307
5.488914,5.683307
5.496964,5.683307
5.501289,5.683307
5.513214,5.683307
5.521530,5.650347
5.525795,5.650347
5.533836,5.650347
5.541954,5.650347
5.550171,5.650347
5.554459,5.650347
5.562584,5.650347
5.570801,5.650347
5.578964,5.650347
5.587044,5.650347
5.591377,5.650347
5.599426,5.650347
5.607544,5.500037
5.611855,5.500037
5.620064,5.500037
5.628258,5.500037
5.636284,5.500037
5.644394,5.500037
5.648674,5.500037
5.656746,5.500037
5.664795,5.350351
5.673004,5.350351
5.681259,5.350351
5.685631,5.350351
5.693634,5.350351
5.701767,5.350351
5.706024,5.350351
5.714066,5.201494
5.722267,5.201494
5.730591,5.166912
5.738594,5.139041
5.742950,5.139041
5.750984,5.139041
5.759079,5.139041
5.763420,5.139041
5.771606,5.139041
5.783630,5.139041
5.787888,5.139041
5.795944,5.062486
5.800278,5.062486
5.808350,4.989120
5.816360,4.989120
5.824524,4.989120
5.832809,4.989120
5.837120,4.989120
5.845154,4.989120
5.853264,4.989120
5.857620,4.989120
5.865623,4.989120
5.873764,4.989120
5.882004,4.989120
5.890114,4.989120
5.894394,4.805749
5.902588,4.805749
5.910851,4.805749
5.918983,4.805749
5.927025,4.805749
5.935181,4.805749
5.939667,4.805749
5.947594,4.805749
5.955627,4.772945
5.959930,4.772945
5.967995,4.772945
5.976044,4.800283
5.984459,4.800283
5.988678,4.800283
5.996658,4.800283
6.004921,4.800283
6.009064,4.800283
