time,angle
-0.498489,0.088469
-0.490330,0.088469
-0.482121,0.088469
-0.477779,0.088469
-0.469730,0.088469
-0.461510,0.088469
-0.453440,0.088469
-0.449129,0.088469
-0.441019,0.088469
-0.432779,0.088469
-0.424521,0.088469
-0.416531,0.088469
-0.408390,0.146710
-0.404120,0.146710
-0.396059,0.146710
-0.388020,0.146710
-0.379810,0.146710
-0.371540,0.146710
-0.358530,0.146710
-0.358419,0.146710
-0.351049,0.146710
-0.346819,0.146710
-0.338770,0.146710
-0.330599,0.146710
-0.326160,0.098912
-0.318239,0.098912
-0.310049,0.159490
-0.305750,0.159490
-0.297649,0.159490
-0.289560,0.159490
-0.285250,0.159490
-0.277189,0.159490
-0.269100,0.159490
-0.260880,0.159490
-0.252760,0.159490
-0.248419,0.159490
-0.240299,0.159490
-0.232081,0.159490
-0.223919,0.159490
-0.215889,0.159490
-0.207710,0.159490
-0.203440,0.159490
-0.195379,0.159490
-0.191050,0.159490
-0.183010,0.159490
-0.174950,0.159490
-0.170610,0.159490
-0.162369,0.159490
-0.154299,0.131221
-0.146269,0.131221
-0.141930,0.131221
-0.133879,0.131221
-0.125849,0.145370
-0.121429,0.145370
-0.109400,0.145370
-0.105120,0.145370
-0.097090,0.145370
-0.088930,0.145370
-0.080690,0.145370
-0.072519,0.145370
-0.068199,0.145370
-0.059929,0.145370
-0.052000,0.145370
-0.047720,0.145370
-0.039640,0.145370
-0.031399,0.145370
-0.023180,0.145370
-0.015080,0.145370
-0.006969,0.145370
-0.002779,0.145370
0.005291,0.145370
0.009809,0.145370
0.017950,0.145370
0.029840,0.145370
0.034081,0.145370
0.042130,0.145370
0.050270,0.145370
0.054621,0.145370
0.062660,0.131221
0.070810,0.131221
0.079071,0.131221
0.087181,0.131221
0.091511,0.131221
0.099649,0.131221
0.107811,0.159490
0.115900,0.159490
0.120201,0.159490
0.128481,0.159490
0.136751,0.159490
0.144671,0.159490
0.152700,0.159490
0.160891,0.159490
0.169149,0.108352
0.177290,0.108352
0.181570,0.108352
0.189741,0.108352
0.197790,0.108352
0.202131,0.108352
0.210239,0.108352
0.218491,0.108352
0.226730,0.108352
0.234770,0.108352
0.242840,0.159490
0.247181,0.159490
0.255190,0.234903
0.263290,0.234903
0.267641,0.234903
0.275740,0.234903
0.283781,0.234903
0.292011,0.316518
0.296301,0.316518
0.304359,0.316518
0.312491,0.316518
0.316771,0.316518
0.324831,0.427959
0.332911,0.427959
0.341141,0.427959
0.345520,0.508604
0.353519,0.662047
0.361651,0.662047
0.365940,0.662047
0.374001,0.745986
0.382130,0.829687
0.390381,0.829687
0.398470,0.829687
0.402771,0.914288
0.410830,0.914288
0.418940,0.924927
0.423231,0.924927
0.431320,1.009494
0.439591,1.009494
0.447640,1.094322
0.451960,1.179188
0.460041,1.179188
0.468121,1.198120
0.472490,1.282374
0.480581,1.440350
0.488850,1.440350
0.496891,1.440350
0.504990,1.525211
0.509281,1.525211
0.517330,1.525211
0.525410,1.609976
0.529779,1.609976
0.541811,1.609976
0.546061,1.694775
0.554110,1.769125
0.558500,1.769125
0.566521,1.854141
0.574570,1.871685
0.582809,2.043539
0.590981,2.043539
0.595341,2.043539
0.603321,2.201315
0.611441,2.201315
0.615830,2.201315
0.623741,2.285761
0.631910,2.285761
0.640141,2.359662
0.644491,2.444245
0.652500,2.518394
0.660620,2.518394
0.664980,2.603087
0.672960,2.668805
0.681170,2.668805
0.689301,2.668805
0.697420,2.828886
0.701750,2.828886
0.709761,2.828886
0.714121,2.989110
0.722160,2.989110
0.730310,2.989110
0.738411,3.051013
0.742691,3.134566
0.750731,3.134566
0.755041,3.210162
0.763111,3.295684
0.771181,3.295684
0.775501,3.371272
0.783531,3.456721
0.791740,3.456721
0.799830,3.532358
0.804131,3.617850
0.812191,3.617850
0.820311,3.617850
0.824560,3.780666
0.832670,3.780666
0.840931,3.780666
0.849020,3.942083
0.853321,3.942083
0.861450,3.942083
0.869490,4.017905
0.873770,4.103364
0.881920,4.103364
0.890171,4.103364
0.898291,4.264710
0.906340,4.350147
0.910631,4.350147
0.918711,4.425982
0.926760,4.515705
0.931210,4.591712
0.943321,4.591712
0.947481,4.677093
0.955511,4.753079
0.963680,4.753079
0.967930,4.908040
0.975981,4.993281
0.984171,5.076863
0.992441,5.076863
0.996710,5.162055
1.004770,5.238057
1.012861,5.238057
1.017151,5.323254
1.025209,5.484408
1.033340,5.484408
1.041601,5.484408
1.049711,5.645524
1.053989,5.739790
1.062080,5.739790
1.070230,5.900898
1.074471,5.985891
1.082670,6.061975
1.090839,6.061975
1.098871,6.146981
1.107010,6.308013
1.111311,6.308013
1.119320,6.392951
1.123671,6.564322
1.131811,6.649243
1.140070,6.649243
1.148161,6.725287
1.156179,6.810169
1.160500,6.810169
1.168560,6.900323
1.176590,6.985278
1.184731,7.061359
1.193041,7.061359
1.197321,7.146303
1.205441,7.231258
1.213520,7.231258
1.217770,7.231258
1.225830,7.392208
1.233971,7.392208
1.242189,7.392208
1.246540,7.477061
1.254560,7.483855
1.262661,7.483855
1.266951,7.568827
1.274990,7.568827
1.283190,7.568827
1.291361,7.729846
1.295681,7.721055
1.303730,7.805949
1.311840,7.805949
1.316130,7.805949
1.324200,7.899633
1.332340,7.899633
1.340490,7.899633
1.344770,7.975628
1.352850,7.975628
1.360950,8.060561
1.365221,8.060561
1.373291,8.060561
1.381500,8.060561
1.389681,8.145434
1.393881,8.145434
1.401951,8.145434
1.406351,8.221440
1.414301,8.221440
1.422400,8.221440
1.426750,8.306288
1.434750,8.306288
1.442951,8.306288
1.451071,8.306288
1.455320,8.306288
1.463430,8.306288
1.467720,8.306288
1.475771,8.382276
1.483900,8.467099
1.492201,8.467099
1.500221,8.467099
1.504539,8.477044
1.512609,8.477044
1.520700,8.477044
1.524990,8.477044
1.533131,8.477044
1.541420,8.477044
1.549459,8.553041
1.557541,8.553041
1.561861,8.553041
1.569920,8.637929
1.577961,8.637929
1.582560,8.637929
1.594440,8.637929
1.598700,8.637929
1.606741,8.637929
1.615000,8.637929
1.619131,8.637929
1.627180,8.637929
1.635330,8.637929
1.643579,8.637929
1.647970,8.637929
1.656010,8.722739
1.664061,8.722739
1.668411,8.722739
1.676441,8.722739
1.684629,8.722739
1.692841,8.722739
1.700951,8.807520
1.705231,8.807520
1.713301,8.807520
1.721401,8.883519
1.725679,8.883519
1.733820,8.968282
1.742081,8.968282
1.750130,8.892339
1.758240,8.892339
1.762520,8.892339
1.770580,8.892339
1.778681,8.977084
1.783060,8.977084
1.795130,8.977084
1.799370,8.984895
1.807421,9.069649
1.815599,9.069649
1.819830,9.069649
1.827869,8.993637
1.836020,8.993637
1.844280,8.993637
1.848671,9.078376
1.856689,9.078376
1.864750,9.078376
1.869110,9.088802
1.877131,9.173569
1.885271,9.249622
1.893530,9.249622
1.901670,9.249622
1.905930,9.249622
1.914000,9.249622
1.922081,9.334373
1.926380,9.334373
1.934629,9.334373
1.942841,9.334373
1.950821,9.334373
1.958920,9.410413
1.963200,9.410413
1.971270,9.495107
1.975601,9.487672
1.983961,9.487672
1.995800,9.487672
2.000160,9.499701
2.008101,9.499701
2.012501,9.499701
2.020510,9.660335
2.028551,9.660335
2.036671,9.660335
2.044960,9.660335
2.049370,9.660335
2.057331,9.654227
2.065441,9.654227
2.069740,9.667577
2.077780,9.752235
2.085930,9.752235
2.094181,9.752235
2.102320,9.752235
2.106571,9.836873
2.114660,9.836873
2.122780,9.912704
2.127029,9.912704
2.135201,9.997293
2.143461,9.997293
2.151470,9.997293
2.159641,10.011390
2.163879,10.011390
2.171940,10.011390
2.176291,10.096020
2.184481,10.171830
2.196491,10.171830
2.200750,10.171830
2.208801,10.096020
2.217091,10.096020
2.221210,10.096020
2.229259,10.180590
2.237400,10.180590
2.245741,10.180590
2.250000,10.180590
2.258039,10.180590
2.266130,10.180590
2.270540,10.180590
2.278511,10.180590
2.286621,10.180590
2.294880,10.180590
2.302999,10.180590
2.307270,10.265140
2.315371,10.265140
2.323471,10.265140
2.327721,10.265140
2.335850,10.265140
2.344090,10.265140
2.352160,10.265140
2.356501,10.340960
2.364571,10.340960
2.372620,10.346380
2.376951,10.417240
2.385071,10.417240
2.393330,10.417240
2.401430,10.417240
2.409420,10.417240
2.417551,10.417240
2.425819,10.417240
2.434040,10.417240
2.438301,10.417240
2.446451,10.424060
2.454531,10.424060
2.458830,10.424060
2.466860,10.424060
2.475010,10.424060
2.479259,10.424060
2.487310,10.424060
2.495541,10.424060
2.503681,10.424060
2.507910,10.411520
2.516010,10.411520
2.520300,10.411520
2.528360,10.411520
2.536501,10.411520
2.544750,10.411520
2.552820,10.495710
2.557159,10.495710
2.565210,10.495710
2.573299,10.495710
2.577579,10.495710
2.585730,10.495710
2.594009,10.495710
2.602051,10.571760
2.610140,10.656250
2.614510,10.656250
2.622520,10.656250
2.630569,10.656250
2.634970,10.732270
2.647051,10.732270
2.651279,10.732270
2.659330,10.816740
2.663721,10.816740
2.671770,10.816740
2.679790,10.816740
2.687920,10.816740
2.696199,10.816740
2.700560,10.892750
2.708561,10.977180
2.716690,10.977180
2.720970,10.977180
2.729031,10.977180
2.737200,10.986450
2.745470,10.986450
2.753531,10.986450
2.757830,11.146960
2.765890,11.146960
2.774021,11.146960
2.778370,11.146960
2.786470,11.307400
2.794691,11.307400
2.802740,11.297890
2.810841,11.310330
2.815140,11.310330
2.823221,11.394720
2.831270,11.470710
2.835661,11.470710
2.847780,11.470710
2.851980,11.555030
2.860020,11.555030
2.868221,11.555030
2.872459,11.631010
2.880510,11.728540
2.888611,11.728540
2.896910,11.728540
2.901279,11.812860
2.909281,11.812860
2.917431,11.812860
2.921671,11.812860
2.929729,11.973120
2.937920,11.973120
2.946199,11.973120
2.954241,11.973120
2.958530,11.973120
2.966591,11.973120
2.974701,11.973120
2.979101,12.057360
2.987131,12.133300
2.995350,12.133300
3.003500,12.133300
3.011539,12.133300
3.015921,12.133300
3.023861,12.147290
3.028200,12.147290
3.036331,12.147290
3.044640,12.147290
3.052660,12.223260
3.060740,12.223260
3.065130,12.307530
3.073120,12.307530
3.081190,12.307530
3.089291,12.383490
3.097589,12.383490
3.101910,12.383490
3.109951,12.383490
3.118061,12.383490
3.122381,12.383490
3.130440,12.383490
3.138531,12.369390
3.146780,12.369390
3.154911,12.445320
3.159170,12.445320
3.167250,12.454600
3.175411,12.454600
3.179701,12.454600
3.187780,12.294370
3.196030,12.294370
3.204060,12.281350
3.208410,12.197150
3.216579,12.197150
3.224571,12.121140
3.228880,12.035210
3.236990,11.874910
3.245281,11.874910
3.253311,11.790640
3.261410,11.790640
3.265739,11.790640
3.273760,11.619850
3.281820,11.535510
3.286221,11.375130
3.298290,11.375130
3.302620,11.290740
3.310591,11.290740
3.318729,11.290740
3.322990,11.120790
3.331060,11.120790
3.339180,11.036370
3.347431,11.036370
3.355610,10.875890
3.359831,10.875890
3.367920,10.875890
3.376070,10.782790
3.380310,10.706840
3.388451,10.622320
3.396681,10.622320
3.404760,10.546370
3.409081,10.385860
3.417150,10.301280
3.425240,10.301280
3.429531,10.225300
3.437660,10.064660
3.445921,10.064660
3.454000,9.892448
3.462070,9.731812
3.466400,9.731812
3.474440,9.647159
3.482571,9.560386
3.486891,9.408616
3.498960,9.408616
3.503191,9.247838
3.511250,9.077921
3.515720,9.077921
3.523670,8.917159
3.531691,8.758965
3.539801,8.598181
3.548130,8.598181
3.552490,8.513500
3.560461,8.346356
3.568581,8.346356
3.572870,8.197884
3.580931,8.032651
3.589031,7.948162
3.597290,7.948162
3.605431,7.799006
3.609680,7.638615
3.617750,7.638615
3.625921,7.552891
3.630131,7.325470
3.638281,7.242265
3.646530,7.242265
3.654581,7.082524
3.658951,6.998604
3.666981,6.998604
3.675051,6.861871
3.679390,6.778357
3.687531,6.699722
3.695791,6.699722
3.703850,6.541129
3.711920,6.457950
3.716360,6.457950
3.724380,6.405727
3.732401,6.405727
3.740471,6.323071
3.748810,6.323071
3.753090,6.175015
3.761141,6.092876
3.769270,6.092876
3.773550,6.120036
3.781610,6.038191
3.789770,5.968805
3.797960,5.968805
3.806120,5.968805
3.810360,5.887429
3.818439,5.887429
3.822771,5.887429
3.830830,5.732341
3.838970,5.763100
3.847271,5.763100
3.855289,5.698117
3.859621,5.624969
3.867691,5.624969
3.875761,5.544927
3.880070,5.544927
3.888191,5.465007
3.896481,5.465007
3.904520,5.392088
3.912630,5.410409
3.917011,5.410409
3.924961,5.331199
3.933031,5.367319
3.937561,5.288724
3.949480,5.288724
3.953711,5.288724
3.961821,5.288724
3.966171,5.288724
3.974171,5.232181
3.982300,5.160917
3.990419,5.123614
3.998680,5.123614
4.003099,5.123614
4.011011,5.046943
4.019110,5.046943
4.023420,5.072268
4.031460,5.142356
4.039591,5.066316
4.047861,5.066316
4.055960,5.066316
4.060240,4.990572
4.068331,4.990572
4.076431,4.990572
4.080740,5.017587
4.088871,4.988020
4.097120,4.988020
4.105181,4.942764
4.113291,4.868242
4.117611,4.868242
4.125650,4.868242
4.133730,4.868242
4.138111,4.794117
4.150171,4.794117
4.154461,4.794117
4.162460,4.720284
4.170630,4.720284
4.174870,4.720284
4.182920,4.616558
4.191050,4.616558
4.199341,4.616558
4.203650,4.542907
4.211710,4.496754
4.219780,4.496754
4.224110,4.496754
4.232140,4.422794
4.240280,4.422794
4.248550,4.422794
4.256660,4.349201
4.260931,4.349201
4.269020,4.349201
4.277140,4.276084
4.281401,4.276084
4.289541,4.236234
4.297781,4.236234
4.305840,4.236234
4.313980,4.164806
4.318270,4.164806
4.326330,4.164806
4.334440,4.093904
4.338779,4.093904
4.350861,4.093904
4.355110,4.093904
4.363140,4.023555
4.367521,4.023555
4.375551,4.023555
4.383631,4.007021
4.391731,4.045350
4.400021,4.045350
4.404350,4.108944
4.412470,4.108944
4.420490,4.108944
4.424810,4.040942
4.432859,4.040942
4.440950,4.040942
4.449230,4.040942
4.457411,4.040942
4.461630,3.911163
4.469709,3.911163
4.477871,3.952204
4.482111,4.010490
4.490221,4.010490
4.498480,4.010490
4.506531,4.010490
4.511040,4.010490
4.518921,4.010490
4.526979,3.949924
4.531321,3.949924
4.539471,3.949924
4.547729,3.949924
4.555759,3.886351
4.563820,3.827099
4.568190,3.827099
4.576220,3.827099
4.584280,3.827099
4.588680,3.827099
4.600731,3.827099
4.604971,3.827099
4.613050,3.768371
4.621191,3.768371
4.625481,3.768371
4.633541,3.768371
4.641611,3.768371
4.649900,3.768371
4.658030,3.710246
4.662270,3.710246
4.670351,3.710246
4.674671,3.710246
4.682730,3.710246
4.690840,3.652805
4.699131,3.652805
4.707180,3.652805
4.711510,3.652805
4.719551,3.652805
4.727671,3.652805
4.731930,3.652805
4.740080,3.652805
4.748461,3.652805
4.756441,3.596027
4.764500,3.596027
4.768820,3.596027
4.776861,3.596027
4.784910,3.537399
4.789330,3.537399
4.801420,3.537399
4.805651,3.482228
4.813700,3.482228
4.818050,3.482228
4.826130,3.482228
4.834141,3.482228
4.842260,3.482228
4.850561,3.482228
4.854881,3.482228
4.862900,3.427941
4.871059,3.427941
4.879311,3.427941
4.887430,3.427941
4.895510,3.427941
4.899900,3.427941
4.907949,3.427941
4.916050,3.427941
4.920340,3.427941
4.928431,3.427941
4.932810,3.427941
4.940891,3.374406
4.949051,3.374406
4.957069,3.374406
4.965179,3.374406
4.969490,3.374406
4.977541,3.374406
4.982170,3.374406
4.990000,3.321778
4.998230,3.321778
5.006281,3.268424
5.014351,3.268424
5.018660,3.268424
5.026711,3.268424
5.034771,3.268424
5.039190,3.322545
5.051229,3.322545
5.055470,3.271597
5.063520,3.271597
5.067871,3.271597
5.088591,3.271597
5.088820,3.222153
5.092110,3.222153
5.100410,3.222153
5.104660,3.295150
5.112659,3.248235
5.117031,3.248235
5.125040,3.248235
5.133091,3.248235
5.141300,3.248235
5.149540,3.202957
5.153780,3.202957
5.161840,3.202957
5.166170,3.202957
5.174240,3.159263
5.182501,3.159263
5.190540,3.159263
5.198681,3.159263
5.203020,3.159263
5.211111,3.083246
5.219160,3.083246
5.223520,3.082991
5.231550,3.082991
5.239731,3.082991
5.247829,3.082991
5.252230,3.082991
5.260300,3.082991
5.268501,3.082991
5.276541,3.082991
5.284590,3.082991
5.292770,3.082991
5.301060,3.082991
5.305370,3.083246
5.313471,3.159263
5.321529,3.159263
5.325809,3.159263
5.333830,3.159263
5.342001,3.159263
5.350250,3.117343
5.354530,3.117343
5.362591,3.159449
5.370689,3.159449
5.374960,3.117155
5.383011,3.117155
5.391220,3.117155
5.399431,3.117155
5.403700,3.117092
5.411770,3.117092
5.419849,3.117092
5.424160,3.117092
5.432230,3.159821
5.440460,3.159821
5.448540,3.117029
5.456701,3.117029
5.460951,3.117029
5.469009,3.117029
5.473351,3.117029
5.481470,3.117029
5.489611,3.117029
5.497690,3.193960
5.505821,3.193960
5.510099,3.193960
5.518150,3.193960
5.522501,3.193960
5.530571,3.193960
5.538670,3.193960
5.546730,3.193960
5.551161,3.193960
5.559191,3.193960
5.567291,3.193960
5.571621,3.193960
5.579840,3.193960
5.588039,3.193960
5.596090,3.193960
5.604200,3.193960
5.608490,3.193960
5.616520,3.193960
5.624640,3.193960
5.628920,3.193960
5.636950,3.193960
5.645010,3.193960
5.653311,3.193960
5.657591,3.117029
5.665689,3.160007
5.673780,3.160007
5.678051,3.160007
5.686069,3.160007
5.694170,3.117029
5.702461,3.117029
5.706760,3.117029
5.714821,3.117029
5.722931,3.117029
5.727221,3.117029
5.735281,3.117029
5.743420,3.117029
5.751671,3.117029
5.759880,3.040665
5.764021,2.998460
5.772091,2.998460
5.776510,2.998460
5.784470,2.998460
5.792671,2.937383
5.800920,2.937383
5.808941,2.937383
5.813290,2.896040
5.821360,2.896040
5.829411,2.896040
5.833740,2.896040
5.841850,2.818765
5.850151,2.818765
5.858191,2.818765
5.866261,2.778336
5.870571,2.778336
5.878620,2.778336
5.886660,2.778336
5.891100,2.778336
5.903141,2.778336
5.907480,2.715989
5.915470,2.598270
5.923630,2.598270
5.927860,2.598270
5.935930,2.598270
5.944120,2.598270
5.952330,2.598270
5.956631,2.598270
5.964710,2.598270
5.972841,2.598270
5.981211,2.598270
5.989300,2.598270
5.997320,2.598270
