time,angle
-0.495171,0.048457
-0.486910,0.048457
-0.478800,0.048457
-0.470820,0.048457
-0.462700,0.048457
-0.458241,0.048457
-0.450150,0.048457
-0.442061,0.048457
-0.433840,0.048457
-0.425619,0.048457
-0.417530,0.048457
-0.413240,0.048457
-0.405050,0.048457
-0.396820,0.048457
-0.388760,0.048457
-0.380730,0.048457
-0.372440,0.048457
-0.368130,0.048457
-0.360090,0.048457
-0.351971,0.048457
-0.347679,0.048457
-0.339621,0.034264
-0.331490,0.108352
-0.323240,0.108352
-0.315149,0.108352
-0.310881,0.108352
-0.302830,0.108352
-0.298451,0.108352
-0.290430,0.108352
-0.282311,0.108352
-0.274050,0.108352
-0.265949,0.108352
-0.261681,0.108352
-0.253540,0.108352
-0.245211,0.108352
-0.237089,0.108352
-0.229040,0.108352
-0.220949,0.108352
-0.216579,0.108352
-0.208509,0.108352
-0.200420,0.108352
-0.192259,0.108352
-0.184010,0.108352
-0.175869,0.108352
-0.171560,0.108352
-0.163401,0.108352
-0.155170,0.108352
-0.147070,0.108352
-0.139031,0.108352
-0.130909,0.108352
-0.122620,0.108352
-0.118240,0.108352
-0.110239,0.108352
-0.102070,0.108352
-0.093861,0.108352
-0.085590,0.108352
-0.077620,0.108352
-0.073229,0.108352
-0.065170,0.108352
-0.057060,0.108352
-0.052759,0.108352
-0.044580,0.108352
-0.036369,0.108352
-0.028280,0.034264
-0.020269,0.034264
-0.012129,0.034264
-0.003880,0.048457
0.000410,0.048457
0.008461,0.048457
0.016701,0.048457
0.024960,0.083929
0.033010,0.083929
0.037291,0.083929
0.045340,0.083929
0.053461,0.083929
0.057741,0.083929
0.065969,0.083929
0.074150,0.083929
0.082201,0.083929
0.090351,0.153233
0.094601,0.153233
0.102711,0.223812
0.106979,0.223812
0.118910,0.223812
0.127201,0.223812
0.131460,0.223812
0.139490,0.223812
0.147711,0.223812
0.155951,0.223812
0.164080,0.223812
0.168421,0.223812
0.176571,0.223812
0.184589,0.223812
0.192680,0.223812
0.197041,0.223812
0.209000,0.223812
0.217320,0.223812
0.221560,0.223812
0.229681,0.223812
0.237791,0.223812
0.242071,0.223812
0.250050,0.223812
0.258251,0.223812
0.266501,0.223812
0.270840,0.215800
0.278950,0.215800
0.286961,0.215800
0.291281,0.215800
0.299330,0.215800
0.307461,0.215800
0.315731,0.215800
0.323830,0.239848
0.328081,0.281855
0.336121,0.281855
0.344290,0.281855
0.348511,0.281855
0.356630,0.281855
0.360910,0.343781
0.368971,0.343781
0.377201,0.343781
0.385250,0.343781
0.389591,0.414959
0.397720,0.414959
0.405720,0.414959
0.410009,0.490588
0.418131,0.490588
0.426411,0.490588
0.434471,0.490588
0.442600,0.569583
0.446920,0.569583
0.454950,0.569583
0.462999,0.650419
0.467411,0.650419
0.479450,0.650419
0.483730,0.804786
0.491760,0.804786
0.499970,0.804786
0.504170,0.888234
0.512230,0.888234
0.520350,0.972168
0.528620,0.972168
0.532961,0.972168
0.540970,1.056473
0.549070,1.056473
0.553391,1.056473
0.561430,1.141239
0.569561,1.141239
0.577890,1.141239
0.585930,1.226050
0.590200,1.300105
0.598450,1.300105
0.606390,1.385221
0.610651,1.470735
0.618771,1.470735
0.627050,1.470735
0.635111,1.556077
0.643250,1.630629
0.647600,1.630629
0.655590,1.716232
0.659910,1.801897
0.668119,1.814883
0.676350,1.814883
0.684340,1.974570
0.692410,2.059946
0.696741,2.059946
0.704811,2.059946
0.712851,2.145575
0.721020,2.305711
0.729281,2.305711
0.733660,2.391465
0.741621,2.391465
0.749750,2.391465
0.754120,2.551903
0.762070,2.637747
0.770201,2.798273
0.778481,2.798273
0.786661,2.798273
0.790861,2.884119
0.798941,2.884119
0.803249,3.044911
0.811319,3.130878
0.819521,3.205707
0.827730,3.205707
0.835800,3.297881
0.840099,3.396325
0.848200,3.396325
0.856270,3.556443
0.860550,3.556443
0.868731,3.642069
0.876980,3.642069
0.885010,3.802306
0.893091,3.825922
0.897471,3.825922
0.905491,3.911113
0.913521,4.070589
0.917950,4.070589
0.929979,4.070589
0.934280,4.155862
0.942310,4.171854
0.950451,4.171854
0.954750,4.342531
0.962790,4.427442
0.970921,4.427442
0.979179,4.427442
0.987310,4.512364
0.991560,4.597298
0.999710,4.597298
1.007780,4.689013
1.012051,4.773848
1.020161,4.773848
1.028419,4.773848
1.036489,4.858776
1.040821,4.943715
1.048901,5.017744
1.056961,5.017744
1.061291,5.102769
1.069401,5.114122
1.077660,5.114122
1.085701,5.198857
1.093771,5.272731
1.098101,5.272731
1.106131,5.357562
1.114231,5.357562
1.118610,5.460954
1.130661,5.460954
1.134941,5.534810
1.142971,5.619566
1.151140,5.619566
1.155390,5.619566
1.163431,5.693540
1.171541,5.778316
1.179821,5.778316
1.184151,5.778316
1.192211,5.968017
1.200310,5.968017
1.204651,5.968017
1.212721,5.968017
1.220800,6.052524
1.229061,6.052524
1.237160,6.126184
1.241480,6.126184
1.249519,6.126184
1.257681,6.126184
1.261890,6.284503
1.270020,6.284503
1.278460,6.284503
1.286369,6.304780
1.294470,6.304780
1.298800,6.304780
1.306820,6.462959
1.314960,6.475537
1.319441,6.475537
1.331369,6.475537
1.335661,6.475537
1.343691,6.475537
1.351820,6.475537
1.356070,6.475537
1.364100,6.475537
1.372210,6.559809
1.380581,6.559809
1.384800,6.633327
1.392851,6.633327
1.401020,6.633327
1.405251,6.633327
1.413351,6.633327
1.421450,6.633327
1.429720,6.633327
1.437840,6.633327
1.442131,6.633327
1.450201,6.633327
1.458330,6.633327
1.462610,6.717701
1.470711,6.791278
1.478970,6.791278
1.487011,6.791278
1.491341,6.791278
1.499481,6.791278
1.507471,6.791278
1.511890,6.791278
1.519970,6.864871
1.528191,6.864871
1.536240,6.864871
1.544310,6.864871
1.548641,6.864871
1.556730,6.864871
1.564751,7.022974
1.569201,7.022974
1.581190,7.022974
1.585451,7.022974
1.593510,7.022974
1.601669,7.022974
1.605930,7.043947
1.613979,7.043947
1.622120,7.201980
1.630360,7.201980
1.634760,7.201980
1.642750,7.201980
1.650829,7.201980
1.655161,7.201980
1.663200,7.201980
1.671320,7.201980
1.679621,7.201980
1.687700,7.201980
1.692020,7.201980
1.700161,7.201980
1.708380,7.201980
1.716560,7.201980
1.724590,7.201980
1.732759,7.201980
1.737070,7.201980
1.745161,7.201980
1.753191,7.275618
1.761381,7.275618
1.769609,7.275618
1.773930,7.275618
1.781981,7.275618
1.790091,7.275618
1.794371,7.275618
1.802431,7.275618
1.810551,7.275618
1.814819,7.264770
1.822880,7.264770
1.831100,7.264770
1.839230,7.264770
1.843500,7.264770
1.851580,7.264770
1.859690,7.264770
1.863960,7.338423
1.872021,7.338423
1.880350,7.338423
1.888390,7.338423
1.892660,7.338423
1.900730,7.338423
1.908850,7.338423
1.913160,7.412116
1.921261,7.412116
1.929491,7.412116
1.937550,7.412116
1.945650,7.412116
1.950041,7.412116
1.962009,7.412116
1.966461,7.412116
1.974510,7.412116
1.982611,7.412116
1.990770,7.412116
1.995001,7.412116
2.003040,7.412116
2.011271,7.412116
2.019461,7.412116
2.023781,7.412116
2.031870,7.412116
2.039940,7.412116
2.044281,7.412116
2.052320,7.412116
2.060511,7.412116
2.068760,7.496665
2.076820,7.496665
2.084970,7.496665
2.089220,7.496665
2.097281,7.466845
2.101601,7.466845
2.109720,7.466845
2.117731,7.466845
2.122040,7.466845
2.130211,7.466845
2.138250,7.466845
2.146339,7.466845
2.150751,7.466845
2.158951,7.466845
2.167101,7.466845
2.175150,7.466845
2.183260,7.466845
2.187601,7.466845
2.195620,7.466845
2.203680,7.466845
2.211950,7.466845
2.220160,7.466845
2.224430,7.466845
2.232521,7.466845
2.240671,7.466845
2.244970,7.466845
2.252991,7.466845
2.261181,7.466845
2.269360,7.466845
2.277571,7.466845
2.281950,7.540904
2.289831,7.540904
2.297970,7.625759
2.302200,7.625759
2.310440,7.625759
2.318701,7.625759
2.326700,7.625759
2.334810,7.625759
2.339211,7.625759
2.347101,7.625759
2.351431,7.645138
2.359640,7.645138
2.371660,7.645138
2.375940,7.655040
2.383980,7.655040
2.392111,7.655040
2.396500,7.655040
2.404530,7.655040
2.412691,7.655040
2.420919,7.655040
2.429050,7.570408
2.437160,7.570408
2.441490,7.570408
2.449751,7.570408
2.457901,7.570408
2.465981,7.570408
2.474020,7.644188
2.482271,7.644188
2.486620,7.644188
2.494640,7.644188
2.502781,7.644188
2.511030,7.644188
2.519211,7.644188
2.527269,7.728804
2.531660,7.728804
2.539711,7.728804
2.547800,7.728804
2.552090,7.728804
2.560289,7.728804
2.568470,7.728804
2.576509,7.719149
2.584660,7.719149
2.588980,7.719149
2.597000,7.719149
2.605011,7.719149
2.613331,7.719149
2.617661,7.719149
2.625721,7.728804
2.633831,7.719149
2.638151,7.719149
2.646200,7.813439
2.654270,7.813439
2.662460,7.813439
2.670681,7.813439
2.675020,7.813439
2.683071,7.813439
2.691160,7.813439
2.695459,7.813439
2.703529,7.813439
2.711740,7.813439
2.720060,7.813439
2.728140,7.813439
2.736179,7.813439
2.744301,7.813439
2.752560,7.813439
2.760780,7.813439
2.765079,7.813439
2.773149,7.813439
2.781401,7.813439
2.789431,7.813439
2.793770,7.887274
2.801889,7.887274
2.809919,7.887274
2.814220,7.907928
2.822361,7.907928
2.830641,7.907928
2.838699,7.907928
2.846710,7.918842
2.854870,7.918842
2.863100,7.918842
2.871349,7.918842
2.875641,8.003222
2.883739,8.003222
2.891809,8.003222
2.900030,8.003222
2.904301,8.003222
2.912470,8.003222
2.920761,8.003222
2.928911,8.003222
2.936960,8.003222
2.945011,8.003222
2.953239,8.003222
2.961470,8.003222
2.965870,8.003222
2.973831,8.003222
2.982071,8.003222
2.990170,8.003222
2.994450,8.003222
3.002581,8.003222
3.010820,8.003222
3.019030,8.003222
3.027060,8.003222
3.035191,8.003222
3.039490,8.003222
3.047520,8.003222
3.055620,8.003222
3.063789,8.003222
3.072041,8.003222
3.076330,8.076790
3.084400,8.076790
3.092480,8.076790
3.096861,8.076790
3.104900,8.076790
3.125471,8.076790
3.125740,8.076790
3.129499,8.076790
3.137569,8.076790
3.141880,8.076790
3.149910,8.076790
3.158030,8.150373
3.162300,8.150373
3.170610,8.150373
3.182680,8.150373
3.186880,8.150373
3.194941,8.065917
3.199251,8.065917
3.207331,8.065917
3.215380,8.065917
3.223579,8.065917
3.231791,8.065917
3.236111,7.981558
3.244171,7.981558
3.252291,7.981558
3.256580,7.897148
3.264601,7.812786
3.272820,7.812786
3.281021,7.812786
3.285280,7.728449
3.293390,7.583514
3.301420,7.583514
3.305759,7.583514
3.313841,7.499519
3.322071,7.499519
3.330181,7.415556
3.338320,7.415556
3.342720,7.331628
3.350630,7.331628
3.358740,7.247708
3.363050,7.247708
3.371161,7.247708
3.379221,7.163851
3.383570,7.080059
3.391581,7.080059
3.399721,7.080059
3.404011,6.996249
3.412069,6.996249
3.420191,6.839740
3.424440,6.839740
3.432661,6.839740
3.440701,6.756070
3.448851,6.672503
3.453121,6.672503
3.461201,6.564650
3.469280,6.480986
3.473619,6.465385
3.481901,6.465385
3.489901,6.308542
3.497990,6.224725
3.502291,6.224725
3.510351,6.117665
3.518400,6.033774
3.522820,6.033774
3.534870,6.033774
3.539131,5.934552
3.547171,5.777400
3.555330,5.777400
3.559561,5.693368
3.567680,5.671155
3.575760,5.587003
3.584070,5.587003
3.588341,5.587003
3.596411,5.502957
3.604490,5.502957
3.608810,5.502957
3.616911,5.502957
3.625000,5.418914
3.633261,5.418914
3.641390,5.345991
3.645691,5.262092
3.653780,5.262092
3.661840,5.262092
3.666151,5.262092
3.674231,5.178238
3.682510,5.178238
3.690639,5.105495
3.698690,5.105495
3.702950,5.105495
3.711020,5.021803
3.719101,4.949141
3.723471,4.949141
3.735550,4.949141
3.739780,4.865666
3.747890,4.865666
3.752201,4.865666
3.760231,4.793177
3.768351,4.686005
3.776411,4.686005
3.784719,4.686005
3.789021,4.613418
3.797081,4.595806
3.805170,4.595806
3.809481,4.511973
3.817511,4.439194
3.825680,4.439194
3.833910,4.439194
3.842041,4.355456
3.846300,4.282812
3.854370,4.282812
3.858681,4.282812
3.866741,4.210311
3.874929,4.126921
3.883141,4.126921
3.891211,4.126921
3.895500,4.054537
3.903570,4.054537
3.911680,3.971382
3.915960,3.899279
3.924110,3.899279
3.932341,3.899279
3.940390,3.899279
3.948540,3.744497
3.952770,3.744497
3.960840,3.744497
3.965200,3.767488
3.973341,3.696393
3.985401,3.696393
3.989641,3.614601
3.997690,3.543758
4.002029,3.543758
4.010080,3.543758
4.018129,3.543758
4.026270,3.473164
4.034550,3.473164
4.038811,3.473164
4.046850,3.392056
4.051180,3.392056
4.059231,3.392056
4.067289,3.321837
4.075470,3.321837
4.083681,3.321837
4.087980,3.321837
4.096060,3.321837
4.104170,3.321837
4.108440,3.251849
4.116489,3.251849
4.124701,3.251849
4.132881,3.171447
4.137180,3.171447
4.145250,3.101983
4.153351,3.101983
4.157640,3.101983
4.165730,3.101983
4.173901,3.101983
4.182020,3.133379
4.186340,3.167679
4.194410,3.167679
4.202471,3.099962
4.206820,3.099962
4.214849,3.099962
4.223000,3.099962
4.231110,3.099962
4.235420,3.059087
4.243471,3.059087
4.251699,3.098130
4.255859,3.032929
4.263929,3.032929
4.268250,3.032929
4.276381,3.032929
4.284601,3.032929
4.292601,3.074216
4.296930,3.010579
4.304991,3.010579
4.313061,3.010579
4.317490,3.010579
4.325510,2.947429
4.333750,2.947429
4.341869,2.874942
4.349901,2.874942
4.354160,2.874942
4.362240,2.813064
4.366541,2.813064
4.374701,2.813064
4.382919,2.813064
4.390961,2.751931
4.399071,2.751931
4.403370,2.751931
4.411409,2.691446
4.419470,2.622117
4.423891,2.622117
4.435921,2.622117
4.440170,2.563382
4.448210,2.563382
4.452539,2.563382
4.460569,2.505382
4.468660,2.439276
4.476810,2.439276
4.485071,2.383431
4.489389,2.328686
4.497400,2.328686
4.505529,2.328686
4.509790,2.214170
4.517839,2.214170
4.526030,2.214170
4.534241,2.163380
4.538540,2.114148
4.546591,2.058425
4.554720,2.058425
4.558960,2.012659
4.567030,2.012659
4.575241,2.012659
4.583420,1.919283
4.591520,1.879615
4.595850,1.879615
4.603870,1.879615
4.608191,1.842175
4.616270,1.768572
4.624500,1.768572
4.632771,1.768572
4.640720,1.739001
4.645071,1.707085
4.653111,1.707085
4.661180,1.683537
4.665581,1.683537
4.673771,1.683537
4.681971,1.642348
4.689970,1.629068
4.698050,1.629068
4.702351,1.629068
4.710400,1.610340
4.718451,1.610340
4.726660,1.610340
4.734900,1.607908
4.739191,1.607908
4.747231,1.612890
4.755381,1.612890
4.759621,1.621482
4.767681,1.621482
4.775900,1.621482
4.784081,1.650905
4.788401,1.650905
4.796551,1.695352
4.804560,1.695352
4.808889,1.695352
4.816940,1.695352
4.825150,1.695352
4.833351,1.753681
4.841421,1.753681
4.845751,1.753681
4.853800,1.753681
4.861910,1.789254
4.866190,1.683653
4.874430,1.683653
4.882570,1.683653
4.890600,1.683653
4.898750,1.683653
4.903009,1.683653
4.911051,1.771999
4.919130,1.771999
4.927320,1.771999
4.935671,1.771999
4.939920,1.771999
4.947950,1.771999
4.956171,1.771999
4.964390,1.771999
4.972500,1.771999
4.976820,1.771999
4.985041,1.771999
4.993040,1.771999
5.001120,1.771999
5.005480,1.771999
5.017441,1.771999
5.025690,1.771999
5.029961,1.724196
5.038021,1.724196
5.042330,1.724196
5.050390,1.724196
5.058481,1.683653
5.062799,1.683653
5.070829,1.683653
5.078890,1.683653
5.087160,1.683653
5.091471,1.683653
5.099531,1.683653
5.107679,1.683653
5.111940,1.645562
5.119961,1.645562
5.128059,1.645562
5.136341,1.645562
5.144461,1.645562
5.148729,1.610097
5.156799,1.610097
5.161100,1.610097
5.169170,1.756692
5.177330,1.726804
5.185581,1.726804
5.193670,1.726804
5.197981,1.726804
5.205990,1.726804
5.214090,1.699733
5.218401,1.699733
5.226521,1.699733
5.234810,1.699733
5.242889,1.675730
5.250950,1.675730
5.255260,1.675730
5.263281,1.759030
5.267759,1.759030
5.275940,1.832589
5.287870,1.832589
5.292089,1.812833
5.300150,1.812833
5.308321,1.812833
5.312550,1.796023
5.320700,1.796023
5.328781,1.782350
5.337049,1.782350
5.341330,1.771557
5.349400,1.771557
5.357470,1.771557
5.361860,1.764029
5.369841,1.764029
5.378071,1.759697
5.386261,1.759697
5.394331,1.759697
5.398651,1.758584
5.406710,1.758584
5.414810,1.758584
5.419100,1.760809
5.427210,1.760809
5.435501,1.760809
5.443541,1.760809
5.451670,1.766025
5.455971,1.766025
5.464010,1.766025
5.472071,1.766025
5.476511,1.766025
5.488550,1.766025
5.492781,1.766025
5.500910,1.763474
5.509001,1.763474
5.517231,1.763474
5.525410,1.763474
5.529751,1.763474
5.537849,1.758584
5.545900,1.758584
5.550220,1.682141
5.558270,1.682141
5.566360,1.682141
5.570650,1.689802
5.578720,1.605106
5.586969,1.605106
5.595039,1.605106
5.599331,1.599121
5.607380,1.599121
5.615490,1.599121
5.619780,1.599121
5.627880,1.599121
5.636150,1.599121
5.644199,1.596794
5.648630,1.596794
5.656601,1.596794
5.664690,1.596794
5.668970,1.596794
5.677120,1.601567
5.685390,1.601567
5.693430,1.601567
5.701490,1.686324
5.705830,1.686324
5.713871,1.762919
5.721930,1.760364
5.730061,1.760364
5.738380,1.760364
5.742680,1.760364
5.750731,1.760364
5.758850,1.760364
5.763121,1.765138
5.771181,1.765138
5.779301,1.765138
5.787580,1.765138
5.795710,1.765138
5.800001,1.771446
5.808111,1.771446
5.816360,1.771446
5.824541,1.855829
5.832590,1.855829
5.840771,1.855829
5.845011,1.855829
5.853090,1.932291
5.857401,1.932291
5.869329,1.932291
5.877661,1.932291
5.881929,1.932291
5.889950,1.932291
5.898109,1.932291
5.902349,1.932291
5.910391,1.932291
5.918661,1.932291
5.926800,1.932291
5.934950,1.932291
5.939180,1.932291
5.947241,1.932291
5.951590,1.932291
5.959610,1.932291
5.967810,1.932291
5.976089,1.932291
5.984159,1.932291
5.988461,2.016739
5.996611,2.016739
6.004780,2.016739
