time,angle
-0.499813,0.537048
-0.491573,0.537048
-0.487221,0.537048
-0.479240,0.537048
-0.471222,0.537048
-0.462952,0.537048
-0.454742,0.537048
-0.446453,0.517377
-0.442261,0.517377
-0.434143,0.517377
-0.425903,0.536683
-0.417713,0.536683
-0.409660,0.536683
-0.401581,0.536683
-0.393322,0.536683
-0.388943,0.536683
-0.380951,0.385122
-0.372833,0.385122
-0.368542,0.385122
-0.360493,0.385122
-0.352371,0.385122
-0.344082,0.385122
-0.336002,0.385122
-0.331661,0.385122
-0.323643,0.385122
-0.315521,0.203672
-0.311222,0.186626
-0.303124,0.186626
-0.294842,0.186626
-0.286800,0.186626
-0.278671,0.019782
-0.274403,0.019782
-0.266342,0.079129
-0.262013,0.160713
-0.253872,0.211218
-0.241810,0.211218
-0.237583,0.211218
-0.229523,0.211218
-0.225170,0.211218
-0.217133,0.383084
-0.209080,0.439240
-0.200962,0.439240
-0.192642,0.439240
-0.188320,0.562322
-0.180302,0.562322
-0.172161,0.562322
-0.167893,0.562322
-0.159821,0.701371
-0.151722,0.701371
-0.143452,0.701371
-0.135323,0.701371
-0.130993,0.701371
-0.123001,0.701371
-0.118652,0.849037
-0.110630,0.822344
-0.102501,0.822344
-0.094212,0.822344
-0.086151,0.849958
-0.081841,0.849958
-0.073761,0.849958
-0.065670,1.001711
-0.061390,1.001711
-0.053200,1.001711
-0.044960,1.001711
-0.036930,1.001711
-0.028831,1.001711
-0.024521,1.001711
-0.016502,1.156568
-0.008430,1.156568
-0.004013,1.182171
0.008049,1.182171
0.012318,1.182171
0.020348,1.182171
0.028507,1.182171
0.032787,1.182171
0.040798,1.182171
0.048939,1.182171
0.057259,1.182171
0.061527,1.182171
0.069599,1.182171
0.077698,1.182171
0.082058,1.211600
0.090027,1.211600
0.098179,1.246783
0.106449,1.246783
0.114529,1.246783
0.118919,1.246783
0.126900,1.246783
0.135010,1.246783
0.139267,1.246783
0.147427,1.285118
0.155708,1.285118
0.163719,1.147736
0.171848,1.147736
0.176167,1.147736
0.184177,1.147736
0.188587,1.147736
0.196648,1.103758
0.208717,1.103758
0.212978,1.103758
0.221039,1.146542
0.225388,1.146542
0.233460,1.016641
0.241447,1.016641
0.249600,1.070823
0.257900,1.070823
0.262238,1.070823
0.270298,1.070823
0.278397,1.070823
0.282658,1.070823
0.290707,1.070823
0.298847,1.070823
0.307129,1.070823
0.315220,1.020100
0.319508,1.020100
0.327568,1.020100
0.335709,1.086065
0.339958,1.086065
0.348099,1.086065
0.356388,1.086065
0.364418,1.152500
0.372547,1.222373
0.376869,1.222373
0.384869,1.222373
0.392979,1.255697
0.397358,1.298147
0.409428,1.298147
0.413658,1.298147
0.421719,1.373304
0.426079,1.373304
0.434128,1.450504
0.442158,1.526750
0.450268,1.604862
0.458588,1.604862
0.462879,1.682025
0.470959,1.760809
0.479088,1.760809
0.483360,1.917549
0.491409,1.995471
0.499577,2.060231
0.507858,2.060231
0.515919,2.219732
0.520218,2.379486
0.528248,2.379486
0.536408,2.539678
0.540649,2.619129
0.548847,2.779533
0.557060,2.779533
0.565189,3.021224
0.573227,3.182047
0.577538,3.342929
0.585648,3.342929
0.589897,3.583646
0.598000,3.744706
0.606270,3.744706
0.614327,3.905853
0.622417,4.228275
0.626728,4.228275
0.634789,4.469491
0.642830,4.712142
0.647247,4.953414
0.659279,4.953414
0.663567,5.114735
0.671619,5.366405
0.679749,5.688925
0.684048,5.688925
0.692089,5.850222
0.700207,6.091396
0.708439,6.091396
0.716587,6.425105
0.720860,6.666180
0.728939,6.666180
0.733257,6.827398
0.741299,7.068467
0.749428,7.402739
0.757698,7.402739
0.765770,7.643701
0.770100,7.885656
0.778217,7.885656
0.786247,8.139551
0.790558,8.300352
0.798668,8.540793
0.806919,8.540793
0.814987,8.795222
0.823078,9.035528
0.827377,9.035528
0.835430,9.275805
0.843517,9.530669
0.847939,9.770848
0.859947,9.770848
0.864220,10.026190
0.872250,10.348300
0.880428,10.348300
0.884647,10.587900
0.892719,10.923140
0.900829,11.162600
0.909180,11.162600
0.913429,11.418960
0.921490,11.658270
0.929588,11.658270
0.933937,11.996070
0.941948,12.235250
0.950069,12.492360
0.958328,12.492360
0.966438,12.731400
0.970738,13.069850
0.978809,13.069850
0.986939,13.387350
0.991230,13.645210
0.999310,13.883540
1.007568,13.883540
1.015617,14.222520
1.019958,14.481060
1.028019,14.481060
1.036098,14.719080
1.040417,14.977690
1.048557,15.236900
1.056808,15.236900
1.064869,15.496430
1.072918,15.756690
1.077290,15.756690
1.085327,15.993550
1.093388,16.176130
1.101509,16.436580
1.109818,16.436580
1.114159,16.698370
1.122219,16.879150
1.130287,16.879150
1.134598,17.064360
1.142647,17.327960
1.150749,17.432390
1.159008,17.432390
1.167168,17.725150
1.171398,17.911250
1.179489,17.911250
1.187607,18.097050
1.191849,18.284220
1.199978,18.470610
1.208229,18.470610
1.216278,18.658770
1.220657,18.771180
1.228687,18.771180
1.236778,19.034810
1.241077,19.148320
1.249229,19.333200
1.257507,19.333200
1.265598,19.447890
1.273628,19.678600
1.277988,19.678600
1.286018,19.793690
1.294079,19.903440
1.302189,20.089070
1.310509,20.089070
1.314808,20.164660
1.322880,20.281080
1.330978,20.431860
1.335289,20.431860
1.343338,20.542340
1.351429,20.696280
1.359699,20.696280
1.367828,20.806960
1.372078,20.957470
1.380219,20.957470
1.388309,21.074420
1.392567,21.227960
1.400677,21.414100
1.408958,21.414100
1.416988,21.489070
1.421360,21.678830
1.429409,21.828670
1.437489,21.828670
1.441818,22.018550
1.449928,22.130160
1.458248,22.130160
1.466259,22.363690
1.474319,22.553870
1.478687,22.553870
1.486748,22.665950
1.494759,22.936710
1.502949,23.089270
1.511280,23.089270
1.515469,23.201770
1.523529,23.466910
1.531677,23.663500
1.535938,23.663500
1.544109,23.776660
1.552128,23.973900
1.560360,23.973900
1.568577,24.239240
1.572758,24.353060
1.580849,24.353060
1.589008,24.510450
1.593227,24.702190
1.601337,24.973420
1.609589,24.973420
1.617668,25.165410
1.621998,25.357570
1.630047,25.628890
1.638168,25.628890
1.642448,25.821290
1.650539,26.086870
1.658817,26.086870
1.666859,26.285190
1.674980,26.670870
1.679279,26.670870
1.687347,26.863930
1.691647,27.135320
1.699787,27.328580
1.708019,27.328580
1.716068,27.671420
1.724178,27.937280
1.728458,27.937280
1.736629,28.284970
1.744568,28.478550
1.748978,28.821190
1.760998,28.821190
1.765327,29.086990
1.773319,29.352810
1.781487,29.352810
1.785748,29.623550
1.793808,29.889460
1.801968,30.232110
1.810249,30.232110
1.818348,30.498020
1.822720,30.768990
1.830688,30.768990
1.838829,31.111610
1.843098,31.331340
1.851208,31.671720
1.859478,31.671720
1.867527,31.942860
1.875668,32.162500
1.879948,32.162500
1.888020,32.503940
1.896149,32.800330
1.900497,33.065830
1.908760,33.065830
1.916809,33.291180
1.924877,33.587890
1.929249,33.931570
1.937260,33.931570
1.945309,34.158500
1.953407,34.455380
1.961708,34.455380
1.966019,34.723370
1.974049,34.951720
1.982189,34.951720
1.986507,35.248700
1.994530,35.477890
2.002640,35.779170
2.010910,35.779170
2.019047,36.054850
2.023308,36.285740
2.031380,36.588780
2.039528,36.588780
2.043770,36.814600
2.051868,37.041100
2.060139,37.041100
2.068207,37.273810
2.072517,37.507040
2.080647,37.507040
2.088688,37.812340
2.092987,38.091090
2.101109,38.248460
2.109398,38.248460
2.117428,38.555130
2.125519,38.790750
2.129818,38.790750
2.137878,38.905500
2.145927,39.142140
2.150337,39.450770
2.162399,39.450770
2.166668,39.599600
2.174679,39.848860
2.179070,39.848860
2.187099,40.087200
2.195168,40.248570
2.203289,40.559270
2.211559,40.559270
2.215858,40.721410
2.223907,40.918400
2.232029,40.918400
2.236328,41.081380
2.244377,41.322110
2.252487,41.485810
2.260769,41.485810
2.268879,41.727250
2.273159,41.849340
2.281227,41.849340
2.289368,42.014160
2.293617,42.256680
2.301758,42.422160
2.310028,42.422160
2.318077,42.546170
2.326210,42.712370
2.330647,42.712370
2.338547,42.801470
2.346630,42.926920
2.351009,42.926920
2.359249,42.926920
2.367310,43.094090
2.375359,43.184120
2.379730,43.184120
2.387810,43.220570
2.395798,43.310960
2.403927,43.289530
2.412258,43.289530
2.416550,43.360950
2.424599,43.380500
2.432728,43.380500
2.437008,43.411540
2.445057,43.431400
2.453178,43.502810
2.461449,43.502810
2.469589,43.405270
2.473858,43.405270
2.481918,43.405270
2.490089,43.457340
2.494308,43.457340
2.502510,43.360810
2.510738,43.360810
2.518768,43.432250
2.526890,43.432250
2.531239,43.432250
2.539288,43.336200
2.543728,43.407630
2.551708,43.428800
2.559948,43.428800
2.567997,43.312070
2.576088,43.312070
2.580490,43.312070
2.588459,43.216960
2.596478,43.216960
2.600910,43.250180
2.612938,43.250180
2.617229,43.193820
2.625328,43.155890
2.633427,43.155890
2.637707,43.177850
2.645760,43.062030
2.653889,43.084220
2.662189,43.084220
2.670269,42.968640
2.674519,42.954040
2.682587,42.954040
2.690750,42.838920
2.694977,42.861640
2.703110,42.769720
2.711399,42.769720
2.719448,42.733570
2.727589,42.642440
2.731880,42.690660
2.739929,42.690660
2.748047,42.601170
2.752399,42.556410
2.760647,42.556410
2.768700,42.538120
2.776749,42.555430
2.781109,42.555430
2.789280,42.515080
2.797249,42.502670
2.805328,42.413820
2.813648,42.413820
2.817917,42.437240
2.825977,42.403120
2.834099,42.326910
2.838379,42.326910
2.846447,42.354710
2.854557,42.325060
2.862808,42.325060
2.870968,42.326790
2.875229,42.328530
2.883289,42.328530
2.891468,42.230850
2.895687,42.265280
2.903797,42.170260
2.912060,42.170260
2.920219,42.175290
2.924469,42.036270
2.932537,42.043110
2.940609,42.043110
2.944950,41.953140
2.953030,41.961490
2.961277,41.961490
2.969318,41.898300
2.977440,41.883710
2.981739,41.883710
2.989807,41.822060
2.997887,41.833120
3.002258,41.844770
3.014309,41.844770
3.018539,41.784950
3.026619,41.797820
3.034798,41.797820
3.039047,41.811290
3.047108,41.903690
3.055267,41.846320
3.063477,41.846320
3.067837,41.861560
3.075867,41.976840
3.083958,41.992920
3.088287,41.992920
3.096329,42.125590
3.104450,42.221160
3.112698,42.221160
3.120808,42.239230
3.125088,42.257870
3.133198,42.257870
3.141300,42.394270
3.145576,42.395030
3.153698,42.462270
3.161919,42.462270
3.169998,42.484050
3.178169,42.547440
3.182419,42.552830
3.190517,42.552830
3.198608,42.505570
3.202938,42.530250
3.211220,42.530250
3.219269,42.478240
3.227299,42.432920
3.235477,42.432920
3.239719,42.339350
3.247768,42.295040
3.255898,42.217870
3.264179,42.217870
3.268509,42.130980
3.276546,42.081790
3.284649,42.004660
3.288990,42.004660
3.297039,41.918490
3.305187,41.841390
3.313370,41.841390
3.321507,41.841390
3.325779,41.764240
3.333878,41.764240
3.341980,41.678460
3.346268,41.601350
3.354370,41.601350
3.362598,41.601350
3.370659,41.524180
3.378799,41.524180
3.383080,41.595310
3.391197,41.595310
3.395477,41.518100
3.403610,41.489100
3.411900,41.489100
3.419930,41.489100
3.427979,41.489100
3.432327,41.368570
3.440380,41.368570
3.448429,41.383280
3.452858,41.383280
3.464867,41.383280
3.469120,41.340380
3.477200,41.262950
3.485329,41.262950
3.489609,41.235270
3.497658,41.235270
3.505859,41.157740
3.514027,41.157740
3.518349,41.115370
3.526398,41.059120
3.534489,41.059120
3.538799,41.017070
3.546917,40.939410
3.554996,40.939410
3.563259,40.939410
3.571350,40.897570
3.575619,40.913020
3.583679,40.913020
3.591808,40.913020
3.596069,40.913020
3.604218,40.793720
3.612499,40.793720
3.620567,40.793720
3.628639,40.793720
3.632969,40.793720
3.640987,40.793720
3.649147,40.722140
3.653538,40.603030
3.665588,40.603030
3.669777,40.603030
3.677849,40.531380
3.686008,40.531380
3.690239,40.531380
3.698288,40.453530
3.706409,40.381790
3.714699,40.381790
3.719048,40.340720
3.727058,40.268940
3.735168,40.268940
3.739460,40.253680
3.747509,40.181910
3.755657,40.032230
3.763908,40.032230
3.772018,40.032230
3.776299,39.919380
3.784348,39.919380
3.792519,39.847410
3.796749,39.847410
3.804859,39.760630
3.813160,39.760630
3.821198,39.688620
3.825508,39.688620
3.833588,39.688620
3.841698,39.575710
3.845970,39.503590
3.854118,39.431410
3.862370,39.431410
3.870419,39.417000
3.878487,39.267040
3.882797,39.267040
3.890850,39.154090
3.898930,39.081800
3.903339,39.009460
3.915379,39.009460
3.919670,38.937060
3.927689,38.882510
3.935829,38.810140
3.944057,38.810140
3.948387,38.737700
3.956448,38.624800
3.964638,38.474460
3.972710,38.474460
3.977039,38.401860
3.985119,38.329190
3.993378,38.329190
4.001530,38.289020
4.009598,38.216300
4.017757,38.103590
4.022068,38.103590
4.030067,37.939500
4.034428,37.866680
4.046329,37.866680
4.050777,37.753970
4.058830,37.681050
4.066936,37.681050
4.071278,37.681050
4.079350,37.490640
4.087429,37.417600
4.095589,37.417600
4.103809,37.344520
4.111958,37.232000
4.116207,37.080920
4.124340,37.080920
4.128597,37.080920
4.136658,36.994900
4.144840,36.994900
4.153099,36.882410
4.161179,36.731250
4.165470,36.731250
4.173557,36.731250
4.181717,36.657910
4.189770,36.494350
4.194130,36.420970
4.206158,36.420970
4.210518,36.420970
4.218616,36.257820
4.226658,36.184400
4.231068,36.184400
4.239048,36.184400
4.247169,36.021680
4.255337,36.021680
4.263519,35.948230
4.267818,35.948230
4.275898,35.796880
4.283997,35.796880
4.288277,35.785930
4.296360,35.712460
4.304558,35.712460
4.312759,35.634650
4.320847,35.561120
4.325127,35.550610
4.333199,35.550610
4.341377,35.399330
4.345608,35.359750
4.353809,35.359750
4.361958,35.208370
4.370049,35.198250
4.378170,35.198250
4.382420,35.198250
4.390469,35.046960
4.394829,35.046960
4.406757,35.046960
4.411247,34.973360
4.419277,34.885970
4.427338,34.885970
4.431679,34.885970
4.439728,34.885970
4.447788,34.734650
4.456009,34.734650
4.470959,34.734650
4.471119,34.734650
4.476620,34.647730
4.484699,34.647730
4.489010,34.687710
4.497059,34.609980
4.505360,34.609980
4.513458,34.536430
4.521549,34.450110
4.525837,34.450110
4.533878,34.450110
4.542019,34.450110
4.546268,34.445870
4.554588,34.445870
4.562710,34.445870
4.570827,34.486210
4.578899,34.486210
4.583149,34.486210
4.591187,34.408450
4.595528,34.481870
4.607460,34.481870
4.611919,34.481870
4.620110,34.481870
4.628098,34.404090
4.632397,34.404090
4.640450,34.477490
4.648529,34.477490
4.656689,34.477490
4.664928,34.477490
4.669239,34.550830
4.677258,34.550830
4.685410,34.550830
4.689720,34.624130
4.697708,34.554780
4.705948,34.554780
4.714108,34.554780
4.722229,34.628110
4.726498,34.628110
4.734539,34.628110
4.738899,34.587950
4.746937,34.587950
4.755230,34.587950
4.763390,34.583340
4.771439,34.583340
4.779579,34.583340
4.783829,34.583340
4.791889,34.583340
4.796249,34.583340
4.808147,34.583340
4.816448,34.505390
4.820690,34.505390
4.828747,34.432080
4.833069,34.432080
4.841118,34.432080
4.849178,34.354100
4.857357,34.354100
4.865597,34.354100
4.869919,34.280740
4.878010,34.240810
4.886108,34.240810
4.890377,34.089370
4.898438,34.081110
4.906628,34.081110
4.914829,34.007730
4.922947,34.007730
4.927299,33.934310
4.935307,33.934310
4.943428,33.856340
4.947678,33.782860
4.955879,33.775130
4.964069,33.775130
4.972099,33.701690
4.980259,33.550290
4.984497,33.550290
4.992569,33.510300
4.996899,33.436760
5.005077,33.436760
5.013287,33.363170
5.021370,33.278070
5.029427,33.204520
5.033718,33.204520
5.041759,33.130940
5.049797,33.053020
5.057999,33.053020
5.066269,32.979390
5.070530,32.859140
5.078579,32.781300
5.082920,32.781300
5.090969,32.707650
5.099049,32.633960
5.107239,32.633960
5.115448,32.482330
5.119747,32.402670
5.127800,32.288920
5.135899,32.288920
5.140217,32.137310
5.148228,32.137310
5.156460,32.137310
5.164589,32.058020
5.168907,31.906470
5.176968,31.832660
5.185059,31.832660
5.189369,31.681010
5.197437,31.562270
5.205647,31.562270
5.213799,31.488420
5.221928,31.336780
5.226227,31.336780
5.234257,31.258600
5.238567,31.184720
5.246628,31.184720
5.254787,31.033150
5.262878,30.959180
5.267269,30.881610
5.275227,30.881610
5.283360,30.689790
5.287628,30.615800
5.295658,30.615800
5.299988,30.541790
5.308048,30.313180
5.316269,30.313180
5.324329,30.239160
5.328648,30.165090
5.336689,30.165090
5.344799,29.973130
5.349098,29.898990
5.357319,29.822620
5.365498,29.822620
5.373528,29.671050
5.381618,29.482390
5.385979,29.482390
5.393967,29.408170
5.402069,29.256420
5.406460,29.140530
5.418499,29.140530
5.422779,28.914630
5.430809,28.840320
5.438969,28.840320
5.443268,28.765990
5.451267,28.574100
5.459400,28.425240
5.467678,28.425240
5.472008,28.232980
5.480057,28.158570
5.488197,28.158570
5.492458,27.932310
5.500507,27.857820
5.508739,27.666000
5.516888,27.666000
5.524990,27.516850
5.529308,27.364850
5.537357,27.364850
5.545490,27.251180
5.549889,27.176600
5.557877,26.950080
5.566158,26.950080
5.574200,26.835660
5.582298,26.683660
5.586639,26.683660
5.594627,26.608940
5.598980,26.459430
5.607109,26.269650
5.615360,26.269650
5.623428,26.194920
5.631477,25.968250
5.635910,25.968250
5.643867,25.853800
5.651939,25.626930
5.660057,25.512600
5.668358,25.512600
5.672668,25.285540
5.680717,25.133390
5.688889,25.133390
5.693138,24.947570
5.701229,24.720660
5.709328,24.606350
5.717579,24.606350
5.725677,24.379300
5.729977,24.190060
5.738018,24.190060
5.746159,24.037900
5.750420,23.771600
5.758530,23.621340
5.766788,23.621340
5.774868,23.355030
5.779167,23.279830
5.787300,23.279830
5.795330,23.052310
5.799648,22.785940
5.807777,22.641550
5.816048,22.641550
5.824097,22.375370
5.832188,22.149720
5.836517,22.149720
5.844570,21.883530
5.852657,21.732960
5.860737,21.391480
5.869049,21.391480
5.873398,21.240800
5.881420,20.899300
5.889549,20.899300
5.893818,20.673120
5.901859,20.408330
5.909988,20.114750
5.918240,20.114750
5.926380,19.850060
5.930649,19.508910
5.938709,19.282840
5.946857,19.282840
5.951130,18.980460
5.959240,18.640350
5.967518,18.640350
5.975559,18.338150
5.983707,18.009910
5.987988,18.009910
5.996090,17.709540
6.004189,17.369140
6.008499,17.068380
