time,angle
-0.499199,0.125115
-0.491104,0.125115
-0.482803,0.125115
-0.474701,0.125115
-0.470398,0.125115
-0.462303,0.125115
-0.454102,0.092787
-0.445999,0.118694
-0.441704,0.118694
-0.433502,0.118694
-0.425301,0.118694
-0.417297,0.118694
-0.409203,0.118694
-0.401001,0.118694
-0.392700,0.118694
-0.388405,0.184518
-0.380402,0.184518
-0.372200,0.184518
-0.364098,0.184518
-0.359802,0.184518
-0.351700,0.184518
-0.343399,0.184518
-0.335304,0.184518
-0.327202,0.184518
-0.319000,0.184518
-0.314804,0.184518
-0.306702,0.184518
-0.302399,0.184518
-0.294205,0.184518
-0.286003,0.184518
-0.277901,0.184518
-0.269898,0.184518
-0.265503,0.184518
-0.257500,0.184518
-0.249397,0.184518
-0.241203,0.184518
-0.233002,0.184518
-0.228699,0.115350
-0.220604,0.115350
-0.212502,0.115350
-0.208199,0.115350
-0.200203,0.115350
-0.192001,0.115350
-0.183800,0.189746
-0.175697,0.189746
-0.171402,0.257930
-0.163399,0.257930
-0.155205,0.257930
-0.151001,0.257930
-0.142700,0.257930
-0.134499,0.257930
-0.126503,0.257930
-0.122101,0.257930
-0.113800,0.257930
-0.106003,0.257930
-0.101700,0.292752
-0.093498,0.292752
-0.085304,0.292752
-0.077202,0.292752
-0.069099,0.292752
-0.064804,0.292752
-0.056702,0.292752
-0.048798,0.292752
-0.040604,0.292752
-0.032303,0.292752
-0.028000,0.292752
-0.020004,0.292752
-0.011803,0.292752
-0.007500,0.257930
0.000496,0.257930
0.008698,0.257930
0.016899,0.257930
0.021202,0.257930
0.029297,0.257930
0.037399,0.257930
0.041595,0.257930
0.049698,0.257930
0.057899,0.257930
0.066200,0.257930
0.074097,0.257930
0.078499,0.257930
0.086502,0.257930
0.094597,0.257930
0.098900,0.257930
0.107101,0.257930
0.115295,0.257930
0.123398,0.257930
0.131500,0.257930
0.135796,0.257930
0.143898,0.257930
0.151901,0.257930
0.160095,0.257930
0.164497,0.257930
0.172600,0.242283
0.180702,0.242283
0.184998,0.242283
0.193001,0.242283
0.201096,0.242283
0.209297,0.242283
0.217499,0.242283
0.221802,0.242283
0.229897,0.242283
0.237999,0.242283
0.242302,0.242283
0.250298,0.242283
0.258598,0.242283
0.266701,0.242283
0.274796,0.340923
0.279198,0.340923
0.287201,0.340923
0.295403,0.340923
0.299599,0.415430
0.307701,0.415430
0.315796,0.415430
0.320198,0.415430
0.328301,0.415430
0.336395,0.415430
0.344498,0.432054
0.348801,0.432054
0.356895,0.432054
0.364998,0.474365
0.369301,0.474365
0.377502,0.474365
0.385498,0.474365
0.393601,0.474365
0.398003,0.474365
0.405998,0.526376
0.414101,0.526376
0.418495,0.526376
0.430496,0.526376
0.434799,0.526376
0.442802,0.587841
0.450996,0.587841
0.455200,0.640719
0.463303,0.640719
0.471397,0.711344
0.479698,0.711344
0.484001,0.711344
0.492096,0.711344
0.500099,0.711344
0.504501,0.785343
0.512497,0.848114
0.520599,0.926196
0.528900,0.926196
0.537003,0.926196
0.541298,1.072832
0.549400,1.072832
0.557503,1.072832
0.561798,1.154366
0.569901,1.186632
0.578201,1.186632
0.586197,1.335009
0.594299,1.335009
0.598602,1.335009
0.606598,1.447262
0.611000,1.514524
0.619103,1.596304
0.627502,1.596304
0.635399,1.596304
0.643501,1.678414
0.647797,1.678414
0.655899,1.776411
0.663902,1.858464
0.672096,1.858464
0.680397,1.858464
0.684601,1.940881
0.692696,2.010032
0.700798,2.010032
0.705101,2.010032
0.713196,2.093215
0.721298,2.120249
0.729500,2.120249
0.737701,2.189101
0.741898,2.271934
0.750000,2.271934
0.754295,2.299931
0.762398,2.299931
0.770500,2.451202
0.778801,2.451202
0.786896,2.451202
0.791199,2.451202
0.799301,2.603764
0.807602,2.603764
0.815697,2.603764
0.823700,2.603764
0.831902,2.687224
0.836197,2.687224
0.844299,2.782841
0.852303,2.866077
0.860497,2.866077
0.868797,2.866077
0.873001,2.892523
0.881203,3.044719
0.889298,3.044719
0.893501,3.044719
0.901596,3.127938
0.909798,3.127938
0.917900,3.197758
0.926102,3.281456
0.930496,3.307366
0.938400,3.307366
0.946701,3.485768
0.950798,3.485768
0.959000,3.485768
0.967201,3.568864
0.975197,3.638465
0.983398,3.638465
0.987701,3.638465
0.995697,3.721996
1.000099,3.748731
1.008301,3.748731
1.016396,3.818186
1.024498,3.844151
1.032600,3.844151
1.037003,3.844151
1.044998,3.913265
1.053101,3.942083
1.057396,3.942083
1.065399,3.942083
1.073502,3.942083
1.081802,3.942083
1.085999,4.010832
1.094101,4.038276
1.102196,4.038276
1.106499,4.038276
1.114502,4.069723
1.122597,4.137490
1.130898,4.137490
1.135201,4.137490
1.143295,4.137490
1.151398,4.137490
1.155701,4.137490
1.163696,4.137490
1.171799,4.055792
1.180099,4.055792
1.188202,4.123598
1.192497,4.123598
1.200500,4.123598
1.208702,4.123598
1.212898,4.123598
1.221199,4.123598
1.229301,4.123598
1.237396,4.123598
1.245499,4.123598
1.249901,4.123598
1.261803,4.123598
1.266296,4.152845
1.274399,4.152845
1.282501,4.186615
1.290596,4.186615
1.294800,4.186615
1.303001,4.186615
1.311096,4.186615
1.319298,4.186615
1.323601,4.186615
1.331696,4.186615
1.339699,4.186615
1.344101,4.186615
1.352097,4.186615
1.360199,4.186615
1.364502,4.253444
1.372498,4.253444
1.380798,4.253444
1.388901,4.253444
1.393196,4.320556
1.401199,4.320556
1.409401,4.320556
1.413597,4.320556
1.421700,4.387937
1.430000,4.387937
1.438103,4.387937
1.442398,4.387937
1.450401,4.387937
1.458496,4.455533
1.462799,4.455533
1.471001,4.455533
1.479301,4.455533
1.487297,4.455533
1.495399,4.441532
1.499702,4.441532
1.507698,4.441532
1.512001,4.441532
1.520203,4.441532
1.528397,4.441532
1.536499,4.509411
1.544502,4.509411
1.548897,4.509411
1.556900,4.509411
1.565002,4.509411
1.573097,4.509411
1.581398,4.509411
1.585701,4.577442
1.593697,4.577442
1.601898,4.577442
1.606102,4.577442
1.614197,4.577442
1.622299,4.527791
1.630600,4.527791
1.634895,4.527791
1.642998,4.527791
1.651199,4.527791
1.659401,4.527791
1.667603,4.527791
1.675598,4.527791
1.683800,4.527791
1.688103,4.527791
1.696098,4.527791
1.704201,4.527791
1.712402,4.527791
1.720695,4.527791
1.724998,4.557672
1.733002,4.476847
1.741096,4.476847
1.745399,4.476847
1.753502,4.446380
1.761696,4.446380
1.769997,4.476847
1.778099,4.476847
1.782295,4.476847
1.790398,4.476847
1.798599,4.476847
1.806602,4.476847
1.810997,4.476847
1.822998,4.476847
1.831200,4.512321
1.835503,4.512321
1.843597,4.512321
1.851700,4.512321
1.855995,4.512321
1.863998,4.366639
1.872200,4.366639
1.880501,4.366639
1.888596,4.366639
1.892799,4.439635
1.900902,4.439635
1.905197,4.439635
1.913300,4.297557
1.921501,4.297557
1.929703,4.297557
1.937798,4.297557
1.942101,4.297557
1.950096,4.297557
1.958298,4.339643
1.962502,4.377704
1.970695,4.377704
1.978996,4.377704
1.987000,4.377704
1.995102,4.377704
1.999397,4.377704
2.007401,4.377704
2.015396,4.422174
2.023598,4.422174
2.031898,4.422174
2.036201,4.422174
2.044296,4.462122
2.052399,4.462122
2.056702,4.462122
2.064697,4.462122
2.072899,4.462122
2.081200,4.401442
2.089302,4.401442
2.093597,4.401442
2.101601,4.401442
2.109802,4.401442
2.113998,4.375243
2.122200,4.375243
2.130402,4.375243
2.138397,4.375243
2.146599,4.375243
2.150803,4.375243
2.158897,4.375243
2.163200,4.375243
2.171402,4.375243
2.183502,4.375243
2.187698,4.359906
2.195801,4.359906
2.200195,4.359906
2.208199,4.287793
2.216202,4.287793
2.224503,4.287793
2.232697,4.287793
2.240799,4.287793
2.245102,4.287793
2.253197,4.287793
2.261398,4.287793
2.269699,4.287793
2.277901,4.287793
2.285797,4.287793
2.290100,4.287793
2.298203,4.287793
2.306297,4.345642
2.314499,4.345642
2.322701,4.345642
2.330902,4.345642
2.335197,4.345642
2.343300,4.345642
2.351402,4.345642
2.355698,4.345642
2.363800,4.403977
2.372002,4.403977
2.380196,4.403977
2.388298,4.360939
2.392601,4.360939
2.400696,4.360939
2.408699,4.360939
2.413101,4.360939
2.421295,4.360939
2.433296,4.360939
2.437500,4.360939
2.445602,4.360939
2.453796,4.360939
2.461998,4.360939
2.466400,4.360939
2.474396,4.312661
2.482597,4.312661
2.490700,4.312661
2.495003,4.372869
2.502998,4.372869
2.511200,4.372869
2.515396,4.372869
2.523499,4.372869
2.531799,4.372869
2.539803,4.447834
2.547997,4.447834
2.552200,4.447834
2.560303,4.447834
2.564598,4.387179
2.572800,4.387179
2.584801,4.387179
2.589096,4.462122
2.597099,4.508977
2.601501,4.508977
2.609596,4.508977
2.617599,4.508977
2.625702,4.508977
2.634003,4.508977
2.638298,4.508977
2.646400,4.508977
2.654495,4.508977
2.662796,4.508977
2.670998,4.508977
2.679100,4.508977
2.683395,4.508977
2.691498,4.508977
2.699501,4.508977
2.703796,4.508977
2.712097,4.508977
2.720299,4.508977
2.728302,4.508977
2.736397,4.508977
2.740700,4.508977
2.748802,4.550662
2.756798,4.550662
2.765099,4.550662
2.773300,4.550662
2.781502,4.550662
2.785797,4.550662
2.793900,4.550662
2.801903,4.550662
2.806297,4.599768
2.814499,4.599768
2.822601,4.599768
2.830795,4.599768
2.838799,4.599768
2.846901,4.599768
2.855103,4.599768
2.863297,4.599768
2.867699,4.599768
2.875702,4.599768
2.884003,4.599768
2.892097,4.599768
2.896301,4.658880
2.904396,4.658880
2.912498,4.658880
2.916801,4.658880
2.924995,4.658880
2.933197,4.658880
2.941200,4.718416
2.945702,4.718416
2.953598,4.718416
2.961700,4.718416
2.965996,4.718416
2.974098,4.778359
2.982399,4.778359
2.990402,4.778359
2.998497,4.778359
3.002800,4.778359
3.010902,4.778359
3.018898,4.838736
3.023399,4.838736
3.035400,4.838736
3.039696,4.913824
3.047699,4.913824
3.055901,4.913824
3.060097,4.975041
3.068199,4.975041
3.076302,4.975041
3.084602,4.975041
3.100601,4.975041
3.100700,5.036568
3.105103,5.036568
3.109398,5.112742
3.117401,5.112742
3.125496,5.112742
3.133797,5.112742
3.141899,5.174945
3.146202,5.174945
3.154198,5.174945
3.162399,5.174945
3.166595,5.174945
3.174797,5.251842
3.182999,5.251842
3.191101,5.251842
3.199196,5.251842
3.203598,5.251842
3.215500,5.251842
3.223801,5.251842
3.228096,5.258442
3.236198,5.197387
3.244301,5.197387
3.248596,5.197387
3.256599,5.197387
3.264801,5.197387
3.268997,5.197387
3.277100,5.197387
3.285301,5.197387
3.293396,5.136638
3.297699,5.061944
3.305801,5.110404
3.313896,5.110404
3.318199,5.152482
3.326202,5.079370
3.334496,5.079370
3.342598,5.021101
3.346901,5.021101
3.354996,5.021101
3.363098,5.021101
3.367401,4.948864
3.375496,4.948864
3.383698,4.948864
3.391800,4.948864
3.399902,4.820280
3.404198,4.820280
3.412300,4.820280
3.420296,4.749575
3.424797,4.693690
3.436798,4.693690
3.441002,4.624104
3.449097,4.500977
3.457199,4.500977
3.461502,4.500977
3.469597,4.380298
3.477699,4.313887
3.485901,4.313887
3.490196,4.211102
3.498299,4.145434
3.506401,4.145434
3.510796,4.030558
3.518799,4.030558
3.527000,3.918966
3.535095,3.918966
3.543297,3.918966
3.547600,3.810999
3.555595,3.810999
3.563698,3.810999
3.568001,3.751550
3.576096,3.706920
3.584396,3.706920
3.592400,3.706920
3.596802,3.649641
3.604797,3.649641
3.612900,3.649641
3.617203,3.666662
3.625397,3.612542
3.633598,3.612542
3.641701,3.683552
3.649696,3.644863
3.654198,3.644863
3.662201,3.644863
3.670197,3.644863
3.678299,3.607281
3.686600,3.607281
3.691002,3.607281
3.698997,3.607281
3.707100,3.607281
3.711395,3.607281
3.719398,3.709243
3.727600,3.709243
3.735802,3.709243
3.743996,3.709243
3.748199,3.709243
3.756302,3.709243
3.764397,3.675676
3.768700,3.675676
3.776802,3.751968
3.785095,3.751968
3.793098,3.816955
3.797501,3.861938
3.805496,3.861938
3.813599,3.861938
3.821701,3.861938
3.826096,3.861938
3.834297,3.861938
3.842400,3.861938
3.850395,3.861938
3.858498,3.861938
3.866798,3.861938
3.875000,3.861938
3.879295,3.861938
3.887398,3.861938
3.895500,3.861938
3.899796,3.894254
3.907799,3.816955
3.916000,3.816955
3.920296,3.816955
3.928398,3.773460
3.936501,3.773460
3.944702,3.773460
3.948898,3.773460
3.956902,3.731506
3.961296,3.731506
3.969398,3.731506
3.977501,3.731506
3.985703,3.731506
3.993797,3.691039
3.998199,3.719154
4.006203,3.719154
4.014297,3.719154
4.018600,3.798132
4.026695,3.758642
4.034996,3.758642
4.042999,3.758642
4.051102,3.758642
4.055397,3.758642
4.063499,3.758642
4.071503,3.758642
4.075996,3.785790
4.087997,3.785790
4.092201,3.785790
4.100296,3.785790
4.104599,3.785790
4.112701,3.785790
4.120796,3.785790
4.128899,3.785790
4.137100,3.785790
4.141502,3.758642
4.149498,3.798132
4.157600,3.798132
4.161896,3.798132
4.169998,3.798132
4.178101,3.798132
4.186401,3.798132
4.194496,3.770761
4.198799,3.770761
4.206802,3.770761
4.214996,3.770761
4.219200,3.810382
4.227402,3.703273
4.235596,3.703273
4.243599,3.703273
4.248001,3.703273
4.256096,3.703273
4.264099,3.703273
4.268402,3.715520
4.276596,3.715520
4.284798,3.715520
4.292900,3.715520
4.301003,3.621095
4.305298,3.621095
4.313400,3.621095
4.321396,3.582335
4.325798,3.553800
4.337799,3.553800
4.342201,3.553800
4.350098,3.553800
4.358299,3.553800
4.362495,3.566010
4.370598,3.566010
4.378700,3.566010
4.387001,3.566010
4.391296,3.538727
4.399399,3.538727
4.407501,3.538727
4.411797,3.578288
4.419800,3.578288
4.428001,3.578288
4.436195,3.578288
4.444298,3.590524
4.448502,3.590524
4.456596,3.590524
4.460899,3.590524
4.469002,3.590524
4.477196,3.590524
4.485397,3.631786
4.493500,3.631786
4.497803,3.631786
4.505798,3.631786
4.513901,3.631786
4.518196,3.631786
4.526398,3.631786
4.534599,3.631786
4.542603,3.644218
4.546997,3.644218
4.555000,3.644218
4.563103,3.644218
4.567398,3.710352
4.575600,3.710352
4.583801,3.669545
4.591797,3.669545
4.599998,3.642338
4.604202,3.642338
4.612198,3.642338
4.616600,3.722575
4.628502,3.722575
4.632996,3.722575
4.640999,3.722575
4.649101,3.722575
4.653397,3.722575
4.661499,3.722575
4.669502,3.685571
4.677795,3.685571
4.685997,3.685571
4.690201,3.685571
4.698296,3.662014
4.706398,3.662014
4.710701,3.662014
4.718796,3.662014
4.726997,3.662014
4.735100,3.628280
4.739403,3.697505
4.747498,3.697505
4.755600,3.780407
4.759895,3.780407
4.767899,3.780407
4.776100,3.780407
4.780396,3.780407
4.788498,3.749566
4.796600,3.749566
4.800896,3.749566
4.808899,3.749566
4.817101,3.749566
4.825401,3.749566
4.833397,3.749566
4.837700,3.749566
4.845802,3.749566
4.853897,3.749566
4.858200,3.731506
4.866302,3.731506
4.874397,3.704119
4.878700,3.704119
4.886902,3.704119
4.894897,3.704119
4.903099,3.704119
4.907295,3.704119
4.915398,3.704119
4.919701,3.704119
4.927902,3.704119
4.936096,3.704119
4.944298,3.704119
4.952202,3.665220
4.960396,3.665220
4.968498,3.665220
4.976799,3.665220
4.980995,3.764004
4.989098,3.764004
4.997299,3.764004
5.001602,3.764004
5.009598,3.764004
5.017799,3.764004
5.026001,3.764004
5.034096,3.678498
5.038399,3.678498
5.046501,3.678498
5.054596,3.678498
5.058899,3.678498
5.067101,3.678498
5.075302,3.678498
5.083298,3.678498
5.091400,3.678498
5.095695,3.678498
5.103798,3.678498
5.108101,3.678498
5.116096,3.678498
5.124199,3.607552
5.128502,3.607552
5.136803,3.607552
5.144798,3.522423
5.152901,3.522423
5.157295,3.522423
5.165298,3.522423
5.173302,3.522423
5.177696,3.522423
5.189697,3.522423
5.194000,3.522423
5.202103,3.451449
5.210197,3.451449
5.214500,3.366739
5.222496,3.366739
5.230598,3.366739
5.238899,3.366739
5.243202,3.351819
5.251297,3.351819
5.259399,3.351819
5.263702,3.351819
5.271698,3.351819
5.279800,3.351819
5.288101,3.351819
5.296196,3.351819
5.300499,3.351819
5.308601,3.351819
5.316696,3.377596
5.320999,3.293069
5.329201,3.277396
5.337402,3.277396
5.345398,3.206378
5.349701,3.206378
5.357796,3.206378
5.365898,3.206378
5.370201,3.206378
5.378296,3.206378
5.386597,3.206378
5.394600,3.206378
5.402702,3.206378
5.410797,3.206378
5.419098,3.206378
5.427299,3.121736
5.431602,3.121736
5.439697,3.121736
5.447800,3.121736
5.452103,3.121736
5.460098,3.121736
5.468300,3.121736
5.472496,3.121736
5.480598,3.121736
5.488800,3.121736
5.496902,3.050756
5.501198,3.050756
5.509300,3.050756
5.517502,3.050756
5.525803,3.050756
5.533798,3.050756
5.542000,2.995652
5.546196,2.995652
5.554298,2.995652
5.558601,2.995652
5.566696,2.995652
5.574799,2.995652
5.579102,2.995652
5.587296,2.995652
5.595299,2.995652
5.603401,2.977627
5.607697,2.977627
5.615799,2.906768
5.623802,2.906768
5.628197,2.795054
5.640297,2.795054
5.644600,2.795054
5.652596,2.795054
5.660698,2.795054
5.665001,2.795054
5.673096,2.795054
5.681198,2.795054
5.689499,2.795054
5.693802,2.795054
5.701797,2.795054
5.709900,2.795054
5.714195,2.795054
5.722298,2.795054
5.730400,2.640120
5.738701,2.640120
5.746796,2.640120
5.751099,2.640120
5.759102,2.640120
5.767197,2.640120
5.771500,2.658517
5.779602,2.658517
5.787895,2.658517
5.795998,2.658517
5.804100,2.658517
5.808296,2.658517
5.816399,2.629199
5.820702,2.545759
5.828896,2.474883
5.840996,2.474883
5.845299,2.474883
5.853302,2.474883
5.857597,2.474883
5.865601,2.474883
5.873695,2.474883
5.881798,2.474883
5.890099,2.474883
5.894402,2.474883
5.902496,2.391956
5.910599,2.391956
5.914902,2.391956
5.922997,2.321362
5.931099,2.321362
5.939400,2.321362
5.947502,2.321362
5.951698,2.321362
5.959801,2.321362
5.968002,2.321362
5.972198,2.321362
5.980301,2.321362
5.988602,2.321362
5.996597,2.239220
6.000999,2.239220
6.009003,2.239220
