time,angle
-0.496700,0.434312
-0.492432,0.434312
-0.484371,0.433410
-0.476238,0.433410
-0.468010,0.433410
-0.459911,0.459275
-0.455601,0.459275
-0.447559,0.459275
-0.439419,0.432507
-0.435108,0.457996
-0.427021,0.457996
-0.418652,0.457996
-0.410702,0.495351
-0.402599,0.456712
-0.398251,0.456712
-0.390160,0.456712
-0.382080,0.456712
-0.377762,0.384104
-0.365688,0.384104
-0.361488,0.384104
-0.353409,0.384104
-0.345219,0.384104
-0.341000,0.384104
-0.332951,0.314658
-0.324829,0.314658
-0.316559,0.314658
-0.312271,0.314658
-0.304230,0.314658
-0.296070,0.314658
-0.291828,0.253338
-0.283772,0.253338
-0.275639,0.253338
-0.267391,0.253338
-0.259239,0.139882
-0.254990,0.139882
-0.246941,0.139882
-0.242580,0.139882
-0.234520,0.139882
-0.226421,0.139882
-0.218121,0.139882
-0.210041,0.139882
-0.205730,0.139882
-0.197651,0.096913
-0.189549,0.096913
-0.185268,0.096913
-0.177151,0.096913
-0.168892,0.096913
-0.160820,0.096913
-0.152760,0.096913
-0.144650,0.096913
-0.136410,0.096913
-0.128159,0.096913
-0.123871,0.096913
-0.115768,0.096913
-0.107658,0.096913
-0.103371,0.096913
-0.095322,0.111906
-0.087181,0.111906
-0.082932,0.111906
-0.074879,0.059347
-0.066662,0.059347
-0.058540,0.059347
-0.054249,0.059347
-0.046200,0.059347
-0.038059,0.090654
-0.033810,0.090654
-0.025719,0.090654
-0.017471,0.090654
-0.009369,0.155766
-0.005081,0.155766
0.002979,0.155766
0.011108,0.155766
0.015362,0.160713
0.023499,0.160713
0.031792,0.160713
0.039799,0.160713
0.044128,0.160713
0.052200,0.160713
0.060261,0.160713
0.064598,0.238211
0.072701,0.230700
0.081020,0.230700
0.089020,0.230700
0.097080,0.230700
0.101440,0.230700
0.109482,0.230700
0.117512,0.230700
0.121929,0.310274
0.133980,0.310274
0.138210,0.310274
0.146259,0.310274
0.154419,0.310274
0.162659,0.310274
0.170830,0.310274
0.175121,0.310274
0.183281,0.310274
0.191330,0.310274
0.199478,0.315279
0.203812,0.309643
0.211819,0.309643
0.219971,0.309643
0.224258,0.309643
0.232479,0.309643
0.240521,0.391671
0.248650,0.391671
0.252991,0.391671
0.261021,0.391671
0.269089,0.391671
0.273441,0.391671
0.285530,0.391671
0.289761,0.391671
0.297871,0.391671
0.306030,0.475601
0.310360,0.475601
0.318329,0.475601
0.326401,0.475601
0.334690,0.475601
0.339001,0.557429
0.347050,0.557429
0.355209,0.557429
0.359589,0.557429
0.367531,0.557429
0.375649,0.557429
0.383869,0.557429
0.392010,0.554614
0.396271,0.633965
0.404339,0.633965
0.412491,0.633965
0.416740,0.637351
0.424851,0.719549
0.433121,0.719549
0.441261,0.719549
0.445511,0.719549
0.453560,0.719549
0.461651,0.798684
0.466019,0.796722
0.474041,0.879378
0.482330,0.879378
0.490421,0.879378
0.498489,0.879378
0.502800,0.879378
0.510849,0.958383
0.518910,0.958383
0.523300,1.041362
0.535358,1.041362
0.539600,1.041362
0.547642,1.041362
0.555840,1.041362
0.560051,1.120474
0.568119,1.203498
0.576241,1.203498
0.584518,1.203498
0.592720,1.203498
0.596970,1.282374
0.605011,1.365587
0.613178,1.365587
0.617390,1.365587
0.633030,1.444285
0.633770,1.444285
0.641861,1.444285
0.646179,1.527519
0.654240,1.527519
0.662331,1.527519
0.666710,1.606203
0.674770,1.689455
0.683010,1.689455
0.691059,1.689455
0.699188,1.768129
0.703510,1.851501
0.711559,1.851501
0.719620,1.854247
0.724018,2.016157
0.736092,2.016157
0.740292,2.016157
0.748341,2.016157
0.756519,2.016157
0.760750,2.176278
0.768810,2.176278
0.776920,2.178615
0.785198,2.178615
0.789539,2.340507
0.797600,2.340507
0.805672,2.340507
0.810059,2.340507
0.818020,2.418566
0.826180,2.503115
0.834419,2.503115
0.842571,2.503115
0.846809,2.503115
0.854881,2.503115
0.863022,2.664988
0.867249,2.664988
0.875408,2.664988
0.883629,2.664988
0.891701,2.830961
0.896019,2.830961
0.904079,2.830961
0.912178,2.830961
0.916470,2.992579
0.924690,2.992579
0.932880,2.992579
0.940979,2.992579
0.949001,3.154302
0.953339,3.154302
0.961380,3.154302
0.969460,3.154302
0.973839,3.315938
0.985939,3.315938
0.990181,3.315938
0.998230,3.315938
1.006351,3.315938
1.010620,3.315938
1.018661,3.477671
1.026779,3.477671
1.035080,3.477671
1.043221,3.477671
1.047539,3.562164
1.055531,3.562164
1.059860,3.639380
1.067982,3.639380
1.076080,3.639380
1.084320,3.639380
1.092400,3.723890
1.096710,3.723890
1.104790,3.723890
1.112862,3.805086
1.117199,3.805086
1.125309,3.805086
1.133579,3.805086
1.141609,3.889675
1.149712,3.889675
1.154049,3.889675
1.162071,3.966597
1.170151,3.966597
1.174622,3.966597
1.186581,3.966597
1.190861,4.051300
1.198959,4.051300
1.207039,4.051300
1.211319,4.051300
1.219360,4.128060
1.227482,4.209241
1.235760,4.209241
1.243931,4.209241
1.248138,4.209241
1.256222,4.209241
1.260551,4.285965
1.268600,4.285965
1.276741,4.371033
1.284981,4.371033
1.293072,4.371033
1.297440,4.447613
1.305450,4.447613
1.313629,4.532763
1.317860,4.532763
1.325989,4.532763
1.334259,4.532763
1.342281,4.609297
1.350391,4.694442
1.354759,4.694442
1.362728,4.694442
1.370811,4.697653
1.375290,4.859220
1.387280,4.859220
1.391510,4.864619
1.399551,4.864619
1.403900,4.864619
1.411991,5.025976
1.419998,5.025976
1.428139,5.020827
1.436459,5.020827
1.440750,5.103384
1.448799,5.179524
1.456940,5.179524
1.461239,5.179524
1.469299,5.179524
1.477402,5.265182
1.485649,5.265182
1.493752,5.341187
1.498058,5.341187
1.506088,5.341187
1.514221,5.341187
1.518478,5.426900
1.526619,5.426900
1.534870,5.426900
1.542961,5.502815
1.551071,5.502815
1.555370,5.502815
1.563400,5.588652
1.567730,5.588652
1.575871,5.588652
1.584122,5.588652
1.592171,5.664447
1.600250,5.750366
1.604591,5.750366
1.612629,5.750366
1.620750,5.750366
1.628811,5.825982
1.637119,5.825982
1.641418,5.825982
1.649471,5.912048
1.657589,5.912048
1.661880,5.912048
1.669960,5.912048
1.678051,5.987561
1.686310,5.987561
1.694439,6.073702
1.698730,6.073702
1.706760,6.073702
1.714931,6.073702
1.719158,6.073702
1.727291,6.235330
1.735588,6.235330
1.743610,6.235330
1.748020,6.235330
1.756008,6.235330
1.764080,6.235330
1.768410,6.235330
1.776539,6.235330
1.784790,6.235330
1.792850,6.321644
1.800941,6.396937
1.805271,6.396937
1.813320,6.396937
1.821369,6.396937
1.829472,6.396937
1.837811,6.396937
1.842091,6.396937
1.850128,6.483376
1.858280,6.483376
1.862549,6.483376
1.870609,6.558494
1.878731,6.558494
1.887001,6.558494
1.895142,6.558494
1.899391,6.558494
1.907459,6.558494
1.915600,6.558494
1.919861,6.558494
1.927959,6.645024
1.936260,6.645024
1.944328,6.645024
1.948639,6.645024
1.956692,6.645024
1.964779,6.720036
1.969170,6.720036
1.977219,6.720036
1.985451,6.720036
1.993500,6.719015
2.001598,6.720036
2.005901,6.720036
2.013969,6.719015
2.022030,6.805703
2.026440,6.805703
2.038490,6.805703
2.042770,6.805703
2.050789,6.805703
2.058960,6.805703
2.063198,6.805703
2.071251,6.805703
2.079369,6.880596
2.087650,6.880596
2.092079,6.880596
2.100040,6.880596
2.108189,6.880596
2.116409,6.880596
2.124741,6.880653
2.132629,6.880653
2.137032,6.967395
2.145119,6.967395
2.153179,6.967395
2.157520,6.967395
2.165710,6.967395
2.177738,6.968549
2.181980,6.968549
2.190048,6.968549
2.194370,6.968549
2.202469,6.968549
2.210468,6.968549
2.218601,6.968549
2.226929,6.968549
2.231171,6.968549
2.239239,6.968549
2.247372,6.968549
2.251640,6.968606
2.259689,6.968606
2.267799,6.968606
2.272171,6.968606
2.280270,6.968606
2.288448,6.969704
2.296539,6.969704
2.300800,6.969704
2.308971,6.969704
2.317139,6.969704
2.325409,6.969704
2.333462,6.969704
2.341610,6.969704
2.345848,6.969704
2.354069,6.969704
2.362068,6.969816
2.370178,6.969816
2.378460,6.969816
2.386662,6.969816
2.391079,6.969816
2.399029,6.969816
2.407242,6.969816
2.415501,6.969816
2.423630,6.969816
2.431690,6.969816
2.439930,6.969816
2.444210,6.969816
2.452240,6.969816
2.460308,6.969816
2.468578,6.969816
2.476799,6.969816
2.484909,6.969816
2.489170,6.969816
2.497250,6.969816
2.505402,6.969816
2.509682,6.969816
2.517841,6.969816
2.526112,6.969816
2.534290,6.969619
2.542389,6.969619
2.550461,6.969619
2.554771,6.969619
2.562809,6.971617
2.570919,6.971617
2.579121,6.971617
2.587349,6.971617
2.595490,6.971617
2.599731,6.971617
2.608070,6.971617
2.616169,6.971617
2.624229,6.971617
2.632309,6.971617
2.640572,6.971617
2.644859,6.971617
2.652901,6.884842
2.660992,6.884842
2.669220,6.884842
2.677490,6.884842
2.685638,6.887833
2.690010,6.887833
2.698090,6.887833
2.706348,6.887833
2.718369,6.887833
2.722630,6.887833
2.730709,6.887833
2.738960,6.887833
2.747059,6.887833
2.751331,6.886096
2.759468,6.886096
2.767712,6.886096
2.775951,6.886096
2.784000,6.886096
2.792091,6.886096
2.796421,6.886096
2.804562,6.889114
2.812611,6.889114
2.820751,6.889114
2.828999,6.889114
2.837212,6.889114
2.845348,6.889114
2.849628,6.889114
2.858028,6.889114
2.869919,6.889114
2.874222,6.889114
2.882290,6.889114
2.890461,6.889114
2.898640,6.889114
2.902851,6.893043
2.910999,6.893043
2.919140,6.893043
2.927391,6.893043
2.935600,6.893043
2.943619,6.893043
2.947998,6.893043
2.959949,6.893043
2.964409,6.893043
2.972439,6.893043
2.980560,6.893043
2.988819,6.893043
2.996941,6.897992
3.001228,6.897992
3.009350,6.897992
3.017601,6.897992
3.025799,6.897992
3.033852,6.897992
3.041988,6.897992
3.046280,6.897992
3.054340,6.897992
3.062370,6.903875
3.070568,6.903875
3.078838,6.903875
3.087021,6.903875
3.091431,6.903875
3.099468,6.903875
3.107738,6.903875
3.115929,6.903875
3.123970,6.903875
3.132030,6.903875
3.140270,6.903875
3.148411,6.903875
3.152679,6.978535
3.160778,7.065108
3.169041,7.065108
3.177319,7.065108
3.185421,7.065108
3.193489,6.899271
3.197910,6.899271
3.205879,6.899271
3.213951,6.903875
3.222111,6.817422
3.230350,6.817422
3.238579,6.742703
3.246738,6.742703
3.250980,6.656318
3.259060,6.656318
3.267220,6.581447
3.271439,6.581447
3.279671,6.581447
3.287918,6.495161
3.295959,6.495161
3.304100,6.495161
3.308609,6.495161
3.316441,6.420190
3.324490,6.420190
3.332642,6.420190
3.340950,6.420190
3.345268,6.334069
3.353451,6.340164
3.361431,6.340164
3.365730,6.340164
3.373810,6.340164
3.381939,6.265130
3.390160,6.265130
3.398289,6.265130
3.402561,6.179205
3.410660,6.179205
3.418751,6.187860
3.423050,6.180473
3.431179,6.180473
3.439388,6.180473
3.447449,6.180473
3.455620,6.105347
3.459869,6.019495
3.467949,6.019495
3.476059,6.019495
3.480381,6.019495
3.492470,6.019495
3.496750,6.019495
3.504749,6.019495
3.509140,6.019495
3.517159,6.019495
3.525211,5.867652
3.533329,5.859764
3.541630,5.859764
3.545921,5.859764
3.553970,5.859764
3.562099,5.859764
3.566391,5.859764
3.574421,5.774210
3.582539,5.698839
3.590809,5.698839
3.598969,5.698839
3.603210,5.698839
3.611290,5.698839
3.619450,5.613355
3.623692,5.613355
3.631802,5.613355
3.640068,5.613355
3.648140,5.537889
3.652481,5.537889
3.660542,5.537889
3.668610,5.537889
3.672939,5.537889
3.681049,5.452550
3.689320,5.452550
3.697430,5.452550
3.705448,5.452550
3.713638,5.376985
3.717869,5.376985
3.725941,5.376985
3.734032,5.376985
3.742352,5.376985
3.746620,5.376985
3.754688,5.291799
3.762840,5.291799
3.767120,5.291799
3.775181,5.291799
3.783241,5.291799
3.791500,5.291799
3.799648,5.291799
3.803890,5.291799
3.812012,5.291799
3.820278,5.291799
3.828442,5.216127
3.836491,5.216127
3.844730,5.216127
3.848980,5.216127
3.857021,5.130990
3.861340,5.130990
3.873260,5.130990
3.877739,5.130990
3.885780,5.130990
3.893848,5.130990
3.898201,5.130990
3.906239,5.130990
3.914341,5.055283
3.918671,5.055283
3.926720,5.055283
3.934761,4.970353
3.943031,4.970353
3.947319,4.970353
3.955379,4.970353
3.963531,4.970353
3.967812,4.970353
3.975868,4.970353
3.983921,4.970353
3.992191,4.970353
4.000340,4.970353
4.004570,4.809620
4.012699,4.800079
4.020988,4.800079
4.029148,4.800079
4.037220,4.800079
4.045399,4.800079
4.049629,4.800079
4.057701,4.800079
4.062031,4.792973
4.070229,4.792973
4.082241,4.792973
4.086529,4.792973
4.094570,4.792973
4.102692,4.792973
4.110950,4.792973
4.115261,4.792973
4.123310,4.792973
4.131538,4.792973
4.139790,4.792973
4.147861,4.792973
4.155918,4.792973
4.164070,4.792973
4.172321,4.792973
4.176731,4.792973
4.184780,4.792973
4.192970,4.792973
4.201038,4.792973
4.205341,4.708067
4.213409,4.631808
4.221630,4.631808
4.229889,4.631808
4.237949,4.631808
4.242260,4.631808
4.250309,4.631808
4.258400,4.631808
4.266491,4.631808
4.270908,4.631808
4.282928,4.631808
4.291168,4.631808
4.295429,4.631808
4.303520,4.631808
4.311821,4.631808
4.320061,4.631808
4.328030,4.631808
4.336071,4.631808
4.344391,4.631808
4.348690,4.625841
4.356800,4.625841
4.364830,4.625841
4.373039,4.625841
4.381271,4.625841
4.385590,4.625841
4.393639,4.625841
4.401749,4.625841
4.406040,4.625841
4.414101,4.625841
4.422321,4.625841
4.430500,4.620206
4.438591,4.620206
4.442921,4.620206
4.450951,4.620206
4.459080,4.696652
4.463341,4.696652
4.471531,4.696652
4.479698,4.781761
4.487759,4.781761
4.495960,4.781761
4.500191,4.781761
4.508240,4.781761
4.516281,4.781761
4.524471,4.781761
4.532791,4.781761
4.537029,4.781761
4.545109,4.781761
4.553249,4.781761
4.557510,4.781761
4.565559,4.781761
4.573750,4.781761
4.581959,4.781761
4.586300,4.781761
4.594349,4.781761
4.602440,4.781761
4.606770,4.781761
4.614811,4.781761
4.622990,4.781761
4.631210,4.781761
4.639278,4.781761
4.643581,4.781761
4.651619,4.781761
4.659760,4.787247
4.664028,4.787247
4.672211,4.787247
4.680389,4.787247
4.688492,4.787247
4.696609,4.787247
4.700871,4.787247
4.708950,4.787247
4.713261,4.787247
4.721470,4.787247
4.729630,4.787247
4.737659,4.787247
4.745781,4.702155
4.750092,4.702155
4.758141,4.702155
4.766190,4.702155
4.774380,4.702155
4.782639,4.702155
4.786999,4.625841
4.794991,4.625841
4.803082,4.625841
4.811291,4.625841
4.815521,4.621266
4.823780,4.626900
4.832001,4.626900
4.840130,4.626900
4.848179,4.626900
4.856232,4.626900
4.864479,4.626900
4.872719,4.626900
4.877010,4.626900
4.885071,4.626900
4.893311,4.626900
4.901508,4.626900
4.905701,4.626900
4.913830,4.626900
4.922089,4.626900
4.930271,4.626900
4.938301,4.626900
4.946461,4.626900
4.950741,4.626900
4.958809,4.626900
4.966839,4.626900
4.975060,4.626900
4.983311,4.626900
4.991520,4.626900
4.995831,4.626900
5.003979,4.626900
5.012291,4.626900
5.020401,4.626900
5.028450,4.626900
5.036491,4.626900
5.044781,4.626900
5.049080,4.626900
5.057140,4.626900
5.065281,4.626900
5.073521,4.626900
5.081692,4.626900
5.089870,4.626900
5.094120,4.703279
5.102200,4.703279
5.110329,4.703279
5.114632,4.703279
5.122822,4.703279
5.134769,4.703279
5.139229,4.795261
5.147251,4.795261
5.155369,4.795261
5.163620,4.795261
5.171810,4.795261
5.179920,4.795261
5.184212,4.795261
5.192451,4.795261
5.200489,4.795261
5.208549,4.795261
5.216648,4.795261
5.224918,4.795261
5.233170,4.795261
5.237431,4.795261
5.245541,4.795261
5.253658,4.795261
5.257919,4.795261
5.265980,4.795261
5.274231,4.795261
5.282429,4.795261
5.290531,4.795261
5.294849,4.795261
5.302990,4.795261
5.311340,4.789456
5.319340,4.789456
5.327358,4.789456
5.335529,4.789456
5.343800,4.789456
5.351940,4.789456
5.356251,4.789456
5.364429,4.789456
5.372608,4.789456
5.380821,4.789456
5.388840,4.789456
5.396980,4.789456
5.401340,4.789456
5.409378,4.789456
5.417419,4.789456
5.425621,4.789456
5.433880,4.789456
5.442081,4.789456
5.446362,4.789456
5.454472,4.789456
5.462761,4.789456
5.470921,4.789456
5.479050,4.789456
5.487061,4.789456
5.495300,4.789456
5.499641,4.789456
5.507698,4.789456
5.515808,4.789456
5.524078,4.789456
5.532299,4.789456
5.540348,4.789456
5.548531,4.789456
5.552769,4.789456
5.560848,4.789456
5.568901,4.789456
5.577099,4.789456
5.585361,4.789456
5.593590,4.789456
5.597889,4.789456
5.605980,4.789456
5.614220,4.789456
5.622440,4.789456
5.630501,4.789456
5.638538,4.789456
5.646839,4.789456
5.651131,4.789456
5.659191,4.789456
5.667290,4.789456
5.675529,4.789456
5.683750,4.789456
5.691940,4.796364
5.696232,4.796364
5.704330,4.796364
5.712551,4.796364
5.720638,4.796364
5.728691,4.796364
5.736919,4.796364
5.745152,4.796364
5.749451,4.796364
5.757519,4.796364
5.765690,4.796364
5.773998,4.796364
5.782101,4.796364
5.790150,4.796364
5.798370,4.880701
5.802620,4.880701
5.810699,4.880701
5.818821,4.880701
5.823109,4.880701
5.831211,4.880701
5.839211,4.880701
5.847519,4.880701
5.851810,4.880701
5.859829,4.880701
5.867931,4.965700
5.885620,4.965700
5.885769,4.973939
5.892559,4.973939
5.896832,4.973939
5.904961,4.973939
5.913189,4.973939
5.921242,4.973939
5.925591,4.973939
5.937500,4.973939
5.945820,4.973939
5.950100,4.973939
5.958241,4.973939
5.966339,4.973939
5.974640,4.973939
5.982788,4.973939
5.990829,4.973939
5.999069,4.973939
6.003311,4.973939
