time,angle
-0.496110,0.106531
-0.491850,0.195835
-0.483720,0.195835
-0.475440,0.195835
-0.467380,0.195835
-0.459350,0.195835
-0.454920,0.195835
-0.442960,0.195835
-0.438540,0.195835
-0.430460,0.195835
-0.422360,0.195835
-0.414189,0.195835
-0.409940,0.203672
-0.401899,0.203672
-0.393700,0.203672
-0.385500,0.203672
-0.377370,0.203672
-0.373079,0.243893
-0.364960,0.243893
-0.356820,0.243893
-0.348740,0.243893
-0.344350,0.243893
-0.336120,0.243893
-0.324100,0.243893
-0.319830,0.301965
-0.311750,0.301965
-0.303559,0.301965
-0.295300,0.301965
-0.287190,0.301965
-0.279150,0.301965
-0.274690,0.301965
-0.266590,0.301965
-0.258590,0.301965
-0.254210,0.226419
-0.242280,0.226419
-0.233990,0.226419
-0.229660,0.226419
-0.221650,0.226419
-0.213510,0.226419
-0.209270,0.226419
-0.201150,0.283930
-0.196890,0.283930
-0.188829,0.283930
-0.180790,0.283930
-0.172549,0.283930
-0.168220,0.283930
-0.160160,0.283930
-0.152050,0.283930
-0.147780,0.283930
-0.139720,0.211218
-0.131620,0.266144
-0.123370,0.266144
-0.115210,0.266144
-0.110940,0.266144
-0.102920,0.266144
-0.098579,0.266144
-0.090529,0.326858
-0.082410,0.326858
-0.074130,0.326858
-0.065989,0.326858
-0.061740,0.326858
-0.053670,0.326858
-0.045589,0.391171
-0.041289,0.391171
-0.033150,0.391171
-0.024890,0.391171
-0.016840,0.391171
-0.008730,0.391171
-0.004430,0.391171
0.003671,0.455854
0.011710,0.416371
0.016100,0.416371
0.028131,0.416371
0.032451,0.416371
0.040490,0.416371
0.054700,0.416371
0.054840,0.475190
0.061030,0.475190
0.069080,0.475190
0.077380,0.475190
0.085461,0.475190
0.089730,0.555319
0.097830,0.555319
0.105980,0.555319
0.110210,0.619288
0.118290,0.619288
0.126551,0.619288
0.134641,0.619288
0.138950,0.619288
0.147130,0.619288
0.155311,0.619288
0.163490,0.619288
0.171531,0.619288
0.179740,0.619288
0.184000,0.619288
0.192081,0.619288
0.200100,0.619288
0.208301,0.619288
0.216580,0.619288
0.224751,0.619288
0.229071,0.619288
0.237260,0.619288
0.245541,0.619288
0.253660,0.619288
0.261710,0.619288
0.269771,0.703878
0.278040,0.703878
0.286170,0.703878
0.290421,0.703878
0.298720,0.703878
0.306780,0.703878
0.314941,0.703878
0.323031,0.703878
0.327371,0.703878
0.335430,0.703878
0.343720,0.703878
0.347880,0.703878
0.355910,0.703878
0.364221,0.790310
0.368341,0.790310
0.376640,0.790310
0.384561,0.790310
0.392700,0.767703
0.396960,0.767703
0.405030,0.767703
0.413131,0.699136
0.417440,0.788575
0.429510,0.788575
0.433761,0.778586
0.441811,0.778586
0.446180,0.778586
0.454240,0.778586
0.462251,0.708864
0.470440,0.708864
0.478690,0.708864
0.483001,0.708864
0.491040,0.799174
0.499190,0.795985
0.503460,0.795985
0.511530,0.726316
0.519630,0.726316
0.527890,0.726316
0.536060,0.726316
0.540280,0.824245
0.548340,0.824245
0.556500,0.767703
0.560730,0.767703
0.568831,0.767703
0.577110,0.767703
0.585160,0.793522
0.589470,0.813732
0.597510,0.813732
0.605630,0.813732
0.609930,0.839068
0.618040,0.879600
0.626320,0.879600
0.634360,0.819722
0.642490,0.898528
0.646771,0.898528
0.654810,0.898528
0.659250,0.945640
0.667300,0.945640
0.679360,0.945640
0.683570,0.985165
0.691640,0.985165
0.695980,0.985165
0.704041,0.930622
0.712091,0.990908
0.720230,0.990908
0.728560,0.990908
0.732870,1.059063
0.740900,0.990908
0.749010,0.990908
0.753290,0.990908
0.761331,0.990908
0.769450,1.107298
0.777730,1.107298
0.785840,1.107298
0.790111,1.107298
0.798210,1.107298
0.806300,1.107298
0.810580,1.107298
0.818710,1.107298
0.827061,1.107298
0.835080,1.107298
0.843181,1.107298
0.847461,1.107298
0.855511,1.178524
0.859830,1.233846
0.867971,1.233846
0.876230,1.233846
0.884271,1.233846
0.892321,1.233846
0.896670,1.233846
0.904700,1.233846
0.912750,1.309105
0.920880,1.309105
0.929251,1.309105
0.933510,1.228123
0.941530,1.228123
0.949660,1.228123
0.954001,1.228123
0.962010,1.228123
0.970210,1.115222
0.978371,1.115222
0.982710,1.078290
0.990730,1.078290
0.998870,1.078290
1.003160,1.078290
1.011190,0.989525
1.019330,0.874692
1.027610,0.874692
1.035700,0.874692
1.040000,0.874692
1.048080,0.874692
1.056170,0.853863
1.060460,0.685285
1.068630,0.685285
1.076880,0.685285
1.084920,0.680701
1.093020,0.680701
1.097341,0.680701
1.105391,0.680701
1.113481,0.598071
1.121571,0.614212
1.129900,0.614212
1.134211,0.614212
1.142270,0.583498
1.150380,0.583498
1.154680,0.583498
1.162730,0.618340
1.170840,0.672021
1.179090,0.672021
1.187230,0.672021
1.191481,0.672021
1.199580,0.783846
1.207690,0.783846
1.212000,0.725777
1.220060,0.725777
1.228311,0.725777
1.236390,0.725777
1.240701,0.860710
1.248780,0.860710
1.256870,0.860710
1.261170,0.860710
1.269290,0.921748
1.277640,0.921748
1.285590,1.003467
1.293731,1.003467
1.298201,1.003467
1.306060,1.003467
1.314140,1.066612
1.318510,1.066612
1.330570,1.066612
1.334821,1.041738
1.343000,1.041738
1.351060,1.041738
1.355320,1.041738
1.363410,1.107475
1.371460,1.193866
1.379750,1.193866
1.384080,1.193866
1.392210,1.193866
1.400230,1.193866
1.404540,1.193866
1.412661,1.236539
1.420740,1.236539
1.428960,1.236539
1.437080,1.236539
1.441370,1.236539
1.449450,1.325446
1.457561,1.325446
1.461850,1.325446
1.470020,1.325446
1.478220,1.325446
1.486300,1.347991
1.494400,1.347991
1.498751,1.347991
1.506750,1.347991
1.514851,1.347991
1.519220,1.347991
1.531270,1.347991
1.535530,1.347991
1.543591,1.366876
1.551750,1.453334
1.556070,1.453334
1.564100,1.483981
1.572150,1.483981
1.580441,1.483981
1.584770,1.483981
1.592820,1.483981
1.600930,1.483981
1.605230,1.398997
1.613300,1.362000
1.621410,1.404999
1.629630,1.404999
1.637751,1.404999
1.642060,1.404999
1.650101,1.452257
1.658250,1.452257
1.662480,1.488983
1.670610,1.488983
1.678870,1.488983
1.686911,1.414854
1.691250,1.414854
1.699320,1.414854
1.707390,1.471932
1.711761,1.471932
1.719860,1.471932
1.728100,1.471932
1.736240,1.471932
1.744260,1.471932
1.748550,1.471932
1.756620,1.499852
1.764660,1.499852
1.769111,1.563354
1.781100,1.563354
1.785360,1.563354
1.793410,1.563354
1.801580,1.563354
1.805830,1.563354
1.813890,1.499722
1.822010,1.568478
1.830280,1.568478
1.838440,1.577063
1.842700,1.577063
1.850780,1.577063
1.858991,1.577063
1.863151,1.651498
1.871261,1.651498
1.879520,1.651498
1.887620,1.707200
1.891980,1.658120
1.899981,1.658120
1.908071,1.737650
1.912391,1.737650
1.920470,1.737650
1.928741,1.737650
1.936780,1.764140
1.944910,1.846950
1.949201,1.846950
1.957251,1.809808
1.961560,1.809808
1.969790,1.809808
1.977970,1.809808
1.986071,1.895272
1.994070,1.958347
1.998450,1.958347
2.006451,1.958347
2.014510,1.927728
2.022640,1.906494
2.031011,1.906494
2.035251,1.995275
2.043290,1.995275
2.051431,1.995275
2.055700,2.060516
2.063721,2.060516
2.071870,2.149767
2.080160,2.149767
2.088290,2.128724
2.092510,2.128724
2.100600,2.128724
2.104910,2.128724
2.112970,2.195083
2.121110,2.272537
2.129320,2.272537
2.137441,2.272537
2.141730,2.272537
2.149771,2.272537
2.157910,2.272537
2.162140,2.272537
2.170321,2.272537
2.178500,2.272537
2.186601,2.272537
2.190890,2.272537
2.198940,2.272537
2.207080,2.272537
2.211330,2.275979
2.219541,2.275979
2.227720,2.342680
2.235770,2.342680
2.244010,2.433813
2.248170,2.433813
2.256250,2.433813
2.260540,2.423013
2.268801,2.423013
2.277020,2.437188
2.285040,2.437188
2.293080,2.425838
2.297541,2.425838
2.305490,2.425838
2.313500,2.425838
2.321700,2.425838
2.329990,2.425838
2.334270,2.428741
2.342441,2.495597
2.350460,2.495597
2.354700,2.495597
2.362801,2.495597
2.370940,2.495597
2.379120,2.587097
2.383451,2.568569
2.391521,2.568569
2.399620,2.568569
2.403911,2.568569
2.412010,2.568569
2.420200,2.568569
2.428350,2.568569
2.436420,2.568569
2.440770,2.568569
2.452721,2.568569
2.457150,2.568569
2.465210,2.568569
2.473260,2.568569
2.481521,2.568569
2.489660,2.568569
2.493910,2.575495
2.502010,2.575495
2.506300,2.575495
2.514350,2.575495
2.522470,2.483568
2.530721,2.483568
2.538820,2.483568
2.543120,2.483568
2.551260,2.483568
2.559501,2.483568
2.567720,2.416461
2.575770,2.425838
2.583880,2.425838
2.588210,2.425838
2.596280,2.425838
2.604321,2.425838
2.612500,2.425838
2.620770,2.425838
2.629030,2.425838
2.633281,2.425838
2.641410,2.425838
2.649620,2.425838
2.657880,2.425838
2.665891,2.425838
2.673921,2.425838
2.682210,2.425838
2.686510,2.425838
2.694540,2.425838
2.702761,2.425838
2.710940,2.425838
2.719160,2.425838
2.727201,2.425838
2.731630,2.425838
2.739651,2.425838
2.747820,2.425838
2.755870,2.425838
2.764020,2.425838
2.772250,2.425838
2.780490,2.425838
2.784760,2.425838
2.792840,2.425838
2.801081,2.425838
2.809361,2.425838
2.817390,2.425838
2.825440,2.425838
2.833751,2.425838
2.837971,2.425838
2.846010,2.425838
2.854180,2.414273
2.858410,2.414273
2.866470,2.414273
2.874560,2.423013
2.882860,2.423013
2.887190,2.423013
2.895221,2.423013
2.903330,2.423013
2.907630,2.423013
2.915680,2.423013
2.923780,2.514817
2.932040,2.514817
2.940180,2.514817
2.944430,2.581719
2.952600,2.581719
2.960820,2.581719
2.969050,2.581719
2.977080,2.581719
2.985250,2.581719
2.989540,2.581719
2.997581,2.581719
3.001910,2.581719
3.009940,2.581719
3.018050,2.581719
3.022350,2.581719
3.030560,2.581719
3.038590,2.581719
3.046690,2.673568
3.051050,2.673568
3.059031,2.673568
3.067141,2.673568
3.071490,2.663813
3.083560,2.663813
3.087811,2.663813
3.095840,2.663813
3.104000,2.663813
3.112240,2.663813
3.120430,2.731010
3.124750,2.725557
3.132860,2.725557
3.140910,2.725557
3.145290,2.725557
3.153271,2.725557
3.161370,2.725557
3.165740,2.721389
3.173740,2.721389
3.181980,2.721389
3.190070,2.721389
3.194381,2.721389
3.202550,2.721389
3.210560,2.653948
3.214870,2.653948
3.222990,2.561396
3.231231,2.561396
3.239261,2.561396
3.247380,2.493792
3.251690,2.401429
3.259720,2.401429
3.267840,2.401429
3.272190,2.404931
3.284261,2.404931
3.288510,2.245069
3.296670,2.245069
3.304790,2.245069
3.309011,2.245069
3.317020,2.161298
3.325130,2.093683
3.333430,2.093683
3.337730,2.093683
3.345901,2.002227
3.353910,2.002227
3.358211,2.002227
3.366390,2.002227
3.374420,1.843238
3.382640,1.843238
3.390780,1.843238
3.395061,1.843238
3.403111,1.843238
3.411250,1.843238
3.415510,1.751895
3.423640,1.684466
3.431890,1.684466
3.439900,1.684466
3.448050,1.684466
3.452320,1.684466
3.460370,1.593359
3.464721,1.525852
3.472830,1.435314
3.481091,1.435314
3.489141,1.435314
3.497220,1.367735
3.501560,1.367735
3.509630,1.277482
3.517620,1.277482
3.522090,1.120474
3.534090,1.120474
3.538341,1.030976
3.546391,0.991106
3.554570,0.991106
3.558781,0.905254
3.566820,0.905254
3.574990,0.758730
3.583261,0.758730
3.587550,0.758730
3.595580,0.618340
3.603721,0.618340
3.608060,0.618340
3.616051,0.603932
3.624200,0.502800
3.632441,0.502800
3.640571,0.502800
3.644890,0.439240
3.652921,0.439240
3.661050,0.439240
3.665320,0.516241
3.673450,0.519265
3.681670,0.519265
3.689740,0.535954
3.694070,0.559531
3.702120,0.559531
3.710210,0.660568
3.714510,0.821629
3.722751,0.821629
3.730901,0.821629
3.738920,0.922597
3.747060,0.922597
3.751310,0.922597
3.759380,1.102162
3.767430,1.213214
3.775620,1.213214
3.783911,1.213214
3.788240,1.334129
3.796230,1.334129
3.804400,1.334129
3.808681,1.517364
3.816700,1.560472
3.824870,1.630269
3.833120,1.630269
3.841270,1.687368
3.845520,1.760364
3.853590,1.760364
3.861740,1.819729
3.866060,1.819729
3.874170,1.895375
3.882430,1.895375
3.890520,1.932392
3.898601,1.992527
3.902921,2.068573
3.911040,2.068573
3.919090,2.068573
3.923420,2.068573
3.935480,2.068573
3.939711,2.068573
3.947781,2.104870
3.955990,2.104870
3.960200,2.104870
3.968290,2.104870
3.976360,2.056808
3.984631,2.056808
3.988971,2.056808
3.997050,2.056808
4.005131,2.056808
4.013380,2.056808
4.021541,2.056808
4.029620,2.056808
4.033980,2.056808
4.042050,2.056808
4.050150,2.056808
4.054420,2.056808
4.062600,2.056808
4.070781,2.056808
4.078831,2.104870
4.087020,2.104870
4.091250,2.104870
4.099320,2.104870
4.103641,2.104870
4.111691,2.104870
4.119801,2.068573
4.124090,2.068573
4.132330,2.068573
4.140360,2.068573
4.148430,2.068573
4.152830,2.068573
4.160830,2.068573
4.168880,2.068573
4.176991,2.033939
4.185310,2.033939
4.189600,2.080461
4.197710,2.080461
4.205780,2.080461
4.210091,2.080461
4.218130,2.080461
4.226251,2.080461
4.234510,2.080461
4.242650,2.080461
4.246901,2.080461
4.255080,2.112203
4.263280,2.112203
4.271450,2.112203
4.279510,2.112203
4.287721,2.112203
4.291950,2.112203
4.300090,2.112203
4.304390,2.112203
4.312400,2.112203
4.320480,2.112203
4.324800,2.080743
4.333020,2.080743
4.341170,2.107008
4.349151,2.107008
4.353530,2.107008
4.361570,2.107008
4.369580,2.107008
4.373990,2.107008
4.386021,2.107008
4.390301,2.072071
4.398340,2.048418
4.406461,2.048418
4.410700,2.048418
4.418740,2.048418
4.426850,2.048418
4.435241,2.048418
4.439480,2.048418
4.447531,2.019842
4.455650,2.019842
4.459950,2.019842
4.468060,2.019842
4.476120,2.087973
4.484381,2.087973
4.492491,2.087973
4.496830,2.087973
4.504840,2.087973
4.513000,2.087973
4.517261,2.087973
4.525360,2.157219
4.533630,2.157219
4.541690,2.136892
4.549800,2.136892
4.554140,2.136892
4.562170,2.136892
4.570260,2.136892
4.574651,2.131848
4.586710,2.131848
4.590950,2.131848
4.599030,2.131848
4.607161,2.131848
4.611441,2.131848
4.619531,2.045549
4.627570,1.957048
4.635860,1.957048
4.640170,1.957048
4.648260,1.952643
4.656361,1.952643
4.660621,1.952643
4.668680,1.952643
4.676801,1.851395
4.685040,1.851395
4.693171,1.851395
4.697440,1.843344
4.705490,1.843344
4.713651,1.777732
4.717880,1.777732
4.726030,1.680512
4.734281,1.680512
4.742340,1.680512
4.746651,1.677831
4.754721,1.677831
4.762800,1.587823
4.767100,1.517880
4.775240,1.517880
4.783490,1.517880
4.791551,1.516203
4.799650,1.516203
4.803930,1.516203
4.812020,1.516203
4.820070,1.516203
4.824471,1.516332
4.836520,1.516332
4.840820,1.425738
4.848850,1.425738
4.857090,1.425738
4.861280,1.425738
4.869320,1.425738
4.877430,1.425738
4.885751,1.425738
4.893870,1.425738
4.898120,1.425738
4.906180,1.425738
4.914351,1.425738
4.918600,1.424915
4.926710,1.424915
4.935061,1.424915
4.943050,1.424915
4.947371,1.334569
4.955441,1.334569
4.963560,1.334569
4.967820,1.263930
4.975950,1.265013
4.984170,1.265013
4.992250,1.265013
5.000331,1.265013
5.004661,1.265013
5.012801,1.265013
5.020810,1.265013
5.025140,1.175198
5.037221,1.175198
5.041501,1.172531
5.049510,1.172531
5.053910,1.172531
5.061910,1.172531
5.070020,1.172531
5.078080,1.172531
5.086390,1.172531
5.090680,1.175531
5.098741,1.175531
5.106900,1.175531
5.115109,1.175531
5.123290,1.105176
5.131381,1.105176
5.135751,1.105176
5.143800,1.105176
5.151910,1.105176
5.156180,1.105176
5.164420,1.105176
5.172629,1.105176
5.180751,1.105176
5.188809,1.113466
5.196919,1.113466
5.205131,1.113466
5.213321,1.113466
5.217540,1.113466
5.225739,1.113466
5.233991,1.113466
5.242051,1.113466
5.256209,1.113466
5.258281,1.113466
5.266580,1.113466
5.274810,1.113466
5.279111,1.113466
5.287250,1.113466
5.295300,1.113466
5.303550,1.113466
5.307750,1.113466
5.315900,1.113466
5.324191,1.113466
5.332330,1.113466
5.340390,1.113466
5.348540,1.113466
5.356709,1.113466
5.365020,1.113466
5.373111,1.113466
5.377351,1.113466
5.385581,1.023929
5.393611,1.023929
5.401690,1.023929
5.406070,1.023929
5.418021,1.023929
5.426320,1.023929
5.430560,1.023929
5.438621,1.023929
5.446771,1.023929
5.451150,1.023929
5.459161,1.023929
5.467320,1.023929
5.475581,1.023929
5.483790,1.023929
5.491839,1.023929
5.496200,1.023929
5.504241,1.023929
5.512330,1.037220
5.516671,1.037220
5.524840,1.037220
5.533090,1.060725
5.541181,0.993669
5.549251,0.993669
5.553510,0.993669
5.561561,0.908706
5.569600,0.908706
5.577811,0.908706
5.586091,0.908706
5.594241,0.908706
5.598481,0.880934
5.606650,0.880934
5.614890,0.880934
5.623120,0.880934
5.631131,0.880934
5.639300,0.880934
5.643571,0.880934
5.651650,0.880934
5.659680,0.880934
5.667991,0.880934
5.676221,0.880934
5.680501,0.880934
5.688560,0.880934
5.696620,0.880934
5.704820,0.880934
5.709081,0.880934
5.717290,0.880934
5.725490,0.880934
5.733710,0.880934
5.741761,0.880934
5.749791,0.880934
5.758000,0.880934
5.766290,0.880934
5.770560,0.880934
5.778611,0.880934
5.786860,0.880934
5.794990,0.880934
5.799281,0.793769
5.807361,0.726855
5.815579,0.726855
5.823750,0.751734
5.831800,0.751734
5.840001,0.751734
5.844251,0.751734
5.852351,0.751734
5.860410,0.751734
5.864751,0.751734
5.872800,0.751734
5.880860,0.751734
5.889131,0.751734
5.893390,0.751734
5.901431,0.782597
5.909600,0.782597
5.913850,0.782597
5.921901,0.782597
5.930030,0.782597
5.938291,0.782597
5.942620,0.782597
5.950650,0.782597
5.958781,0.782597
5.967031,0.782597
5.975251,0.782597
5.983350,0.782597
5.987651,0.817810
5.995690,0.817810
6.003810,0.817810
6.008130,0.759503
