time,angle
-0.493580,0.643462
-0.485272,0.643462
-0.477181,0.643462
-0.472920,0.597744
-0.464840,0.597744
-0.456711,0.558832
-0.452320,0.558832
-0.444321,0.531923
-0.436050,0.531923
-0.428001,0.513200
-0.419849,0.513200
-0.415539,0.513200
-0.407471,0.513200
-0.399429,0.430239
-0.395069,0.430239
-0.383019,0.430239
-0.378738,0.430239
-0.370701,0.352770
-0.362522,0.271963
-0.358292,0.271963
-0.350231,0.271963
-0.342129,0.271963
-0.333820,0.271963
-0.329441,0.271963
-0.321491,0.271963
-0.313370,0.271963
-0.309082,0.197824
-0.301029,0.197824
-0.292919,0.197824
-0.284550,0.197824
-0.276520,0.197824
-0.272270,0.197824
-0.264179,0.197824
-0.256031,0.197824
-0.251782,0.126669
-0.243630,0.126669
-0.235382,0.126669
-0.227329,0.126669
-0.219200,0.208420
-0.214920,0.208420
-0.206829,0.208420
-0.198731,0.312787
-0.194401,0.312787
-0.186119,0.312787
-0.178059,0.423824
-0.170029,0.423824
-0.165581,0.581819
-0.157570,0.581819
-0.149571,0.581819
-0.145180,0.741513
-0.133122,0.741513
-0.128861,0.741513
-0.120789,0.901789
-0.112660,0.901789
-0.108379,0.901789
-0.100311,0.901789
-0.092232,1.062752
-0.083950,1.062752
-0.075821,1.062752
-0.071560,1.146542
-0.063492,1.220932
-0.055351,1.220932
-0.051079,1.220932
-0.042919,1.305213
-0.034729,1.305213
-0.026600,1.307909
-0.022339,1.389030
-0.014278,1.389030
-0.006191,1.389030
-0.001881,1.401653
0.006229,1.484508
0.014500,1.484508
0.022549,1.516590
0.030670,1.592376
0.034950,1.592376
0.042999,1.592376
0.051048,1.696621
0.055481,1.717942
0.067520,1.717942
0.071770,1.792095
0.079849,1.899810
0.088001,1.899810
0.092258,1.899810
0.100300,1.998020
0.108421,2.076883
0.116692,2.076883
0.121029,2.150222
0.129070,2.229936
0.137241,2.229936
0.141480,2.406721
0.149529,2.480098
0.157711,2.560403
0.166008,2.560403
0.174030,2.714979
0.178360,2.714979
0.186428,2.714979
0.194531,2.870308
0.198860,2.870308
0.206959,3.026274
0.215260,3.026274
0.223278,3.004200
0.231449,3.004200
0.235699,3.004200
0.243759,3.004200
0.251808,2.988586
0.256180,2.988586
0.268238,2.988586
0.272511,2.988586
0.280560,2.974996
0.288651,2.974996
0.293060,2.974996
0.301170,2.963392
0.309200,2.963392
0.317440,2.963392
0.325600,2.877732
0.329830,2.877732
0.337910,2.870035
0.346039,2.870035
0.350311,2.870035
0.358429,2.881743
0.366638,2.881743
0.374722,2.874057
0.379021,2.874057
0.387089,2.791970
0.395191,2.791970
0.399509,2.791970
0.407608,2.703419
0.415859,2.703419
0.423920,2.703419
0.432079,2.625250
0.436321,2.625250
0.444408,2.626070
0.448681,2.626070
0.456821,2.629199
0.465099,2.629199
0.473129,2.467517
0.481190,2.473222
0.485539,2.473222
0.493599,2.473222
0.501659,2.489393
0.509769,2.329022
0.518059,2.329022
0.522381,2.343264
0.530430,2.357338
0.538540,2.357338
0.542858,2.376688
0.550900,2.325068
0.559010,2.325068
0.567280,2.325068
0.575378,2.375370
0.579720,2.294820
0.587750,2.294820
0.595871,2.325405
0.600189,2.391793
0.608250,2.362232
0.616520,2.362232
0.624561,2.362232
0.628891,2.443765
0.637051,2.443765
0.645039,2.560326
0.649368,2.604816
0.657501,2.650849
0.665791,2.650849
0.673779,2.747303
0.681850,2.797644
0.686192,2.797644
0.694229,2.849294
0.702290,2.901982
0.706711,3.011814
0.718720,3.011814
0.723061,3.075871
0.731060,3.130878
0.735378,3.130878
0.743450,3.186842
0.751499,3.243772
0.759640,3.301560
0.767929,3.301560
0.772240,3.360161
0.780289,3.479022
0.788521,3.479022
0.792778,3.479022
0.800770,3.538174
0.808910,3.490539
0.817169,3.490539
0.825249,3.551430
0.829571,3.551430
0.837669,3.551430
0.845730,3.612813
0.850029,3.612813
0.858212,3.612813
0.866539,3.612813
0.874451,3.739736
0.882549,3.739736
0.886879,3.739736
0.894920,3.739736
0.902988,3.739736
0.907379,3.869182
0.919430,3.869182
0.923691,3.869182
0.931740,3.936068
0.936081,3.936068
0.944149,3.845016
0.952171,3.914166
0.960300,3.914166
0.968620,3.914166
0.972920,4.051202
0.980991,4.051202
0.989079,4.051202
0.993389,4.121935
1.001499,4.121935
1.009590,4.075349
1.017849,4.075349
1.025928,4.216308
1.030239,4.216308
1.038311,4.216308
1.046398,4.216308
1.050720,4.257448
1.058819,4.327803
1.067200,4.327803
1.075119,4.327803
1.083248,4.327803
1.087559,4.327803
1.095589,4.327803
1.103680,4.398281
1.108059,4.398281
1.120140,4.398281
1.124359,4.398281
1.132420,4.510931
1.136860,4.510931
1.144829,4.510931
1.152859,4.510931
1.160980,4.581377
1.169289,4.581377
1.173592,4.581377
1.181641,4.652106
1.189800,4.652106
1.194038,4.652106
1.202080,4.722980
1.210220,4.797875
1.218479,4.797875
1.226620,4.869127
1.230881,4.980866
1.238930,4.980866
1.243301,4.980866
1.251308,5.052104
1.259441,5.199045
1.267708,5.199045
1.275749,5.199045
1.286671,5.270761
1.288139,5.270761
1.296230,5.381938
1.300549,5.381938
1.308708,5.453556
1.316929,5.453556
1.324989,5.453556
1.333111,5.640696
1.337448,5.640696
1.345421,5.667248
1.349751,5.738595
1.357941,5.738595
1.366138,5.738595
1.374241,5.850457
1.382271,5.850457
1.390461,5.850457
1.394680,5.997244
1.402721,5.997244
1.410881,6.144716
1.419220,6.144716
1.427299,6.184691
1.431561,6.256143
1.439610,6.256143
1.443951,6.403830
1.452019,6.403830
1.460159,6.552182
1.468441,6.552182
1.476479,6.552182
1.480782,6.701069
1.488899,6.701069
1.496960,6.701069
1.501240,6.850513
1.509460,6.792174
1.517632,6.792174
1.525681,6.943424
1.533772,7.016658
1.538078,7.016658
1.546139,7.095032
1.554211,7.168450
1.558628,7.168450
1.570660,7.168450
1.574951,7.355114
1.582989,7.355114
1.591141,7.355114
1.595451,7.428510
1.603451,7.428510
1.611568,7.507128
1.619869,7.507128
1.627991,7.580692
1.632271,7.580692
1.640320,7.580692
1.648491,7.659525
1.652721,7.659525
1.660820,7.733197
1.669090,7.733197
1.677170,7.812208
1.681549,7.812208
1.689629,7.948780
1.697659,7.948780
1.701950,7.948780
1.710072,7.916735
1.718311,7.916735
1.726349,8.056541
1.734470,8.056541
1.738770,8.056541
1.746819,8.106874
1.754921,8.169237
1.759308,8.222037
1.771400,8.222037
1.775631,8.211309
1.783680,8.286716
1.791859,8.286716
1.796169,8.260349
1.804150,8.333029
1.812260,8.333029
1.820530,8.333029
1.824890,8.333029
1.832989,8.300920
1.841049,8.300920
1.845341,8.218766
1.853451,8.218766
1.861519,8.218766
1.869781,8.218766
1.877880,8.218766
1.882130,8.218766
1.890209,8.218766
1.898331,8.136656
1.902618,8.136656
1.910721,8.136656
1.918980,8.136656
1.927029,8.060659
1.935139,8.060659
1.939449,8.060659
1.947540,8.060659
1.951820,7.978630
1.959949,7.978630
1.968208,7.978630
1.976299,7.911129
1.984299,7.911129
1.988678,7.911129
1.996788,7.911129
2.004749,7.911129
2.009171,7.835314
2.021191,7.835314
2.025471,7.835314
2.033531,7.753676
2.041649,7.753676
2.045929,7.677849
2.054001,7.677849
2.062119,7.677849
2.070419,7.677849
2.078529,7.612184
2.082798,7.612184
2.090828,7.612184
2.099018,7.638821
2.103241,7.557722
2.111439,7.482307
2.119671,7.482307
2.127689,7.482307
2.132038,7.482307
2.140099,7.482307
2.148170,7.494519
2.152500,7.338717
2.160610,7.338717
2.168919,7.338717
2.176949,7.338717
2.185020,7.338717
2.189350,7.338717
2.197460,7.367668
2.205441,7.367668
2.209869,7.367668
2.221920,7.367668
2.226181,7.287312
2.234241,7.287312
2.242420,7.301970
2.250618,7.301970
2.258751,7.301970
2.263088,7.301970
2.271221,7.301970
2.279259,7.301970
2.287411,7.301970
2.291649,7.301970
2.299728,7.301970
2.304050,7.222028
2.312119,7.222028
2.320351,7.222028
2.328400,7.222028
2.332741,7.222028
2.340839,7.222028
2.349098,7.222028
2.357281,7.222028
2.365330,7.222028
2.373421,7.222028
2.377769,7.222028
2.385788,7.222028
2.393841,7.222028
2.402069,7.222028
2.410290,7.222028
2.414570,7.281871
2.422680,7.281871
2.430759,7.281871
2.435051,7.362206
2.443089,7.362206
2.451309,7.362206
2.459461,7.362206
2.463810,7.362206
2.471878,7.362206
2.479919,7.362206
2.484261,7.362206
2.492321,7.362206
2.500408,7.362206
2.504700,7.362206
2.512772,7.362206
2.521000,7.362206
2.529049,7.362206
2.533390,7.333207
2.541451,7.333207
2.549530,7.320380
2.553841,7.395685
2.561939,7.395685
2.570210,7.395685
2.578239,7.395685
2.586300,7.395685
2.590740,7.314802
2.602711,7.314802
2.607109,7.314802
2.615189,7.314802
2.623310,7.314802
2.631439,7.314802
2.635799,7.314802
2.643768,7.314802
2.651981,7.314802
2.660221,7.314802
2.668320,7.314802
2.672661,7.234025
2.680698,7.234025
2.688839,7.234025
2.693089,7.234025
2.701210,7.234025
2.709450,7.221702
2.717449,7.297105
2.721870,7.297105
2.729870,7.297105
2.737961,7.189355
2.742290,7.189355
2.750301,7.189355
2.758450,7.189355
2.762711,7.178596
2.770920,7.178596
2.779011,7.097106
2.787159,7.097106
2.791458,7.097106
2.799431,7.071991
2.807499,7.071991
2.811890,6.996109
2.820148,6.996109
2.828190,6.986541
2.836281,6.963171
2.840660,6.963171
2.848660,6.963171
2.856720,6.963171
2.864819,6.963171
2.873108,6.963171
2.877522,6.955279
2.885498,6.955279
2.893589,6.955279
2.897968,6.955279
2.905960,6.955279
2.914082,6.955279
2.922371,6.955279
2.930450,6.955279
2.934750,6.873066
2.942890,6.873066
2.951118,6.873066
2.959320,6.873066
2.967430,6.873066
2.975510,6.949467
2.979809,6.949467
2.987850,6.867242
2.995960,6.867242
3.000248,6.867242
3.008289,6.867242
3.012619,6.867242
3.024651,6.867242
3.028889,6.943594
3.036930,6.884187
3.041279,6.884187
3.049320,6.893299
3.057430,6.893299
3.061760,6.960382
3.073792,6.960382
3.078110,6.960382
3.086109,6.960382
3.094269,6.960382
3.098511,7.036563
3.106548,6.954545
3.114700,6.954545
3.122971,6.954545
3.127281,6.954545
3.135380,6.954545
3.143440,6.954545
3.147758,6.954545
3.155819,6.954545
3.163940,7.030707
3.172211,7.030707
3.180298,7.030707
3.184631,7.030707
3.192711,7.030707
3.200790,6.954545
3.205101,6.872581
3.213211,6.849740
3.221508,6.849740
3.229530,6.773465
3.237640,6.683545
3.241951,6.683545
3.249981,6.607081
3.258049,6.607081
3.262470,6.585796
3.274479,6.585796
3.278778,6.509244
3.286839,6.509244
3.294971,6.509244
3.299240,6.412305
3.307270,6.412305
3.315399,6.329733
3.323681,6.329733
3.327980,6.234355
3.336060,6.151572
3.344131,6.151572
3.348469,6.074574
3.356510,6.056992
3.364639,5.976419
3.372890,5.976419
3.380970,5.883666
3.385288,5.723205
3.393391,5.723205
3.401451,5.723205
3.405739,5.630472
3.413849,5.552944
3.422112,5.552944
3.430130,5.379790
3.434479,5.379790
3.442551,5.379790
3.450611,5.293427
3.454948,5.132020
3.463100,5.123653
3.471329,5.123653
3.479431,4.966450
3.487469,4.888682
3.491768,4.888682
3.499798,4.799385
3.507851,4.721653
3.512299,4.560078
3.524319,4.560078
3.528549,4.564329
3.536629,4.402910
3.540981,4.402910
3.548981,4.402910
3.557030,4.241086
3.565231,4.241086
3.573460,4.079912
3.577740,4.091033
3.585800,3.929994
3.593948,3.929994
3.598209,3.773149
3.606239,3.612650
3.614460,3.612650
3.622681,3.542487
3.626991,3.400415
3.635059,3.317650
3.643131,3.317650
3.647469,3.171632
3.655491,3.118599
3.663719,3.118599
3.671848,3.055117
3.680038,2.900093
3.684250,2.879160
3.692299,2.879160
3.700428,2.800301
3.704708,2.728428
3.712971,2.728428
3.721119,2.716205
3.729160,2.646932
3.737289,2.646932
3.741650,2.646932
3.749649,2.646932
3.757870,2.539678
3.765911,2.539678
3.774220,2.583159
3.778488,2.583159
3.786549,2.583159
3.794769,2.583159
3.799019,2.583159
3.806969,2.517850
3.815189,2.517850
3.823429,2.517850
3.831539,2.517850
3.835899,2.517850
3.843861,2.517850
3.851978,2.517850
3.856289,2.407453
3.864571,2.407453
3.872650,2.335484
3.880821,2.335484
3.888859,2.294990
3.893089,2.294990
3.901150,2.294990
3.905491,2.252206
3.913712,2.112574
3.925690,2.112574
3.929989,2.073676
3.938011,2.073676
3.942329,2.073676
3.950428,2.032977
3.958420,2.032977
3.966591,1.923052
3.974861,1.923052
3.979149,1.886059
3.987190,1.815961
3.995380,1.815961
3.999580,1.785202
4.007618,1.752900
4.015808,1.752900
4.024010,1.752900
4.028320,1.728730
4.036430,1.728730
4.044491,1.728730
4.048740,1.702953
4.056801,1.702953
4.065029,1.702953
4.073219,1.685976
4.081390,1.667183
4.085609,1.667183
4.093670,1.667183
4.098042,1.667183
4.106049,1.658120
4.114281,1.658120
4.122471,1.580534
4.130550,1.568852
4.134850,1.568852
4.142891,1.568852
4.150970,1.568852
4.155300,1.568852
4.163639,1.568852
4.171688,1.568852
4.179810,1.567480
4.187859,1.563855
4.192131,1.563855
4.200199,1.485431
4.208241,1.485431
4.216450,1.485431
4.224731,1.485431
4.228981,1.485431
4.237049,1.485431
4.245190,1.485431
4.249451,1.568852
4.257610,1.568852
4.265709,1.568852
4.273899,1.490954
4.282021,1.490954
4.286350,1.407643
4.294510,1.407643
4.302719,1.407643
4.310799,1.407643
4.318829,1.407643
4.327099,1.407643
4.331470,1.329427
4.339458,1.329427
4.347580,1.329427
4.351910,1.329427
4.359921,1.329427
4.368019,1.329427
4.376289,1.329427
4.384430,1.328691
4.388680,1.328691
4.396759,1.328691
4.401081,1.328691
4.409130,1.326627
4.417229,1.326627
4.425499,1.326627
4.433601,1.326627
4.437870,1.326627
4.445980,1.326627
4.454060,1.335448
4.458321,1.257722
4.466469,1.257722
4.474739,1.257722
4.482769,1.183990
4.490891,1.183990
4.495171,1.183990
4.503220,1.183990
4.507561,1.204148
4.515690,1.204148
4.523972,1.204148
4.532028,1.224613
4.540051,1.224613
4.544411,1.224613
4.552479,1.224613
4.560501,1.224613
4.568630,1.182337
4.576950,1.182337
4.581261,1.214665
4.589310,1.214665
4.597431,1.214665
4.601700,1.214665
4.609760,1.214665
4.617878,1.214665
4.626171,1.214665
4.634281,1.254606
4.638569,1.295431
4.646641,1.295431
4.654770,1.295431
4.659031,1.295431
4.667171,1.225252
4.675461,1.225252
4.683468,1.225252
4.691540,1.225252
4.695961,1.163484
4.707901,1.163484
4.716190,1.163484
4.720470,1.163484
4.728519,1.163484
4.736660,1.163484
4.740952,1.163484
4.748970,1.163484
4.757099,1.163484
4.765400,1.163484
4.769569,1.163484
4.777748,1.163484
4.785870,1.163484
4.790188,1.072467
4.798260,1.000342
4.806351,1.000342
4.814518,1.000342
4.818829,0.936700
4.826962,0.936700
4.835079,0.936700
4.843140,0.936700
4.847458,0.936700
4.855640,0.936700
4.864048,0.936700
4.871880,0.936700
4.880020,0.936700
4.884300,0.936700
4.892418,0.936700
4.900429,0.936700
4.908638,0.936700
4.916851,0.936700
4.925049,0.936700
4.929310,0.936700
4.937408,0.936700
4.945709,0.936700
4.953751,0.936700
4.958050,0.936700
4.966251,0.936700
4.974510,0.936700
4.982540,0.936700
4.990582,0.936700
4.998760,0.936700
5.007019,0.936700
5.015190,0.936700
5.019520,0.936700
5.027649,0.936700
5.035679,0.936700
5.040001,0.936700
5.048088,0.936700
5.056351,0.936700
5.064579,0.936700
5.072590,0.936700
5.080658,0.936700
5.088779,0.936700
5.093231,0.936700
5.101288,0.936700
5.109421,0.936700
5.117611,0.936700
5.125832,0.936700
5.133949,0.936700
5.138210,0.936700
5.146461,0.936700
5.154648,0.930201
5.162701,0.930201
5.170750,0.930201
5.179001,0.930201
5.183300,0.930201
5.191349,0.930201
5.199478,0.886690
5.207710,0.886690
5.215919,0.886690
5.224010,0.886690
5.228329,0.886690
5.236420,0.886690
5.244518,0.846267
5.248768,0.915998
5.257080,0.915998
5.265221,0.915998
5.273239,0.915998
5.281380,0.915998
5.285690,0.915998
5.293770,0.915998
5.301819,0.915998
5.309971,0.915998
5.318249,0.915998
5.326431,0.915998
5.330730,0.915998
5.338821,0.915998
5.347069,0.915998
5.355270,0.915998
5.363350,0.915998
5.367668,0.915998
5.379688,0.915998
5.383949,0.915998
5.391979,0.915998
5.400139,0.915998
5.408421,0.915998
5.416561,0.915998
5.420910,0.915998
5.429039,0.846267
5.437031,0.846267
5.441399,0.846267
5.449429,0.922597
5.457500,0.922597
5.461811,0.922597
5.469872,0.922597
5.478100,0.922597
5.486179,0.922597
5.490479,0.893943
5.498569,0.893943
5.506660,0.973576
5.510929,0.949563
5.519131,0.949563
5.527321,0.949563
5.535408,0.874021
5.539688,0.874021
5.547771,0.874021
5.555809,0.874021
5.560169,0.874021
5.568310,0.854779
5.576550,0.854779
5.584599,0.854779
5.592659,0.930622
5.597038,0.930622
5.605049,0.852487
5.613091,0.852487
5.621231,0.852487
5.629539,0.852487
5.633862,0.852487
5.641899,0.847422
5.650021,0.847422
5.654320,0.847422
5.662350,0.847422
5.670490,0.852257
5.678761,0.852257
5.686878,0.852257
5.691139,0.852257
5.699230,0.852257
5.707390,0.852257
5.711609,0.852257
5.719719,0.852257
5.727982,0.852257
5.736038,0.852257
5.740379,0.859801
5.748451,0.859801
5.756519,0.936700
5.760841,0.936700
5.768959,0.858206
5.777260,0.858206
5.785400,0.858206
5.793449,0.858206
5.797779,0.858206
5.805740,0.858206
5.813778,0.858206
5.818199,0.858206
5.830261,0.858206
5.834579,0.858206
5.842659,0.858206
5.850700,0.858206
5.854988,0.858206
5.863041,0.941284
5.871140,0.862981
5.879410,0.862981
5.887550,0.862981
5.891800,0.862981
5.899899,0.862981
5.908031,0.862981
5.912281,0.862981
5.920429,0.862981
5.928680,0.862981
5.936710,0.862981
5.941090,0.877150
5.949200,0.877150
5.957470,0.877150
5.965729,0.877150
5.973701,0.877150
5.981789,0.892410
5.989960,0.892410
5.994171,0.892410
6.002239,0.892410
