time,angle
-0.498261,0.106531
-0.490101,0.106531
-0.481941,0.106531
-0.473822,0.052339
-0.465771,0.052339
-0.461512,0.052339
-0.453461,0.052339
-0.445351,0.052339
-0.440941,0.052339
-0.428902,0.052339
-0.424671,0.052339
-0.416632,0.079129
-0.412272,0.079129
-0.404211,0.071326
-0.396172,0.071326
-0.388022,0.071326
-0.379751,0.071326
-0.375410,0.071326
-0.367392,0.071326
-0.359282,0.071326
-0.354940,0.146710
-0.346932,0.181308
-0.338760,0.181308
-0.330511,0.181308
-0.322392,0.181308
-0.318131,0.181308
-0.309961,0.181308
-0.301941,0.181308
-0.297670,0.181308
-0.289541,0.235734
-0.281302,0.235734
-0.273232,0.235734
-0.265171,0.235734
-0.260761,0.235734
-0.248812,0.235734
-0.240511,0.235734
-0.236292,0.235734
-0.228201,0.235734
-0.220032,0.235734
-0.215811,0.235734
-0.207741,0.235734
-0.199532,0.235734
-0.191311,0.235734
-0.183121,0.235734
-0.178881,0.306467
-0.170811,0.306467
-0.162651,0.306467
-0.154560,0.306467
-0.150190,0.306467
-0.138222,0.306467
-0.133720,0.306467
-0.125721,0.306467
-0.117651,0.306467
-0.109411,0.306467
-0.101191,0.306467
-0.093012,0.306467
-0.088772,0.306467
-0.080570,0.306467
-0.072512,0.278363
-0.064411,0.278363
-0.060061,0.278363
-0.048130,0.278363
-0.039801,0.278363
-0.035601,0.278363
-0.027521,0.278363
-0.023170,0.278363
-0.015131,0.278363
-0.006990,0.354430
0.001139,0.354430
0.009359,0.354430
0.013659,0.354430
0.021889,0.354430
0.029829,0.354430
0.037998,0.376905
0.042259,0.376905
0.050409,0.376905
0.058699,0.376905
0.066870,0.376905
0.074919,0.376905
0.082998,0.376905
0.091299,0.376905
0.099508,0.376905
0.107639,0.376905
0.111990,0.376905
0.120138,0.354430
0.128199,0.354430
0.136259,0.354430
0.140610,0.354430
0.148840,0.354430
0.160889,0.354430
0.165129,0.354430
0.173189,0.349426
0.181339,0.349426
0.185570,0.349426
0.193649,0.349426
0.197949,0.349426
0.206049,0.349426
0.214100,0.349426
0.222349,0.349426
0.226629,0.349426
0.234690,0.349426
0.242800,0.349426
0.247099,0.361536
0.255190,0.361536
0.263229,0.361536
0.271469,0.361536
0.275808,0.392170
0.283859,0.392170
0.292019,0.392170
0.296259,0.392170
0.304289,0.392170
0.312429,0.392170
0.320709,0.392170
0.328810,0.433410
0.333090,0.488589
0.341148,0.488589
0.349258,0.488589
0.353519,0.488589
0.361660,0.488589
0.369940,0.488589
0.378038,0.488589
0.386108,0.488589
0.390400,0.488589
0.398449,0.545364
0.402769,0.613256
0.410910,0.613256
0.423019,0.613256
0.427269,0.613256
0.435299,0.613256
0.439650,0.613256
0.447689,0.613256
0.455849,0.751474
0.463879,0.751474
0.472179,0.751474
0.476500,0.751474
0.484509,0.751474
0.492769,0.751474
0.497040,0.827562
0.505058,0.898093
0.513119,0.898093
0.521509,0.898093
0.529490,0.898093
0.533770,1.049225
0.541819,1.049225
0.549978,1.049225
0.554209,1.049225
0.562340,1.129692
0.570620,1.129692
0.578678,1.203010
0.586819,1.203010
0.591089,1.203010
0.599169,1.284661
0.603479,1.284661
0.611599,1.358979
0.619860,1.358979
0.627909,1.441165
0.635988,1.441165
0.640320,1.441165
0.648378,1.535441
0.656448,1.617253
0.664539,1.617253
0.672878,1.617253
0.677158,1.617253
0.685200,1.691191
0.693350,1.691191
0.697619,1.773986
0.705689,1.773986
0.713770,1.830452
0.722069,1.830452
0.730160,1.929757
0.734449,1.929757
0.742510,1.929757
0.750649,1.929757
0.754889,2.087879
0.763008,2.087879
0.771259,2.087879
0.779348,2.087879
0.783640,2.171777
0.791750,2.171777
0.799830,2.246725
0.804098,2.262178
0.812269,2.262178
0.820519,2.262178
0.828560,2.345936
0.836649,2.420184
0.840960,2.420184
0.849009,2.420184
0.857090,2.420184
0.861460,2.504287
0.873539,2.504287
0.877800,2.504287
0.885830,2.504287
0.894009,2.504287
0.898258,2.578685
0.906279,2.594576
0.914490,2.678396
0.922838,2.678396
0.927069,2.678396
0.935129,2.678396
0.943190,2.678396
0.947529,2.752428
0.955540,2.752428
0.963659,2.836625
0.971939,2.836625
0.980040,2.855128
0.984320,2.855128
0.992378,2.855128
1.000500,2.855128
1.004768,2.855128
1.012909,2.928774
1.021250,2.928774
1.029240,2.928774
1.037359,2.928774
1.041630,2.928774
1.049688,2.996893
1.057779,2.996893
1.062159,2.996893
1.074240,2.996893
1.078489,2.996893
1.086519,3.014608
1.094719,3.014608
1.098949,3.088257
1.106989,3.172558
1.115099,3.172558
1.123409,3.172558
1.127699,3.172558
1.135769,3.172558
1.143879,3.172558
1.148199,3.172558
1.156229,3.231436
1.164339,3.316411
1.172609,3.316411
1.180719,3.316411
1.185040,3.316411
1.193069,3.316411
1.201189,3.316411
1.205448,3.316411
1.213589,3.316411
1.221939,3.316411
1.229898,3.316411
1.238020,3.316411
1.242319,3.316411
1.250380,3.390440
1.258490,3.475643
1.262819,3.491100
1.274910,3.491100
1.279150,3.477220
1.287230,3.477220
1.295328,3.477220
1.303579,3.477220
1.311800,3.477220
1.316099,3.477220
1.324219,3.477220
1.332279,3.477220
1.340460,3.477220
1.344728,3.477220
1.352888,3.477220
1.361170,3.477220
1.369308,3.463567
1.377378,3.463567
1.385469,3.463567
1.393709,3.463567
1.401949,3.463567
1.410080,3.463567
1.414370,3.613626
1.422588,3.613626
1.430609,3.613626
1.438688,3.613626
1.443100,3.613626
1.455069,3.613626
1.459490,3.613626
1.467548,3.623528
1.475649,3.623528
1.479950,3.623528
1.488039,3.623528
1.496059,3.623528
1.504330,3.623528
1.512520,3.623528
1.516809,3.623528
1.525000,3.612379
1.533009,3.612379
1.537279,3.612379
1.545328,3.604294
1.553438,3.604294
1.561628,3.604294
1.565969,3.690509
1.574080,3.765200
1.582119,3.765200
1.590269,3.765200
1.594528,3.765200
1.602610,3.765200
1.606930,3.764056
1.615028,3.850461
1.623240,3.850461
1.631269,3.850461
1.635599,3.925057
1.643679,3.925057
1.651730,3.925057
1.656199,3.925057
1.664209,4.011466
1.672419,4.011466
1.680470,4.011466
1.688580,4.011466
1.692869,4.011466
1.700930,4.085955
1.709019,4.085955
1.713400,4.172651
1.725578,4.172651
1.729719,4.172651
1.737759,4.172651
1.745979,4.172651
1.750179,4.172651
1.758249,4.172651
1.766359,4.246946
1.774609,4.246946
1.782789,4.246946
1.787039,4.333637
1.795090,4.333637
1.803259,4.333637
1.807480,4.333637
1.815599,4.333637
1.823879,4.333637
1.831999,4.333637
1.836279,4.333637
1.844410,4.333637
1.852629,4.333637
1.860819,4.327576
1.868870,4.327576
1.877020,4.327576
1.881300,4.327576
1.889399,4.327576
1.897459,4.327576
1.905628,4.327576
1.913929,4.327576
1.922049,4.327576
1.926369,4.327576
1.934500,4.327576
1.942739,4.327576
1.950918,4.327576
1.959019,4.327576
1.967058,4.327576
1.975300,4.327576
1.979649,4.327576
1.987679,4.488819
1.995798,4.488819
2.004059,4.488819
2.012329,4.488819
2.020329,4.488819
2.024679,4.488819
2.032740,4.488819
2.040819,4.488819
2.045139,4.488819
2.053339,4.488819
2.065338,4.488819
2.069849,4.485327
2.077780,4.485327
2.085869,4.485327
2.094130,4.485327
2.102280,4.485327
2.106600,4.410910
2.114719,4.323954
2.122990,4.323954
2.131060,4.323954
2.139078,4.323954
2.147228,4.323954
2.155458,4.323954
2.163689,4.323954
2.167959,4.323954
2.176088,4.320918
2.184189,4.320918
2.188459,4.320918
2.196508,4.320918
2.204720,4.320918
2.213030,4.320918
2.221069,4.320918
2.229149,4.320918
2.233540,4.320918
2.241770,4.320918
2.249779,4.320918
2.257818,4.320918
2.266060,4.320918
2.274279,4.320918
2.278580,4.320918
2.286650,4.320918
2.294849,4.320918
2.303108,4.320918
2.311138,4.320918
2.315439,4.320918
2.323689,4.320918
2.331758,4.407979
2.339760,4.482488
2.347889,4.482488
2.356230,4.482488
2.364389,4.482488
2.368689,4.482488
2.376780,4.482488
2.384838,4.482488
2.389198,4.482488
2.397268,4.482488
2.405418,4.482488
2.413670,4.482488
2.421829,4.482488
2.429869,4.482488
2.438000,4.482488
2.446249,4.482488
2.454519,4.482488
2.458830,4.407979
2.466888,4.320918
2.475128,4.320918
2.483149,4.320918
2.487499,4.320918
2.495619,4.320918
2.503939,4.320918
2.512110,4.320918
2.520109,4.320918
2.528219,4.320918
2.532499,4.320918
2.540529,4.320918
2.548630,4.320918
2.553059,4.320918
2.561129,4.320918
2.569229,4.320918
2.577379,4.320918
2.581659,4.320918
2.589720,4.320918
2.597799,4.320918
2.606030,4.320918
2.614260,4.320918
2.622410,4.320918
2.626659,4.320918
2.634769,4.320918
2.642910,4.320918
2.651009,4.320918
2.655430,4.320918
2.667358,4.320918
2.675650,4.320918
2.679909,4.320918
2.688000,4.320918
2.696150,4.320918
2.704399,4.320918
2.712500,4.320918
2.716759,4.320918
2.725189,4.320918
2.733049,4.320918
2.741110,4.320918
2.745569,4.320918
2.757488,4.320918
2.765759,4.320918
2.770020,4.320918
2.778090,4.320918
2.786228,4.320918
2.790468,4.407979
2.798529,4.482488
2.806728,4.482488
2.815008,4.482488
2.823109,4.482488
2.827339,4.482488
2.835409,4.482488
2.843569,4.482488
2.847809,4.482488
2.856159,4.482488
2.864279,4.482488
2.872379,4.482488
2.880520,4.482488
2.884789,4.482488
2.896769,4.482488
2.905008,4.481176
2.909279,4.481176
2.917370,4.481176
2.925638,4.481176
2.933720,4.481176
2.938059,4.481176
2.946190,4.481176
2.954449,4.481176
2.962589,4.481176
2.970650,4.481176
2.978769,4.481176
2.983099,4.481176
2.991150,4.481176
2.999249,4.481176
3.003529,4.481176
3.011608,4.481176
3.019629,4.568833
3.027889,4.568833
3.032200,4.568833
3.040239,4.567675
3.048359,4.642074
3.052660,4.642074
3.060690,4.642074
3.068819,4.642074
3.077080,4.642074
3.085218,4.642074
3.089458,4.642074
3.097580,4.642074
3.101870,4.642074
3.109909,4.642074
3.118029,4.642074
3.126308,4.642074
3.134399,4.642074
3.138689,4.642074
3.146830,4.642074
3.155088,4.642074
3.167120,4.642074
3.171419,4.642074
3.179468,4.642875
3.187618,4.642875
3.191879,4.642875
3.200008,4.570333
3.208118,4.570333
3.216398,4.483231
3.224508,4.483231
3.228828,4.321825
3.236919,4.321825
3.245049,4.321825
3.249319,4.160336
3.257448,4.160336
3.265669,4.160336
3.273909,3.998852
3.281950,3.998852
3.290049,3.837319
3.294359,3.837319
3.302399,3.750715
3.310438,3.675782
3.318628,3.675782
3.326889,3.593631
3.331160,3.518752
3.339249,3.432450
3.347368,3.432450
3.351629,3.439060
3.372108,3.278173
3.372250,3.278173
3.376089,3.278173
3.384239,3.203141
3.388449,3.117280
3.396528,3.117280
3.400848,3.117280
3.408899,2.966033
3.417089,2.966033
3.425289,2.966033
3.433369,2.880724
3.437738,2.805818
3.445709,2.805818
3.453859,2.805818
3.458210,2.645823
3.466389,2.645823
3.474499,2.645823
3.482550,2.485931
3.490700,2.485931
3.494959,2.485931
3.503090,2.401266
3.507429,2.326331
3.515579,2.326331
3.523708,2.241841
3.531769,2.153950
3.539869,2.069330
3.544128,2.069330
3.552170,2.069330
3.560249,1.909571
3.568520,1.909571
3.572779,1.909571
3.580830,1.834297
3.585159,1.834297
3.593208,1.750442
3.601299,1.750442
3.605610,1.750442
3.613640,1.591393
3.621658,1.591393
3.629978,1.591393
3.634209,1.591393
3.642288,1.508050
3.650459,1.433268
3.654690,1.433268
3.662760,1.433268
3.670818,1.350457
3.679119,1.350457
3.683430,1.275949
3.691469,1.275949
3.699610,1.275949
3.703899,1.193702
3.712019,1.119775
3.720030,1.144492
3.728319,1.144492
3.736448,1.065143
3.740709,1.065143
3.748749,1.065143
3.753078,0.994260
3.761129,0.994260
3.769258,0.917066
3.777510,0.917066
3.785620,0.917066
3.789919,0.848114
3.798019,0.848114
3.806099,0.774049
3.810369,0.774049
3.818520,0.735153
3.826790,0.735153
3.834829,0.705821
3.842989,0.636737
3.847239,0.636737
3.855358,0.636737
3.863369,0.636737
3.867760,0.636737
3.879799,0.636737
3.884048,0.686996
3.892090,0.579122
3.900280,0.579122
3.904499,0.579122
3.912550,0.643462
3.920719,0.643462
3.928999,0.643462
3.933279,0.643462
3.941330,0.643462
3.949419,0.643462
3.953739,0.673766
3.961760,0.648611
3.969898,0.648611
3.978180,0.648611
3.986290,0.648611
3.990568,0.648611
3.998678,0.648611
4.006760,0.706929
4.011040,0.706929
4.019159,0.701092
4.027409,0.701092
4.035549,0.701092
4.039780,0.701092
4.047850,0.701092
4.056000,0.703322
4.060228,0.703322
4.068419,0.715732
4.076658,0.715732
4.084719,0.798194
4.092798,0.798194
4.097139,0.798194
4.105179,0.816852
4.113310,0.816852
4.121368,0.816852
4.129688,0.816852
4.133968,0.816852
4.142059,0.842791
4.150139,0.842791
4.154440,0.842791
4.162470,0.842791
4.170589,0.842791
4.178869,0.842791
4.187010,0.876034
4.191359,0.876034
4.199400,0.876034
4.207640,0.876034
4.215738,0.876034
4.223799,0.876034
4.232029,0.876034
4.236259,0.876034
4.244308,0.876034
4.248669,0.876034
4.260609,0.876034
4.265070,0.876034
4.273100,0.876034
4.281210,0.952238
4.285559,0.952238
4.293579,0.952238
4.301680,0.987347
4.305979,0.987347
4.314009,0.919410
4.322069,0.919410
4.330370,0.919410
4.334648,0.919410
4.342699,0.964286
4.350819,0.964286
4.355099,0.964286
4.363129,1.034387
4.371248,1.034387
4.379608,1.034387
4.387678,1.016641
4.391909,1.016641
4.400009,1.016641
4.404329,1.016641
4.412378,1.084081
4.420509,1.084081
4.428780,1.084081
4.436850,1.084081
4.441309,1.084081
4.449259,1.084081
4.457338,1.084081
4.461779,1.021633
4.469740,1.021633
4.478079,1.021633
4.486069,1.021633
4.494160,1.021633
4.498508,1.021633
4.506590,1.089124
4.514568,1.089124
4.519058,1.089124
4.531038,1.089124
4.535389,1.089124
4.543329,1.089124
4.551458,1.089124
4.559710,1.089124
4.567928,1.026792
4.572239,1.026792
4.580349,1.026792
4.588409,1.026792
4.596550,1.026792
4.600779,1.094500
4.608879,1.094500
4.613178,1.094500
4.621229,1.094500
4.629469,1.094500
4.637529,1.049038
4.641890,0.941908
4.649899,1.015678
4.657999,1.015678
4.662279,1.015678
4.670399,1.015678
4.678679,1.015678
4.686720,0.947294
4.694849,1.021250
4.699120,1.021250
4.707199,1.021250
4.711489,1.021250
4.719629,0.952855
4.731730,0.952855
4.735920,0.992092
4.744019,0.992092
4.748339,0.992092
4.756418,0.992092
4.764408,0.920899
4.772558,0.997796
4.780869,0.997796
4.785189,0.997796
4.793249,0.997796
4.801369,0.997796
4.805658,0.926618
4.813709,0.896348
4.821899,0.975785
4.830118,0.975785
4.838240,0.953471
4.842539,0.953471
4.850590,0.953471
4.858700,0.878264
4.863049,0.878264
4.871099,0.878264
4.879419,0.878264
4.887428,0.851108
4.895529,0.851108
4.899818,0.851108
4.907869,0.851108
4.915970,0.773544
4.920328,0.772278
4.932409,0.772278
4.936628,0.777580
4.944710,0.777580
4.949059,0.777580
4.957109,0.777580
4.965149,0.777580
4.973269,0.793522
4.981569,0.793522
4.985880,0.814213
4.993929,0.735153
5.002039,0.735153
5.006338,0.735153
5.014389,0.735153
5.022518,0.735153
5.030779,0.735153
5.038910,0.735153
5.043169,0.735153
5.051229,0.735153
5.059380,0.657301
5.063639,0.657301
5.071749,0.657301
5.080040,0.657301
5.088089,0.657301
5.092419,0.581482
5.100479,0.581482
5.108559,0.581482
5.112909,0.624323
5.121050,0.607485
5.129269,0.607485
5.137289,0.554614
5.145369,0.554614
5.149689,0.554614
5.157740,0.554614
5.165850,0.504354
5.170219,0.504354
5.182259,0.504354
5.186529,0.504354
5.194578,0.464360
5.202728,0.464360
5.207060,0.464360
5.215038,0.464360
5.223160,0.464360
5.231419,0.464360
5.239569,0.437455
5.243818,0.425666
5.251888,0.425666
5.256369,0.425666
5.264290,0.503189
5.272379,0.503189
5.280640,0.503189
5.288750,0.505904
5.293049,0.505904
5.301100,0.505904
5.309238,0.505904
5.313478,0.505904
5.321619,0.505904
5.329889,0.505904
5.337919,0.505904
5.346079,0.589171
5.350328,0.589171
5.358389,0.626201
5.362719,0.626201
5.370850,0.547869
5.382969,0.547869
5.387178,0.547869
5.395229,0.478063
5.399569,0.478063
5.407629,0.478063
5.415659,0.478063
5.423809,0.478063
5.432190,0.478063
5.436449,0.478063
5.444489,0.478063
5.452639,0.478063
5.456919,0.570955
5.465050,0.570955
5.473068,0.570955
5.481319,0.570955
5.489439,0.570955
5.493689,0.570955
5.501829,0.570955
5.509970,0.570955
5.514139,0.570955
5.522280,0.570955
5.530640,0.570955
5.538589,0.630561
5.542929,0.630561
5.551020,0.630561
5.559069,0.739664
5.563358,0.739664
5.571499,0.739664
5.579779,0.739664
5.587839,0.739664
5.595869,0.739664
5.603998,0.739664
5.612259,0.739664
5.620508,0.739664
5.624800,0.739664
5.632898,0.739664
5.641008,0.739664
5.645288,0.739664
5.653349,0.803813
5.661480,0.803813
5.669659,0.917706
5.673979,0.917706
5.682110,0.917706
5.690159,0.917706
5.698290,0.917706
5.702539,0.917706
5.710609,0.917706
5.714930,0.917706
5.723040,0.978588
5.731249,0.978588
5.739279,0.978588
5.747429,1.047358
5.751730,1.047358
5.759760,1.047358
5.764109,1.047358
5.772200,1.047358
5.780458,1.047358
5.788500,1.047358
5.796570,1.047358
5.804668,1.047358
5.812979,1.047358
5.821209,1.047358
5.825439,1.047358
5.833559,1.047358
5.841679,1.047358
5.845928,1.047358
5.854019,1.047358
5.862108,1.047358
5.866449,1.047358
5.874529,1.112236
5.882719,1.112236
5.890820,1.229238
5.895128,1.272571
5.903198,1.272571
5.911299,1.272571
5.915600,1.272571
5.923679,1.272571
5.931938,1.272571
5.940039,1.272571
5.944328,1.272571
5.952389,1.272571
5.960440,1.272571
5.964800,1.324708
5.972879,1.374016
5.981150,1.374016
5.989199,1.374016
5.997290,1.374016
6.001610,1.374016
