index,angle
300,0.000000
301,0.000000
302,0.000000
303,0.000000
304,0.000000
305,0.000000
306,0.096913
307,0.096913
308,0.096913
309,0.096913
310,0.096913
311,0.096913
312,0.096913
313,0.096913
314,0.096913
315,0.096913
316,0.096913
317,0.096913
318,0.096913
319,0.096913
320,0.096913
321,0.096913
322,1.042865
323,1.042865
324,1.042865
325,1.675730
326,1.943601
327,1.943601
328,1.943601
329,1.943601
330,1.943601
331,1.943601
332,2.582477
333,3.874038
334,3.874038
335,3.884285
336,3.884285
337,4.469272
338,5.307180
339,5.819014
340,5.819014
341,5.820361
342,6.388011
343,6.388011
344,7.758130
345,7.758130
346,7.758130
347,8.378081
348,9.689475
349,9.689475
350,9.689475
351,10.314870
352,10.314870
353,11.124470
354,11.124470
355,11.124470
356,12.240570
357,12.240570
358,13.711030
359,13.711030
360,14.192440
361,14.869350
362,15.651470
363,15.611600
364,15.611600
365,16.105930
366,16.105930
367,16.782940
368,16.782940
369,17.551580
370,17.551580
371,17.551580
372,17.551580
373,17.551580
374,18.259980
375,18.259980
376,18.742230
377,18.742230
378,18.682730
379,20.143930
380,20.143930
381,20.143930
382,20.143930
383,21.349080
384,21.349080
385,21.349080
386,21.349080
387,21.349080
388,21.349080
389,21.349080
390,21.349080
391,20.638030
392,20.638030
393,20.708870
394,20.708870
395,20.708870
396,21.455290
397,21.455290
398,21.455290
399,20.778280
400,20.028610
401,20.028610
402,19.500140
403,19.500140
404,19.562430
405,18.887560
406,18.887560
407,18.887560
408,18.887560
409,17.482150
410,16.929840
411,16.980830
412,16.347490
413,16.347490
414,14.391180
415,14.432810
416,14.432810
417,13.060570
418,13.060570
419,12.474110
420,11.941610
421,11.941610
422,11.135190
423,9.995011
424,9.995011
425,9.179115
426,8.079317
427,8.079317
428,7.252849
429,6.661354
430,5.318798
431,4.720616
432,4.720616
433,3.423712
434,1.646989
435,0.853863
436,0.927251
437,1.040987
438,1.040987
439,1.040987
440,1.040987
441,1.040987
442,1.691885
443,1.691885
444,1.691885
445,1.040987
446,1.040987
447,1.040987
448,0.942738
449,0.942738
450,0.942738
451,0.942738
452,0.942738
453,0.942738
454,0.942738
455,1.611555
456,1.611555
457,1.611555
458,1.611555
459,1.611555
460,1.611555
461,1.611555
462,1.611555
463,0.942738
464,0.942738
465,0.942738
466,0.942738
467,0.000000
468,0.000000
469,0.000000
470,0.000000
471,0.000000
472,0.098912
473,0.098912
474,0.098912
475,0.098912
476,0.098912
477,0.000000
478,0.000000
479,0.000000
480,0.000000
481,0.000000
482,1.612284
483,1.612284
484,1.612284
485,1.612284
486,1.612284
487,1.943601
488,1.675730
489,1.612284
490,1.612284
491,1.612284
492,1.612284
493,1.612284
494,1.612284
495,1.612284
496,1.612284
497,1.612284
498,1.612284
499,1.925391
