time,eventDescription
0.002074,SessionStart
11.012600,StartActuatingFront
14.021430,StopActuating
23.029040,StartActuatingRight
26.038740,StopActuating
41.042300,StartActuatingLeft
44.052330,StopActuating
49.059250,StartActuatingBack
52.070740,StopActuating
69.074010,StartActuatingRight
72.082950,StopActuating
85.089200,StartActuatingFront
88.098460,StopActuating
95.109970,StartActuatingBack
98.116000,StopActuating
117.127000,StartActuatingLeft
120.128100,StopActuating
123.138100,SessionEnd
